xof 0302txt 0064
template Header {
 <3D82AB43-62DA-11cf-AB39-0020AF71E433>
 WORD major;
 WORD minor;
 DWORD flags;
}

template Vector {
 <3D82AB5E-62DA-11cf-AB39-0020AF71E433>
 FLOAT x;
 FLOAT y;
 FLOAT z;
}

template Coords2d {
 <F6F23F44-7686-11cf-8F52-0040333594A3>
 FLOAT u;
 FLOAT v;
}

template Matrix4x4 {
 <F6F23F45-7686-11cf-8F52-0040333594A3>
 array FLOAT matrix[16];
}

template ColorRGBA {
 <35FF44E0-6C7C-11cf-8F52-0040333594A3>
 FLOAT red;
 FLOAT green;
 FLOAT blue;
 FLOAT alpha;
}

template ColorRGB {
 <D3E16E81-7835-11cf-8F52-0040333594A3>
 FLOAT red;
 FLOAT green;
 FLOAT blue;
}

template IndexedColor {
 <1630B820-7842-11cf-8F52-0040333594A3>
 DWORD index;
 ColorRGBA indexColor;
}

template Boolean {
 <4885AE61-78E8-11cf-8F52-0040333594A3>
 WORD truefalse;
}

template Boolean2d {
 <4885AE63-78E8-11cf-8F52-0040333594A3>
 Boolean u;
 Boolean v;
}

template MaterialWrap {
 <4885AE60-78E8-11cf-8F52-0040333594A3>
 Boolean u;
 Boolean v;
}

template TextureFilename {
 <A42790E1-7810-11cf-8F52-0040333594A3>
 STRING filename;
}

template Material {
 <3D82AB4D-62DA-11cf-AB39-0020AF71E433>
 ColorRGBA faceColor;
 FLOAT power;
 ColorRGB specularColor;
 ColorRGB emissiveColor;
 [...]
}

template MeshFace {
 <3D82AB5F-62DA-11cf-AB39-0020AF71E433>
 DWORD nFaceVertexIndices;
 array DWORD faceVertexIndices[nFaceVertexIndices];
}

template MeshFaceWraps {
 <4885AE62-78E8-11cf-8F52-0040333594A3>
 DWORD nFaceWrapValues;
 Boolean2d faceWrapValues;
}

template MeshTextureCoords {
 <F6F23F40-7686-11cf-8F52-0040333594A3>
 DWORD nTextureCoords;
 array Coords2d textureCoords[nTextureCoords];
}

template MeshMaterialList {
 <F6F23F42-7686-11cf-8F52-0040333594A3>
 DWORD nMaterials;
 DWORD nFaceIndexes;
 array DWORD faceIndexes[nFaceIndexes];
 [Material]
}

template MeshNormals {
 <F6F23F43-7686-11cf-8F52-0040333594A3>
 DWORD nNormals;
 array Vector normals[nNormals];
 DWORD nFaceNormals;
 array MeshFace faceNormals[nFaceNormals];
}

template MeshVertexColors {
 <1630B821-7842-11cf-8F52-0040333594A3>
 DWORD nVertexColors;
 array IndexedColor vertexColors[nVertexColors];
}

template Mesh {
 <3D82AB44-62DA-11cf-AB39-0020AF71E433>
 DWORD nVertices;
 array Vector vertices[nVertices];
 DWORD nFaces;
 array MeshFace faces[nFaces];
 [...]
}

Header{
1;
0;
1;
}

Mesh {
 398;
 0.00000;49.85000;0.00000;,
 0.00000;49.17011;-8.20504;,
 2.66417;49.17011;-7.76047;,
 0.00000;49.85000;0.00000;,
 5.03964;49.17011;-6.47493;,
 0.00000;49.85000;0.00000;,
 6.86898;49.17011;-4.48773;,
 0.00000;49.85000;0.00000;,
 7.95397;49.17011;-2.01422;,
 0.00000;49.85000;0.00000;,
 8.17702;49.17011;0.67757;,
 0.00000;49.85000;0.00000;,
 7.51396;49.17011;3.29593;,
 0.00000;49.85000;0.00000;,
 6.03664;49.17011;5.55712;,
 0.00000;49.85000;0.00000;,
 3.90517;49.17011;7.21612;,
 0.00000;49.85000;0.00000;,
 1.35051;49.17011;8.09313;,
 0.00000;49.85000;0.00000;,
 -1.35051;49.17011;8.09313;,
 0.00000;49.85000;0.00000;,
 -3.90517;49.17011;7.21612;,
 0.00000;49.85000;0.00000;,
 -6.03664;49.17011;5.55712;,
 0.00000;49.85000;0.00000;,
 -7.51396;49.17011;3.29593;,
 0.00000;49.85000;0.00000;,
 -8.17702;49.17011;0.67756;,
 0.00000;49.85000;0.00000;,
 -7.95397;49.17011;-2.01422;,
 0.00000;49.85000;0.00000;,
 -6.86898;49.17011;-4.48774;,
 0.00000;49.85000;0.00000;,
 -5.03963;49.17011;-6.47494;,
 0.00000;49.85000;0.00000;,
 -2.66416;49.17011;-7.76047;,
 0.00000;49.85000;0.00000;,
 0.00000;49.17011;-8.20504;,
 0.00000;47.14899;-16.18627;,
 5.25567;47.14899;-15.30925;,
 9.94181;47.14899;-12.77324;,
 13.55060;47.14899;-8.85305;,
 15.69097;47.14899;-3.97349;,
 16.13098;47.14899;1.33665;,
 14.82295;47.14899;6.50195;,
 11.90862;47.14899;10.96266;,
 7.70381;47.14899;14.23540;,
 2.66417;47.14899;15.96551;,
 -2.66417;47.14899;15.96551;,
 -7.70381;47.14899;14.23540;,
 -11.90862;47.14899;10.96266;,
 -14.82295;47.14899;6.50195;,
 -16.13098;47.14899;1.33664;,
 -15.69097;47.14899;-3.97350;,
 -13.55059;47.14899;-8.85306;,
 -9.94180;47.14899;-12.77325;,
 -5.25565;47.14899;-15.30926;,
 0.00000;47.14899;-16.18627;,
 0.00000;43.84177;-23.72598;,
 7.70381;43.84177;-22.44044;,
 14.57280;43.84177;-18.72313;,
 19.86259;43.84177;-12.97688;,
 22.99997;43.84177;-5.82438;,
 23.64494;43.84177;1.95928;,
 21.72762;43.84177;9.53062;,
 17.45577;43.84177;16.06917;,
 11.29232;43.84177;20.86637;,
 3.90517;43.84177;23.40238;,
 -3.90517;43.84177;23.40238;,
 -11.29232;43.84177;20.86637;,
 -17.45577;43.84177;16.06917;,
 -21.72762;43.84177;9.53061;,
 -23.64494;43.84177;1.95927;,
 -22.99996;43.84177;-5.82440;,
 -19.86258;43.84177;-12.97690;,
 -14.57278;43.84177;-18.72315;,
 -7.70378;43.84177;-22.44045;,
 0.00000;43.84177;-23.72598;,
 0.00000;39.33865;-30.61850;,
 9.94181;39.33865;-28.95951;,
 18.80627;39.33865;-24.16230;,
 25.63278;39.33865;-16.74673;,
 29.68158;39.33865;-7.51640;,
 30.51393;39.33865;2.52846;,
 28.03961;39.33865;12.29931;,
 22.52677;39.33865;20.73735;,
 14.57280;39.33865;26.92817;,
 5.03964;39.33865;30.20091;,
 -5.03964;39.33865;30.20091;,
 -14.57280;39.33865;26.92817;,
 -22.52676;39.33865;20.73735;,
 -28.03961;39.33865;12.29931;,
 -30.51393;39.33865;2.52844;,
 -29.68158;39.33865;-7.51642;,
 -25.63277;39.33865;-16.74676;,
 -18.80625;39.33865;-24.16232;,
 -9.94177;39.33865;-28.95952;,
 0.00000;39.33865;-30.61850;,
 0.00000;33.76248;-36.67584;,
 11.90862;33.76248;-34.68864;,
 22.52677;33.76248;-28.94239;,
 30.70378;33.76248;-20.05978;,
 35.55356;33.76248;-9.00339;,
 36.55057;33.76248;3.02867;,
 33.58676;33.76248;14.73251;,
 26.98329;33.76248;24.83987;,
 17.45577;33.76248;32.25544;,
 6.03665;33.76248;36.17563;,
 -6.03664;33.76248;36.17563;,
 -17.45577;33.76248;32.25544;,
 -26.98329;33.76248;24.83987;,
 -33.58676;33.76248;14.73251;,
 -36.55057;33.76248;3.02865;,
 -35.55356;33.76248;-9.00341;,
 -30.70376;33.76248;-20.05981;,
 -22.52673;33.76248;-28.94242;,
 -11.90858;33.76248;-34.68866;,
 0.00000;33.76248;-36.67584;,
 0.00000;27.26537;-41.73275;,
 13.55060;27.26537;-39.47155;,
 25.63279;27.26537;-32.93300;,
 34.93726;27.26537;-22.82565;,
 40.45574;27.26537;-10.24479;,
 41.59021;27.26537;3.44626;,
 38.21774;27.26537;16.76385;,
 30.70378;27.26537;28.26482;,
 19.86259;27.26537;36.70286;,
 6.86899;27.26537;41.16357;,
 -6.86898;27.26537;41.16357;,
 -19.86259;27.26537;36.70286;,
 -30.70378;27.26537;28.26482;,
 -38.21774;27.26537;16.76385;,
 -41.59021;27.26537;3.44625;,
 -40.45573;27.26537;-10.24481;,
 -34.93724;27.26537;-22.82568;,
 -25.63275;27.26537;-32.93303;,
 -13.55055;27.26537;-39.47157;,
 0.00000;27.26537;-41.73275;,
 0.00000;20.02452;-45.65130;,
 14.82295;20.02452;-43.17779;,
 28.03961;20.02452;-36.02529;,
 38.21774;20.02452;-24.96889;,
 44.25438;20.02452;-11.20673;,
 45.49538;20.02452;3.76985;,
 41.80624;20.02452;18.33792;,
 33.58676;20.02452;30.91878;,
 21.72762;20.02452;40.14912;,
 7.51396;20.02452;45.02867;,
 -7.51396;20.02452;45.02867;,
 -21.72762;20.02452;40.14912;,
 -33.58675;20.02452;30.91879;,
 -41.80625;20.02452;18.33791;,
 -45.49538;20.02452;3.76983;,
 -44.25437;20.02452;-11.20676;,
 -38.21772;20.02452;-24.96893;,
 -28.03957;20.02452;-36.02532;,
 -14.82289;20.02452;-43.17781;,
 0.00000;20.02452;-45.65130;,
 0.00000;12.23745;-48.32460;,
 15.69097;12.23745;-45.70624;,
 29.68159;12.23745;-38.13490;,
 40.45574;12.23745;-26.43105;,
 46.84588;12.23745;-11.86299;,
 48.15955;12.23745;3.99061;,
 44.25438;12.23745;19.41177;,
 35.55357;12.23745;32.72936;,
 22.99997;12.23745;42.50022;,
 7.95397;12.23745;47.66552;,
 -7.95397;12.23745;47.66552;,
 -22.99997;12.23745;42.50022;,
 -35.55356;12.23745;32.72936;,
 -44.25439;12.23745;19.41176;,
 -48.15955;12.23745;3.99059;,
 -46.84588;12.23745;-11.86302;,
 -40.45572;12.23745;-26.43109;,
 -29.68154;12.23745;-38.13494;,
 -15.69091;12.23745;-45.70627;,
 0.00000;12.23745;-48.32460;,
 0.00000;4.11658;-49.67974;,
 16.13098;4.11658;-46.98795;,
 30.51393;4.11658;-39.20429;,
 41.59021;4.11658;-27.17224;,
 48.15955;4.11658;-12.19566;,
 49.51006;4.11658;4.10252;,
 45.49538;4.11658;19.95612;,
 36.55057;4.11658;33.64717;,
 23.64494;4.11658;43.69202;,
 8.17702;4.11658;49.00217;,
 -8.17701;4.11658;49.00217;,
 -23.64494;4.11658;43.69203;,
 -36.55057;4.11658;33.64717;,
 -45.49538;4.11658;19.95611;,
 -49.51006;4.11658;4.10250;,
 -48.15954;4.11658;-12.19569;,
 -41.59018;4.11658;-27.17228;,
 -30.51388;4.11658;-39.20433;,
 -16.13092;4.11658;-46.98797;,
 0.00000;4.11658;-49.67974;,
 0.00000;-4.11658;-49.67974;,
 16.13098;-4.11658;-46.98795;,
 30.51393;-4.11658;-39.20429;,
 41.59021;-4.11658;-27.17224;,
 48.15955;-4.11658;-12.19566;,
 49.51006;-4.11658;4.10252;,
 45.49538;-4.11658;19.95612;,
 36.55057;-4.11658;33.64717;,
 23.64494;-4.11658;43.69202;,
 8.17702;-4.11658;49.00217;,
 -8.17701;-4.11658;49.00217;,
 -23.64494;-4.11658;43.69203;,
 -36.55057;-4.11658;33.64717;,
 -45.49538;-4.11658;19.95611;,
 -49.51006;-4.11658;4.10250;,
 -48.15954;-4.11658;-12.19569;,
 -41.59018;-4.11658;-27.17228;,
 -30.51388;-4.11658;-39.20433;,
 -16.13092;-4.11658;-46.98797;,
 0.00000;-4.11658;-49.67974;,
 0.00000;-12.23745;-48.32460;,
 15.69097;-12.23745;-45.70624;,
 29.68159;-12.23745;-38.13490;,
 40.45574;-12.23745;-26.43105;,
 46.84588;-12.23745;-11.86299;,
 48.15955;-12.23745;3.99061;,
 44.25438;-12.23745;19.41177;,
 35.55357;-12.23745;32.72936;,
 22.99997;-12.23745;42.50022;,
 7.95397;-12.23745;47.66552;,
 -7.95397;-12.23745;47.66552;,
 -22.99997;-12.23745;42.50022;,
 -35.55356;-12.23745;32.72936;,
 -44.25439;-12.23745;19.41176;,
 -48.15955;-12.23745;3.99059;,
 -46.84588;-12.23745;-11.86302;,
 -40.45572;-12.23745;-26.43109;,
 -29.68154;-12.23745;-38.13494;,
 -15.69091;-12.23745;-45.70627;,
 0.00000;-12.23745;-48.32460;,
 0.00000;-20.02452;-45.65130;,
 14.82295;-20.02452;-43.17779;,
 28.03961;-20.02452;-36.02529;,
 38.21774;-20.02452;-24.96889;,
 44.25438;-20.02452;-11.20673;,
 45.49538;-20.02452;3.76985;,
 41.80624;-20.02452;18.33792;,
 33.58676;-20.02452;30.91878;,
 21.72762;-20.02452;40.14912;,
 7.51396;-20.02452;45.02867;,
 -7.51396;-20.02452;45.02867;,
 -21.72762;-20.02452;40.14912;,
 -33.58675;-20.02452;30.91879;,
 -41.80625;-20.02452;18.33791;,
 -45.49538;-20.02452;3.76983;,
 -44.25437;-20.02452;-11.20676;,
 -38.21772;-20.02452;-24.96893;,
 -28.03957;-20.02452;-36.02532;,
 -14.82289;-20.02452;-43.17781;,
 0.00000;-20.02452;-45.65130;,
 0.00000;-27.26537;-41.73275;,
 13.55060;-27.26537;-39.47155;,
 25.63278;-27.26537;-32.93300;,
 34.93726;-27.26537;-22.82565;,
 40.45574;-27.26537;-10.24478;,
 41.59021;-27.26537;3.44626;,
 38.21774;-27.26537;16.76385;,
 30.70378;-27.26537;28.26482;,
 19.86259;-27.26537;36.70286;,
 6.86899;-27.26537;41.16357;,
 -6.86898;-27.26537;41.16357;,
 -19.86259;-27.26537;36.70286;,
 -30.70378;-27.26537;28.26482;,
 -38.21774;-27.26537;16.76385;,
 -41.59021;-27.26537;3.44625;,
 -40.45573;-27.26537;-10.24481;,
 -34.93724;-27.26537;-22.82568;,
 -25.63275;-27.26537;-32.93303;,
 -13.55055;-27.26537;-39.47157;,
 0.00000;-27.26537;-41.73275;,
 0.00000;-33.76249;-36.67583;,
 11.90862;-33.76249;-34.68864;,
 22.52676;-33.76249;-28.94239;,
 30.70378;-33.76249;-20.05978;,
 35.55356;-33.76249;-9.00339;,
 36.55056;-33.76249;3.02867;,
 33.58675;-33.76249;14.73251;,
 26.98329;-33.76249;24.83986;,
 17.45577;-33.76249;32.25543;,
 6.03664;-33.76249;36.17562;,
 -6.03664;-33.76249;36.17562;,
 -17.45576;-33.76249;32.25543;,
 -26.98329;-33.76249;24.83987;,
 -33.58675;-33.76249;14.73251;,
 -36.55056;-33.76249;3.02865;,
 -35.55355;-33.76249;-9.00341;,
 -30.70376;-33.76249;-20.05981;,
 -22.52673;-33.76249;-28.94241;,
 -11.90858;-33.76249;-34.68865;,
 0.00000;-33.76249;-36.67583;,
 0.00000;-39.33866;-30.61849;,
 9.94181;-39.33866;-28.95950;,
 18.80627;-39.33866;-24.16229;,
 25.63277;-39.33866;-16.74673;,
 29.68157;-39.33866;-7.51640;,
 30.51391;-39.33866;2.52845;,
 28.03960;-39.33866;12.29931;,
 22.52676;-39.33866;20.73734;,
 14.57279;-39.33866;26.92816;,
 5.03964;-39.33866;30.20089;,
 -5.03964;-39.33866;30.20089;,
 -14.57279;-39.33866;26.92816;,
 -22.52675;-39.33866;20.73734;,
 -28.03960;-39.33866;12.29930;,
 -30.51391;-39.33866;2.52844;,
 -29.68157;-39.33866;-7.51641;,
 -25.63276;-39.33866;-16.74675;,
 -18.80624;-39.33866;-24.16231;,
 -9.94177;-39.33866;-28.95951;,
 0.00000;-39.33866;-30.61849;,
 0.00000;-43.84178;-23.72596;,
 7.70381;-43.84178;-22.44042;,
 14.57278;-43.84178;-18.72311;,
 19.86258;-43.84178;-12.97687;,
 22.99995;-43.84178;-5.82438;,
 23.64492;-43.84178;1.95927;,
 21.72760;-43.84178;9.53061;,
 17.45575;-43.84178;16.06915;,
 11.29231;-43.84178;20.86636;,
 3.90517;-43.84178;23.40237;,
 -3.90516;-43.84178;23.40237;,
 -11.29231;-43.84178;20.86636;,
 -17.45575;-43.84178;16.06915;,
 -21.72760;-43.84178;9.53060;,
 -23.64492;-43.84178;1.95926;,
 -22.99995;-43.84178;-5.82439;,
 -19.86256;-43.84178;-12.97689;,
 -14.57276;-43.84178;-18.72313;,
 -7.70378;-43.84178;-22.44043;,
 0.00000;-43.84178;-23.72596;,
 0.00000;-47.14900;-16.18624;,
 5.25566;-47.14900;-15.30923;,
 9.94180;-47.14900;-12.77322;,
 13.55058;-47.14900;-8.85303;,
 15.69095;-47.14900;-3.97349;,
 16.13096;-47.14900;1.33665;,
 14.82293;-47.14900;6.50194;,
 11.90861;-47.14900;10.96264;,
 7.70380;-47.14900;14.23537;,
 2.66417;-47.14900;15.96548;,
 -2.66417;-47.14900;15.96548;,
 -7.70380;-47.14900;14.23537;,
 -11.90860;-47.14900;10.96264;,
 -14.82293;-47.14900;6.50194;,
 -16.13096;-47.14900;1.33664;,
 -15.69094;-47.14900;-3.97350;,
 -13.55057;-47.14900;-8.85305;,
 -9.94178;-47.14900;-12.77323;,
 -5.25564;-47.14900;-15.30923;,
 0.00000;-47.14900;-16.18624;,
 0.00000;-49.17012;-8.20501;,
 2.66416;-49.17012;-7.76044;,
 5.03962;-49.17012;-6.47490;,
 6.86896;-49.17012;-4.48771;,
 7.95394;-49.17012;-2.01421;,
 8.17698;-49.17012;0.67756;,
 7.51393;-49.17012;3.29591;,
 6.03662;-49.17012;5.55710;,
 3.90515;-49.17012;7.21609;,
 1.35050;-49.17012;8.09310;,
 -1.35050;-49.17012;8.09310;,
 -3.90515;-49.17012;7.21609;,
 -6.03662;-49.17012;5.55710;,
 -7.51393;-49.17012;3.29591;,
 -8.17698;-49.17012;0.67756;,
 -7.95393;-49.17012;-2.01422;,
 -6.86895;-49.17012;-4.48772;,
 -5.03961;-49.17012;-6.47491;,
 -2.66415;-49.17012;-7.76044;,
 0.00000;-49.17012;-8.20501;,
 0.00000;-49.85000;-0.00000;,
 0.00000;-49.85000;-0.00000;,
 0.00000;-49.85000;-0.00000;,
 0.00000;-49.85000;-0.00000;,
 0.00000;-49.85000;-0.00000;,
 0.00000;-49.85000;-0.00000;,
 0.00000;-49.85000;-0.00000;,
 0.00000;-49.85000;-0.00000;,
 0.00000;-49.85000;-0.00000;,
 0.00000;-49.85000;-0.00000;,
 0.00000;-49.85000;-0.00000;,
 0.00000;-49.85000;-0.00000;,
 0.00000;-49.85000;-0.00000;,
 0.00000;-49.85000;-0.00000;,
 0.00000;-49.85000;-0.00000;,
 0.00000;-49.85000;-0.00000;,
 0.00000;-49.85000;-0.00000;,
 0.00000;-49.85000;-0.00000;,
 0.00000;-49.85000;-0.00000;;
 
 361;
 3;0,1,2;,
 3;3,2,4;,
 3;5,4,6;,
 3;7,6,8;,
 3;9,8,10;,
 3;11,10,12;,
 3;13,12,14;,
 3;15,14,16;,
 3;17,16,18;,
 3;19,18,20;,
 3;21,20,22;,
 3;23,22,24;,
 3;25,24,26;,
 3;27,26,28;,
 3;29,28,30;,
 3;31,30,32;,
 3;33,32,34;,
 3;35,34,36;,
 3;37,36,38;,
 4;1,39,40,2;,
 4;2,40,41,4;,
 4;4,41,42,6;,
 4;6,42,43,8;,
 4;8,43,44,10;,
 4;10,44,45,12;,
 4;12,45,46,14;,
 4;14,46,47,16;,
 4;16,47,48,18;,
 4;18,48,49,20;,
 4;20,49,50,22;,
 4;22,50,51,24;,
 4;24,51,52,26;,
 4;26,52,53,28;,
 4;28,53,54,30;,
 4;30,54,55,32;,
 4;32,55,56,34;,
 4;34,56,57,36;,
 4;36,57,58,38;,
 4;39,59,60,40;,
 4;40,60,61,41;,
 4;41,61,62,42;,
 4;42,62,63,43;,
 4;43,63,64,44;,
 4;44,64,65,45;,
 4;45,65,66,46;,
 4;46,66,67,47;,
 4;47,67,68,48;,
 4;48,68,69,49;,
 4;49,69,70,50;,
 4;50,70,71,51;,
 4;51,71,72,52;,
 4;52,72,73,53;,
 4;53,73,74,54;,
 4;54,74,75,55;,
 4;55,75,76,56;,
 4;56,76,77,57;,
 4;57,77,78,58;,
 4;59,79,80,60;,
 4;60,80,81,61;,
 4;61,81,82,62;,
 4;62,82,83,63;,
 4;63,83,84,64;,
 4;64,84,85,65;,
 4;65,85,86,66;,
 4;66,86,87,67;,
 4;67,87,88,68;,
 4;68,88,89,69;,
 4;69,89,90,70;,
 4;70,90,91,71;,
 4;71,91,92,72;,
 4;72,92,93,73;,
 4;73,93,94,74;,
 4;74,94,95,75;,
 4;75,95,96,76;,
 4;76,96,97,77;,
 4;77,97,98,78;,
 4;79,99,100,80;,
 4;80,100,101,81;,
 4;81,101,102,82;,
 4;82,102,103,83;,
 4;83,103,104,84;,
 4;84,104,105,85;,
 4;85,105,106,86;,
 4;86,106,107,87;,
 4;87,107,108,88;,
 4;88,108,109,89;,
 4;89,109,110,90;,
 4;90,110,111,91;,
 4;91,111,112,92;,
 4;92,112,113,93;,
 4;93,113,114,94;,
 4;94,114,115,95;,
 4;95,115,116,96;,
 4;96,116,117,97;,
 4;97,117,118,98;,
 4;99,119,120,100;,
 4;100,120,121,101;,
 4;101,121,122,102;,
 4;102,122,123,103;,
 4;103,123,124,104;,
 4;104,124,125,105;,
 4;105,125,126,106;,
 4;106,126,127,107;,
 4;107,127,128,108;,
 4;108,128,129,109;,
 4;109,129,130,110;,
 4;110,130,131,111;,
 4;111,131,132,112;,
 4;112,132,133,113;,
 4;113,133,134,114;,
 4;114,134,135,115;,
 4;115,135,136,116;,
 4;116,136,137,117;,
 4;117,137,138,118;,
 4;119,139,140,120;,
 4;120,140,141,121;,
 4;121,141,142,122;,
 4;122,142,143,123;,
 4;123,143,144,124;,
 4;124,144,145,125;,
 4;125,145,146,126;,
 4;126,146,147,127;,
 4;127,147,148,128;,
 4;128,148,149,129;,
 4;129,149,150,130;,
 4;130,150,151,131;,
 4;131,151,152,132;,
 4;132,152,153,133;,
 4;133,153,154,134;,
 4;134,154,155,135;,
 4;135,155,156,136;,
 4;136,156,157,137;,
 4;137,157,158,138;,
 4;139,159,160,140;,
 4;140,160,161,141;,
 4;141,161,162,142;,
 4;142,162,163,143;,
 4;143,163,164,144;,
 4;144,164,165,145;,
 4;145,165,166,146;,
 4;146,166,167,147;,
 4;147,167,168,148;,
 4;148,168,169,149;,
 4;149,169,170,150;,
 4;150,170,171,151;,
 4;151,171,172,152;,
 4;152,172,173,153;,
 4;153,173,174,154;,
 4;154,174,175,155;,
 4;155,175,176,156;,
 4;156,176,177,157;,
 4;157,177,178,158;,
 4;159,179,180,160;,
 4;160,180,181,161;,
 4;161,181,182,162;,
 4;162,182,183,163;,
 4;163,183,184,164;,
 4;164,184,185,165;,
 4;165,185,186,166;,
 4;166,186,187,167;,
 4;167,187,188,168;,
 4;168,188,189,169;,
 4;169,189,190,170;,
 4;170,190,191,171;,
 4;171,191,192,172;,
 4;172,192,193,173;,
 4;173,193,194,174;,
 4;174,194,195,175;,
 4;175,195,196,176;,
 4;176,196,197,177;,
 4;177,197,198,178;,
 4;179,199,200,180;,
 4;180,200,201,181;,
 4;181,201,202,182;,
 4;182,202,203,183;,
 4;183,203,204,184;,
 4;184,204,205,185;,
 4;185,205,206,186;,
 4;186,206,207,187;,
 4;187,207,208,188;,
 4;188,208,209,189;,
 4;189,209,210,190;,
 4;190,210,211,191;,
 4;191,211,212,192;,
 4;192,212,213,193;,
 4;193,213,214,194;,
 4;194,214,215,195;,
 4;195,215,216,196;,
 4;196,216,217,197;,
 4;197,217,218,198;,
 4;199,219,220,200;,
 4;200,220,221,201;,
 4;201,221,222,202;,
 4;202,222,223,203;,
 4;203,223,224,204;,
 4;204,224,225,205;,
 4;205,225,226,206;,
 4;206,226,227,207;,
 4;207,227,228,208;,
 4;208,228,229,209;,
 4;209,229,230,210;,
 4;210,230,231,211;,
 4;211,231,232,212;,
 4;212,232,233,213;,
 4;213,233,234,214;,
 4;214,234,235,215;,
 4;215,235,236,216;,
 4;216,236,237,217;,
 4;217,237,238,218;,
 4;219,239,240,220;,
 4;220,240,241,221;,
 4;221,241,242,222;,
 4;222,242,243,223;,
 4;223,243,244,224;,
 4;224,244,245,225;,
 4;225,245,246,226;,
 4;226,246,247,227;,
 4;227,247,248,228;,
 4;228,248,249,229;,
 4;229,249,250,230;,
 4;230,250,251,231;,
 4;231,251,252,232;,
 4;232,252,253,233;,
 4;233,253,254,234;,
 4;234,254,255,235;,
 4;235,255,256,236;,
 4;236,256,257,237;,
 4;237,257,258,238;,
 4;239,259,260,240;,
 4;240,260,261,241;,
 4;241,261,262,242;,
 4;242,262,263,243;,
 4;243,263,264,244;,
 4;244,264,265,245;,
 4;245,265,266,246;,
 4;246,266,267,247;,
 4;247,267,268,248;,
 4;248,268,269,249;,
 4;249,269,270,250;,
 4;250,270,271,251;,
 4;251,271,272,252;,
 4;252,272,273,253;,
 4;253,273,274,254;,
 4;254,274,275,255;,
 4;255,275,276,256;,
 4;256,276,277,257;,
 4;257,277,278,258;,
 4;259,279,280,260;,
 4;260,280,281,261;,
 4;261,281,282,262;,
 4;262,282,283,263;,
 4;263,283,284,264;,
 4;264,284,285,265;,
 4;265,285,286,266;,
 4;266,286,287,267;,
 4;267,287,288,268;,
 4;268,288,289,269;,
 4;269,289,290,270;,
 4;270,290,291,271;,
 4;271,291,292,272;,
 4;272,292,293,273;,
 4;273,293,294,274;,
 4;274,294,295,275;,
 4;275,295,296,276;,
 4;276,296,297,277;,
 4;277,297,298,278;,
 4;279,299,300,280;,
 4;280,300,301,281;,
 4;281,301,302,282;,
 4;282,302,303,283;,
 4;283,303,304,284;,
 4;284,304,305,285;,
 4;285,305,306,286;,
 4;286,306,307,287;,
 4;287,307,308,288;,
 4;288,308,309,289;,
 4;289,309,310,290;,
 4;290,310,311,291;,
 4;291,311,312,292;,
 4;292,312,313,293;,
 4;293,313,314,294;,
 4;294,314,315,295;,
 4;295,315,316,296;,
 4;296,316,317,297;,
 4;297,317,318,298;,
 4;299,319,320,300;,
 4;300,320,321,301;,
 4;301,321,322,302;,
 4;302,322,323,303;,
 4;303,323,324,304;,
 4;304,324,325,305;,
 4;305,325,326,306;,
 4;306,326,327,307;,
 4;307,327,328,308;,
 4;308,328,329,309;,
 4;309,329,330,310;,
 4;310,330,331,311;,
 4;311,331,332,312;,
 4;312,332,333,313;,
 4;313,333,334,314;,
 4;314,334,335,315;,
 4;315,335,336,316;,
 4;316,336,337,317;,
 4;317,337,338,318;,
 4;319,339,340,320;,
 4;320,340,341,321;,
 4;321,341,342,322;,
 4;322,342,343,323;,
 4;323,343,344,324;,
 4;324,344,345,325;,
 4;325,345,346,326;,
 4;326,346,347,327;,
 4;327,347,348,328;,
 4;328,348,349,329;,
 4;329,349,350,330;,
 4;330,350,351,331;,
 4;331,351,352,332;,
 4;332,352,353,333;,
 4;333,353,354,334;,
 4;334,354,355,335;,
 4;335,355,356,336;,
 4;336,356,357,337;,
 4;337,357,358,338;,
 4;339,359,360,340;,
 4;340,360,361,341;,
 4;341,361,362,342;,
 4;342,362,363,343;,
 4;343,363,364,344;,
 4;344,364,365,345;,
 4;345,365,366,346;,
 4;346,366,367,347;,
 4;347,367,368,348;,
 4;348,368,369,349;,
 4;349,369,370,350;,
 4;350,370,371,351;,
 4;351,371,372,352;,
 4;352,372,373,353;,
 4;353,373,374,354;,
 4;354,374,375,355;,
 4;355,375,376,356;,
 4;356,376,377,357;,
 4;357,377,378,358;,
 3;359,379,360;,
 3;360,380,361;,
 3;361,381,362;,
 3;362,382,363;,
 3;363,383,364;,
 3;364,384,365;,
 3;365,385,366;,
 3;366,386,367;,
 3;367,387,368;,
 3;368,388,369;,
 3;369,389,370;,
 3;370,390,371;,
 3;371,391,372;,
 3;372,392,373;,
 3;373,393,374;,
 3;374,394,375;,
 3;375,395,376;,
 3;376,396,377;,
 3;377,397,378;;
 
 MeshMaterialList {
  1;
  361;
  0,
  0,
  0,
  0,
  0,
  0,
  0,
  0,
  0,
  0,
  0,
  0,
  0,
  0,
  0,
  0,
  0,
  0,
  0,
  0,
  0,
  0,
  0,
  0,
  0,
  0,
  0,
  0,
  0,
  0,
  0,
  0,
  0,
  0,
  0,
  0,
  0,
  0,
  0,
  0,
  0,
  0,
  0,
  0,
  0,
  0,
  0,
  0,
  0,
  0,
  0,
  0,
  0,
  0,
  0,
  0,
  0,
  0,
  0,
  0,
  0,
  0,
  0,
  0,
  0,
  0,
  0,
  0,
  0,
  0,
  0,
  0,
  0,
  0,
  0,
  0,
  0,
  0,
  0,
  0,
  0,
  0,
  0,
  0,
  0,
  0,
  0,
  0,
  0,
  0,
  0,
  0,
  0,
  0,
  0,
  0,
  0,
  0,
  0,
  0,
  0,
  0,
  0,
  0,
  0,
  0,
  0,
  0,
  0,
  0,
  0,
  0,
  0,
  0,
  0,
  0,
  0,
  0,
  0,
  0,
  0,
  0,
  0,
  0,
  0,
  0,
  0,
  0,
  0,
  0,
  0,
  0,
  0,
  0,
  0,
  0,
  0,
  0,
  0,
  0,
  0,
  0,
  0,
  0,
  0,
  0,
  0,
  0,
  0,
  0,
  0,
  0,
  0,
  0,
  0,
  0,
  0,
  0,
  0,
  0,
  0,
  0,
  0,
  0,
  0,
  0,
  0,
  0,
  0,
  0,
  0,
  0,
  0,
  0,
  0,
  0,
  0,
  0,
  0,
  0,
  0,
  0,
  0,
  0,
  0,
  0,
  0,
  0,
  0,
  0,
  0,
  0,
  0,
  0,
  0,
  0,
  0,
  0,
  0,
  0,
  0,
  0,
  0,
  0,
  0,
  0,
  0,
  0,
  0,
  0,
  0,
  0,
  0,
  0,
  0,
  0,
  0,
  0,
  0,
  0,
  0,
  0,
  0,
  0,
  0,
  0,
  0,
  0,
  0,
  0,
  0,
  0,
  0,
  0,
  0,
  0,
  0,
  0,
  0,
  0,
  0,
  0,
  0,
  0,
  0,
  0,
  0,
  0,
  0,
  0,
  0,
  0,
  0,
  0,
  0,
  0,
  0,
  0,
  0,
  0,
  0,
  0,
  0,
  0,
  0,
  0,
  0,
  0,
  0,
  0,
  0,
  0,
  0,
  0,
  0,
  0,
  0,
  0,
  0,
  0,
  0,
  0,
  0,
  0,
  0,
  0,
  0,
  0,
  0,
  0,
  0,
  0,
  0,
  0,
  0,
  0,
  0,
  0,
  0,
  0,
  0,
  0,
  0,
  0,
  0,
  0,
  0,
  0,
  0,
  0,
  0,
  0,
  0,
  0,
  0,
  0,
  0,
  0,
  0,
  0,
  0,
  0,
  0,
  0,
  0,
  0,
  0,
  0,
  0,
  0,
  0,
  0,
  0,
  0,
  0,
  0,
  0,
  0,
  0,
  0,
  0,
  0,
  0,
  0,
  0,
  0,
  0,
  0,
  0,
  0,
  0,
  0,
  0,
  0,
  0,
  0,
  0,
  0,
  0,
  0,
  0;;
  Material {
   0.800000;0.800000;0.800000;1.000000;;
   5.000000;
   0.000000;0.000000;0.000000;;
   0.000000;0.000000;0.000000;;
   TextureFilename {
    "data\\TEXTURE\\galaxy.jpg";
   }
  }
 }
 MeshNormals {
  344;
  -0.000000;-1.000000;0.000000;,
  -0.000000;-0.986366;0.164564;,
  -0.053434;-0.986366;0.155648;,
  -0.101077;-0.986366;0.129864;,
  -0.137768;-0.986366;0.090008;,
  -0.159529;-0.986366;0.040398;,
  -0.164002;-0.986366;-0.013590;,
  -0.150703;-0.986366;-0.066105;,
  -0.121074;-0.986366;-0.111456;,
  -0.078324;-0.986366;-0.144730;,
  -0.027086;-0.986366;-0.162320;,
  0.027086;-0.986366;-0.162320;,
  0.078324;-0.986366;-0.144730;,
  0.121074;-0.986366;-0.111456;,
  0.150703;-0.986366;-0.066105;,
  0.164002;-0.986366;-0.013590;,
  0.159529;-0.986366;0.040398;,
  0.137768;-0.986366;0.090008;,
  0.101077;-0.986366;0.129864;,
  0.053434;-0.986366;0.155648;,
  -0.000000;-0.945836;0.324644;,
  -0.105412;-0.945836;0.307054;,
  -0.199401;-0.945836;0.256190;,
  -0.271781;-0.945836;0.177564;,
  -0.314710;-0.945836;0.079696;,
  -0.323536;-0.945836;-0.026809;,
  -0.297301;-0.945836;-0.130408;,
  -0.238849;-0.945836;-0.219876;,
  -0.154514;-0.945836;-0.285516;,
  -0.053435;-0.945836;-0.320217;,
  0.053435;-0.945836;-0.320217;,
  0.154514;-0.945836;-0.285516;,
  0.238849;-0.945836;-0.219876;,
  0.297301;-0.945836;-0.130408;,
  0.323536;-0.945836;-0.026809;,
  0.314710;-0.945836;0.079696;,
  0.271781;-0.945836;0.177564;,
  0.199400;-0.945836;0.256190;,
  0.105411;-0.945836;0.307054;,
  -0.000000;-0.879511;0.475878;,
  -0.154517;-0.879511;0.450094;,
  -0.292291;-0.879511;0.375535;,
  -0.398389;-0.879511;0.260281;,
  -0.461316;-0.879511;0.116821;,
  -0.474253;-0.879511;-0.039298;,
  -0.435796;-0.879511;-0.191158;,
  -0.350115;-0.879511;-0.322303;,
  -0.226493;-0.879511;-0.418522;,
  -0.078327;-0.879511;-0.469388;,
  0.078327;-0.879511;-0.469388;,
  0.226493;-0.879511;-0.418522;,
  0.350115;-0.879511;-0.322303;,
  0.435796;-0.879511;-0.191158;,
  0.474253;-0.879511;-0.039297;,
  0.461316;-0.879511;0.116821;,
  0.398389;-0.879511;0.260281;,
  0.292290;-0.879511;0.375535;,
  0.154517;-0.879511;0.450094;,
  -0.000000;-0.789196;0.614141;,
  -0.199411;-0.789196;0.580865;,
  -0.377213;-0.789196;0.484644;,
  -0.514139;-0.789196;0.335903;,
  -0.595349;-0.789196;0.150763;,
  -0.612044;-0.789196;-0.050715;,
  -0.562414;-0.789196;-0.246698;,
  -0.451838;-0.789196;-0.415947;,
  -0.292299;-0.789196;-0.540121;,
  -0.101084;-0.789196;-0.605765;,
  0.101084;-0.789196;-0.605765;,
  0.292299;-0.789196;-0.540121;,
  0.451838;-0.789196;-0.415947;,
  0.562414;-0.789196;-0.246698;,
  0.612044;-0.789196;-0.050715;,
  0.595348;-0.789196;0.150763;,
  0.514138;-0.789196;0.335904;,
  0.377213;-0.789196;0.484644;,
  0.199411;-0.789196;0.580866;,
  -0.000000;-0.677350;0.735661;,
  -0.238869;-0.677350;0.695800;,
  -0.451852;-0.677350;0.580539;,
  -0.615870;-0.677351;0.402368;,
  -0.713149;-0.677350;0.180594;,
  -0.733148;-0.677350;-0.060750;,
  -0.673698;-0.677350;-0.295512;,
  -0.541243;-0.677350;-0.498249;,
  -0.350136;-0.677350;-0.646994;,
  -0.121086;-0.677350;-0.725627;,
  0.121086;-0.677350;-0.725627;,
  0.350136;-0.677350;-0.646994;,
  0.541243;-0.677350;-0.498249;,
  0.673698;-0.677350;-0.295511;,
  0.733148;-0.677350;-0.060750;,
  0.713150;-0.677350;0.180595;,
  0.615870;-0.677350;0.402369;,
  0.451851;-0.677350;0.580540;,
  0.238868;-0.677350;0.695801;,
  -0.000000;-0.547020;0.837120;,
  -0.271812;-0.547020;0.791762;,
  -0.514170;-0.547020;0.660605;,
  -0.700809;-0.547020;0.457861;,
  -0.811504;-0.547020;0.205501;,
  -0.834260;-0.547020;-0.069129;,
  -0.766612;-0.547020;-0.336267;,
  -0.615889;-0.547020;-0.566966;,
  -0.398425;-0.547020;-0.736225;,
  -0.137785;-0.547020;-0.825703;,
  0.137785;-0.547020;-0.825703;,
  0.398425;-0.547020;-0.736225;,
  0.615889;-0.547020;-0.566966;,
  0.766612;-0.547020;-0.336267;,
  0.834260;-0.547020;-0.069128;,
  0.811504;-0.547020;0.205501;,
  0.700808;-0.547020;0.457862;,
  0.514169;-0.547020;0.660606;,
  0.271812;-0.547020;0.791762;,
  -0.000000;-0.401758;0.915746;,
  -0.297342;-0.401758;0.866128;,
  -0.562463;-0.401758;0.722652;,
  -0.766632;-0.401758;0.500865;,
  -0.887724;-0.401758;0.224802;,
  -0.912618;-0.401758;-0.075622;,
  -0.838616;-0.401758;-0.367851;,
  -0.673736;-0.401758;-0.620218;,
  -0.435847;-0.401758;-0.805375;,
  -0.150727;-0.401758;-0.903256;,
  0.150727;-0.401758;-0.903256;,
  0.435847;-0.401758;-0.805375;,
  0.673736;-0.401758;-0.620218;,
  0.838616;-0.401758;-0.367851;,
  0.912618;-0.401758;-0.075621;,
  0.887724;-0.401758;0.224803;,
  0.766631;-0.401758;0.500866;,
  0.562462;-0.401758;0.722653;,
  0.297341;-0.401758;0.866129;,
  -0.000000;-0.245528;0.969389;,
  -0.314760;-0.245528;0.916865;,
  -0.595411;-0.245528;0.764985;,
  -0.811540;-0.245528;0.530206;,
  -0.939726;-0.245528;0.237971;,
  -0.966078;-0.245528;-0.080051;,
  -0.887741;-0.245528;-0.389399;,
  -0.713203;-0.245528;-0.656550;,
  -0.461378;-0.245528;-0.852553;,
  -0.159556;-0.245528;-0.956168;,
  0.159556;-0.245528;-0.956168;,
  0.461379;-0.245528;-0.852553;,
  0.713203;-0.245528;-0.656550;,
  0.887741;-0.245528;-0.389399;,
  0.966079;-0.245528;-0.080051;,
  0.939726;-0.245528;0.237972;,
  0.811540;-0.245528;0.530207;,
  0.595410;-0.245528;0.764985;,
  0.314759;-0.245528;0.916866;,
  -0.000000;-0.082594;0.996583;,
  -0.323590;-0.082595;0.942586;,
  -0.612114;-0.082595;0.786444;,
  -0.834306;-0.082595;0.545079;,
  -0.966088;-0.082595;0.244647;,
  -0.993179;-0.082595;-0.082297;,
  -0.912644;-0.082595;-0.400323;,
  -0.733210;-0.082594;-0.674967;,
  -0.474321;-0.082594;-0.876469;,
  -0.164032;-0.082594;-0.982991;,
  0.164032;-0.082594;-0.982991;,
  0.474321;-0.082595;-0.876469;,
  0.733210;-0.082595;-0.674967;,
  0.912644;-0.082594;-0.400323;,
  0.993179;-0.082594;-0.082297;,
  0.966088;-0.082594;0.244647;,
  0.834306;-0.082594;0.545080;,
  0.612113;-0.082594;0.786445;,
  0.323589;-0.082594;0.942586;,
  -0.000000;0.082594;0.996583;,
  -0.323590;0.082595;0.942586;,
  -0.612114;0.082595;0.786444;,
  -0.834306;0.082595;0.545079;,
  -0.966088;0.082595;0.244647;,
  -0.993179;0.082595;-0.082297;,
  -0.912644;0.082595;-0.400323;,
  -0.733210;0.082594;-0.674968;,
  -0.474321;0.082594;-0.876469;,
  -0.164032;0.082594;-0.982991;,
  0.164032;0.082594;-0.982991;,
  0.474321;0.082595;-0.876469;,
  0.733210;0.082595;-0.674967;,
  0.912644;0.082594;-0.400323;,
  0.993179;0.082594;-0.082297;,
  0.966088;0.082594;0.244647;,
  0.834306;0.082594;0.545080;,
  0.612113;0.082594;0.786445;,
  0.323589;0.082594;0.942586;,
  -0.000000;0.245528;0.969389;,
  -0.314760;0.245528;0.916865;,
  -0.595411;0.245528;0.764985;,
  -0.811540;0.245528;0.530206;,
  -0.939726;0.245528;0.237971;,
  -0.966078;0.245528;-0.080051;,
  -0.887741;0.245528;-0.389399;,
  -0.713203;0.245528;-0.656550;,
  -0.461378;0.245528;-0.852553;,
  -0.159556;0.245528;-0.956168;,
  0.159556;0.245528;-0.956168;,
  0.461379;0.245528;-0.852553;,
  0.713203;0.245528;-0.656550;,
  0.887741;0.245528;-0.389399;,
  0.966079;0.245528;-0.080051;,
  0.939726;0.245528;0.237972;,
  0.811540;0.245528;0.530207;,
  0.595410;0.245528;0.764985;,
  0.314759;0.245528;0.916866;,
  -0.000000;0.401758;0.915746;,
  -0.297342;0.401758;0.866128;,
  -0.562463;0.401758;0.722652;,
  -0.766632;0.401758;0.500865;,
  -0.887724;0.401758;0.224802;,
  -0.912618;0.401758;-0.075622;,
  -0.838616;0.401758;-0.367851;,
  -0.673736;0.401758;-0.620218;,
  -0.435847;0.401758;-0.805375;,
  -0.150727;0.401758;-0.903256;,
  0.150727;0.401758;-0.903256;,
  0.435847;0.401758;-0.805375;,
  0.673736;0.401758;-0.620218;,
  0.838616;0.401758;-0.367851;,
  0.912618;0.401758;-0.075621;,
  0.887724;0.401758;0.224803;,
  0.766631;0.401758;0.500866;,
  0.562462;0.401758;0.722653;,
  0.297341;0.401758;0.866129;,
  -0.000000;0.547020;0.837120;,
  -0.271812;0.547020;0.791762;,
  -0.514170;0.547020;0.660605;,
  -0.700809;0.547020;0.457861;,
  -0.811504;0.547020;0.205501;,
  -0.834261;0.547020;-0.069129;,
  -0.766612;0.547020;-0.336267;,
  -0.615889;0.547020;-0.566966;,
  -0.398425;0.547020;-0.736225;,
  -0.137785;0.547020;-0.825703;,
  0.137785;0.547020;-0.825703;,
  0.398425;0.547020;-0.736225;,
  0.615889;0.547020;-0.566966;,
  0.766612;0.547020;-0.336267;,
  0.834260;0.547020;-0.069128;,
  0.811504;0.547020;0.205501;,
  0.700808;0.547020;0.457862;,
  0.514169;0.547020;0.660606;,
  0.271812;0.547020;0.791763;,
  -0.000000;0.677350;0.735660;,
  -0.238869;0.677350;0.695800;,
  -0.451852;0.677350;0.580540;,
  -0.615870;0.677350;0.402368;,
  -0.713149;0.677351;0.180594;,
  -0.733148;0.677351;-0.060750;,
  -0.673698;0.677350;-0.295511;,
  -0.541243;0.677350;-0.498249;,
  -0.350136;0.677351;-0.646994;,
  -0.121086;0.677351;-0.725627;,
  0.121086;0.677351;-0.725627;,
  0.350136;0.677351;-0.646994;,
  0.541243;0.677351;-0.498249;,
  0.673698;0.677351;-0.295511;,
  0.733148;0.677351;-0.060750;,
  0.713149;0.677351;0.180594;,
  0.615870;0.677351;0.402369;,
  0.451851;0.677351;0.580540;,
  0.238868;0.677351;0.695801;,
  -0.000000;0.789197;0.614141;,
  -0.199411;0.789197;0.580865;,
  -0.377213;0.789197;0.484643;,
  -0.514138;0.789197;0.335903;,
  -0.595348;0.789197;0.150763;,
  -0.612043;0.789197;-0.050715;,
  -0.562414;0.789197;-0.246697;,
  -0.451838;0.789197;-0.415946;,
  -0.292299;0.789196;-0.540121;,
  -0.101084;0.789196;-0.605765;,
  0.101084;0.789196;-0.605765;,
  0.292299;0.789197;-0.540121;,
  0.451838;0.789197;-0.415946;,
  0.562414;0.789197;-0.246697;,
  0.612043;0.789196;-0.050715;,
  0.595348;0.789197;0.150763;,
  0.514138;0.789197;0.335904;,
  0.377212;0.789197;0.484644;,
  0.199411;0.789197;0.580865;,
  -0.000000;0.879511;0.475878;,
  -0.154517;0.879511;0.450093;,
  -0.292290;0.879511;0.375534;,
  -0.398389;0.879511;0.260281;,
  -0.461316;0.879511;0.116821;,
  -0.474253;0.879511;-0.039298;,
  -0.435796;0.879512;-0.191158;,
  -0.350115;0.879512;-0.322303;,
  -0.226493;0.879511;-0.418522;,
  -0.078327;0.879511;-0.469387;,
  0.078327;0.879511;-0.469387;,
  0.226493;0.879511;-0.418522;,
  0.350115;0.879511;-0.322303;,
  0.435796;0.879511;-0.191158;,
  0.474252;0.879511;-0.039297;,
  0.461316;0.879511;0.116821;,
  0.398389;0.879511;0.260281;,
  0.292290;0.879511;0.375535;,
  0.154517;0.879511;0.450093;,
  0.000000;0.945836;0.324644;,
  -0.105412;0.945836;0.307054;,
  -0.199401;0.945836;0.256190;,
  -0.271781;0.945836;0.177564;,
  -0.314710;0.945836;0.079695;,
  -0.323535;0.945836;-0.026809;,
  -0.297300;0.945836;-0.130408;,
  -0.238848;0.945836;-0.219875;,
  -0.154513;0.945836;-0.285516;,
  -0.053435;0.945836;-0.320216;,
  0.053435;0.945836;-0.320216;,
  0.154514;0.945836;-0.285516;,
  0.238848;0.945836;-0.219876;,
  0.297300;0.945836;-0.130408;,
  0.323535;0.945836;-0.026809;,
  0.314710;0.945836;0.079696;,
  0.271781;0.945836;0.177564;,
  0.199400;0.945836;0.256190;,
  0.105412;0.945836;0.307054;,
  0.000000;0.986367;0.164564;,
  -0.053434;0.986367;0.155647;,
  -0.101077;0.986367;0.129864;,
  -0.137767;0.986367;0.090008;,
  -0.159528;0.986367;0.040398;,
  -0.164002;0.986367;-0.013590;,
  -0.150703;0.986367;-0.066104;,
  -0.121073;0.986366;-0.111456;,
  -0.078324;0.986366;-0.144730;,
  -0.027086;0.986366;-0.162319;,
  0.027086;0.986366;-0.162319;,
  0.078324;0.986366;-0.144730;,
  0.121073;0.986366;-0.111456;,
  0.150703;0.986367;-0.066104;,
  0.164002;0.986367;-0.013589;,
  0.159528;0.986366;0.040398;,
  0.137767;0.986366;0.090008;,
  0.101077;0.986367;0.129864;,
  0.053434;0.986366;0.155647;,
  -0.000000;1.000000;0.000000;;
  361;
  3;0,1,2;,
  3;0,2,3;,
  3;0,3,4;,
  3;0,4,5;,
  3;0,5,6;,
  3;0,6,7;,
  3;0,7,8;,
  3;0,8,9;,
  3;0,9,10;,
  3;0,10,11;,
  3;0,11,12;,
  3;0,12,13;,
  3;0,13,14;,
  3;0,14,15;,
  3;0,15,16;,
  3;0,16,17;,
  3;0,17,18;,
  3;0,18,19;,
  3;0,19,1;,
  4;1,20,21,2;,
  4;2,21,22,3;,
  4;3,22,23,4;,
  4;4,23,24,5;,
  4;5,24,25,6;,
  4;6,25,26,7;,
  4;7,26,27,8;,
  4;8,27,28,9;,
  4;9,28,29,10;,
  4;10,29,30,11;,
  4;11,30,31,12;,
  4;12,31,32,13;,
  4;13,32,33,14;,
  4;14,33,34,15;,
  4;15,34,35,16;,
  4;16,35,36,17;,
  4;17,36,37,18;,
  4;18,37,38,19;,
  4;19,38,20,1;,
  4;20,39,40,21;,
  4;21,40,41,22;,
  4;22,41,42,23;,
  4;23,42,43,24;,
  4;24,43,44,25;,
  4;25,44,45,26;,
  4;26,45,46,27;,
  4;27,46,47,28;,
  4;28,47,48,29;,
  4;29,48,49,30;,
  4;30,49,50,31;,
  4;31,50,51,32;,
  4;32,51,52,33;,
  4;33,52,53,34;,
  4;34,53,54,35;,
  4;35,54,55,36;,
  4;36,55,56,37;,
  4;37,56,57,38;,
  4;38,57,39,20;,
  4;39,58,59,40;,
  4;40,59,60,41;,
  4;41,60,61,42;,
  4;42,61,62,43;,
  4;43,62,63,44;,
  4;44,63,64,45;,
  4;45,64,65,46;,
  4;46,65,66,47;,
  4;47,66,67,48;,
  4;48,67,68,49;,
  4;49,68,69,50;,
  4;50,69,70,51;,
  4;51,70,71,52;,
  4;52,71,72,53;,
  4;53,72,73,54;,
  4;54,73,74,55;,
  4;55,74,75,56;,
  4;56,75,76,57;,
  4;57,76,58,39;,
  4;58,77,78,59;,
  4;59,78,79,60;,
  4;60,79,80,61;,
  4;61,80,81,62;,
  4;62,81,82,63;,
  4;63,82,83,64;,
  4;64,83,84,65;,
  4;65,84,85,66;,
  4;66,85,86,67;,
  4;67,86,87,68;,
  4;68,87,88,69;,
  4;69,88,89,70;,
  4;70,89,90,71;,
  4;71,90,91,72;,
  4;72,91,92,73;,
  4;73,92,93,74;,
  4;74,93,94,75;,
  4;75,94,95,76;,
  4;76,95,77,58;,
  4;77,96,97,78;,
  4;78,97,98,79;,
  4;79,98,99,80;,
  4;80,99,100,81;,
  4;81,100,101,82;,
  4;82,101,102,83;,
  4;83,102,103,84;,
  4;84,103,104,85;,
  4;85,104,105,86;,
  4;86,105,106,87;,
  4;87,106,107,88;,
  4;88,107,108,89;,
  4;89,108,109,90;,
  4;90,109,110,91;,
  4;91,110,111,92;,
  4;92,111,112,93;,
  4;93,112,113,94;,
  4;94,113,114,95;,
  4;95,114,96,77;,
  4;96,115,116,97;,
  4;97,116,117,98;,
  4;98,117,118,99;,
  4;99,118,119,100;,
  4;100,119,120,101;,
  4;101,120,121,102;,
  4;102,121,122,103;,
  4;103,122,123,104;,
  4;104,123,124,105;,
  4;105,124,125,106;,
  4;106,125,126,107;,
  4;107,126,127,108;,
  4;108,127,128,109;,
  4;109,128,129,110;,
  4;110,129,130,111;,
  4;111,130,131,112;,
  4;112,131,132,113;,
  4;113,132,133,114;,
  4;114,133,115,96;,
  4;115,134,135,116;,
  4;116,135,136,117;,
  4;117,136,137,118;,
  4;118,137,138,119;,
  4;119,138,139,120;,
  4;120,139,140,121;,
  4;121,140,141,122;,
  4;122,141,142,123;,
  4;123,142,143,124;,
  4;124,143,144,125;,
  4;125,144,145,126;,
  4;126,145,146,127;,
  4;127,146,147,128;,
  4;128,147,148,129;,
  4;129,148,149,130;,
  4;130,149,150,131;,
  4;131,150,151,132;,
  4;132,151,152,133;,
  4;133,152,134,115;,
  4;134,153,154,135;,
  4;135,154,155,136;,
  4;136,155,156,137;,
  4;137,156,157,138;,
  4;138,157,158,139;,
  4;139,158,159,140;,
  4;140,159,160,141;,
  4;141,160,161,142;,
  4;142,161,162,143;,
  4;143,162,163,144;,
  4;144,163,164,145;,
  4;145,164,165,146;,
  4;146,165,166,147;,
  4;147,166,167,148;,
  4;148,167,168,149;,
  4;149,168,169,150;,
  4;150,169,170,151;,
  4;151,170,171,152;,
  4;152,171,153,134;,
  4;153,172,173,154;,
  4;154,173,174,155;,
  4;155,174,175,156;,
  4;156,175,176,157;,
  4;157,176,177,158;,
  4;158,177,178,159;,
  4;159,178,179,160;,
  4;160,179,180,161;,
  4;161,180,181,162;,
  4;162,181,182,163;,
  4;163,182,183,164;,
  4;164,183,184,165;,
  4;165,184,185,166;,
  4;166,185,186,167;,
  4;167,186,187,168;,
  4;168,187,188,169;,
  4;169,188,189,170;,
  4;170,189,190,171;,
  4;171,190,172,153;,
  4;172,191,192,173;,
  4;173,192,193,174;,
  4;174,193,194,175;,
  4;175,194,195,176;,
  4;176,195,196,177;,
  4;177,196,197,178;,
  4;178,197,198,179;,
  4;179,198,199,180;,
  4;180,199,200,181;,
  4;181,200,201,182;,
  4;182,201,202,183;,
  4;183,202,203,184;,
  4;184,203,204,185;,
  4;185,204,205,186;,
  4;186,205,206,187;,
  4;187,206,207,188;,
  4;188,207,208,189;,
  4;189,208,209,190;,
  4;190,209,191,172;,
  4;191,210,211,192;,
  4;192,211,212,193;,
  4;193,212,213,194;,
  4;194,213,214,195;,
  4;195,214,215,196;,
  4;196,215,216,197;,
  4;197,216,217,198;,
  4;198,217,218,199;,
  4;199,218,219,200;,
  4;200,219,220,201;,
  4;201,220,221,202;,
  4;202,221,222,203;,
  4;203,222,223,204;,
  4;204,223,224,205;,
  4;205,224,225,206;,
  4;206,225,226,207;,
  4;207,226,227,208;,
  4;208,227,228,209;,
  4;209,228,210,191;,
  4;210,229,230,211;,
  4;211,230,231,212;,
  4;212,231,232,213;,
  4;213,232,233,214;,
  4;214,233,234,215;,
  4;215,234,235,216;,
  4;216,235,236,217;,
  4;217,236,237,218;,
  4;218,237,238,219;,
  4;219,238,239,220;,
  4;220,239,240,221;,
  4;221,240,241,222;,
  4;222,241,242,223;,
  4;223,242,243,224;,
  4;224,243,244,225;,
  4;225,244,245,226;,
  4;226,245,246,227;,
  4;227,246,247,228;,
  4;228,247,229,210;,
  4;229,248,249,230;,
  4;230,249,250,231;,
  4;231,250,251,232;,
  4;232,251,252,233;,
  4;233,252,253,234;,
  4;234,253,254,235;,
  4;235,254,255,236;,
  4;236,255,256,237;,
  4;237,256,257,238;,
  4;238,257,258,239;,
  4;239,258,259,240;,
  4;240,259,260,241;,
  4;241,260,261,242;,
  4;242,261,262,243;,
  4;243,262,263,244;,
  4;244,263,264,245;,
  4;245,264,265,246;,
  4;246,265,266,247;,
  4;247,266,248,229;,
  4;248,267,268,249;,
  4;249,268,269,250;,
  4;250,269,270,251;,
  4;251,270,271,252;,
  4;252,271,272,253;,
  4;253,272,273,254;,
  4;254,273,274,255;,
  4;255,274,275,256;,
  4;256,275,276,257;,
  4;257,276,277,258;,
  4;258,277,278,259;,
  4;259,278,279,260;,
  4;260,279,280,261;,
  4;261,280,281,262;,
  4;262,281,282,263;,
  4;263,282,283,264;,
  4;264,283,284,265;,
  4;265,284,285,266;,
  4;266,285,267,248;,
  4;267,286,287,268;,
  4;268,287,288,269;,
  4;269,288,289,270;,
  4;270,289,290,271;,
  4;271,290,291,272;,
  4;272,291,292,273;,
  4;273,292,293,274;,
  4;274,293,294,275;,
  4;275,294,295,276;,
  4;276,295,296,277;,
  4;277,296,297,278;,
  4;278,297,298,279;,
  4;279,298,299,280;,
  4;280,299,300,281;,
  4;281,300,301,282;,
  4;282,301,302,283;,
  4;283,302,303,284;,
  4;284,303,304,285;,
  4;285,304,286,267;,
  4;286,305,306,287;,
  4;287,306,307,288;,
  4;288,307,308,289;,
  4;289,308,309,290;,
  4;290,309,310,291;,
  4;291,310,311,292;,
  4;292,311,312,293;,
  4;293,312,313,294;,
  4;294,313,314,295;,
  4;295,314,315,296;,
  4;296,315,316,297;,
  4;297,316,317,298;,
  4;298,317,318,299;,
  4;299,318,319,300;,
  4;300,319,320,301;,
  4;301,320,321,302;,
  4;302,321,322,303;,
  4;303,322,323,304;,
  4;304,323,305,286;,
  4;305,324,325,306;,
  4;306,325,326,307;,
  4;307,326,327,308;,
  4;308,327,328,309;,
  4;309,328,329,310;,
  4;310,329,330,311;,
  4;311,330,331,312;,
  4;312,331,332,313;,
  4;313,332,333,314;,
  4;314,333,334,315;,
  4;315,334,335,316;,
  4;316,335,336,317;,
  4;317,336,337,318;,
  4;318,337,338,319;,
  4;319,338,339,320;,
  4;320,339,340,321;,
  4;321,340,341,322;,
  4;322,341,342,323;,
  4;323,342,324,305;,
  3;324,343,325;,
  3;325,343,326;,
  3;326,343,327;,
  3;327,343,328;,
  3;328,343,329;,
  3;329,343,330;,
  3;330,343,331;,
  3;331,343,332;,
  3;332,343,333;,
  3;333,343,334;,
  3;334,343,335;,
  3;335,343,336;,
  3;336,343,337;,
  3;337,343,338;,
  3;338,343,339;,
  3;339,343,340;,
  3;340,343,341;,
  3;341,343,342;,
  3;342,343,324;;
 }
 MeshTextureCoords {
  398;
  0.026320;0.000000;,
  0.000000;0.052630;,
  0.052630;0.052630;,
  0.078950;0.000000;,
  0.105260;0.052630;,
  0.131580;0.000000;,
  0.157890;0.052630;,
  0.184210;0.000000;,
  0.210530;0.052630;,
  0.236840;0.000000;,
  0.263160;0.052630;,
  0.289470;0.000000;,
  0.315790;0.052630;,
  0.342110;0.000000;,
  0.368420;0.052630;,
  0.394740;0.000000;,
  0.421050;0.052630;,
  0.447370;0.000000;,
  0.473680;0.052630;,
  0.500000;0.000000;,
  0.526320;0.052630;,
  0.552630;0.000000;,
  0.578950;0.052630;,
  0.605260;0.000000;,
  0.631580;0.052630;,
  0.657890;0.000000;,
  0.684210;0.052630;,
  0.710530;0.000000;,
  0.736840;0.052630;,
  0.763160;0.000000;,
  0.789470;0.052630;,
  0.815790;0.000000;,
  0.842110;0.052630;,
  0.868420;0.000000;,
  0.894740;0.052630;,
  0.921050;0.000000;,
  0.947370;0.052630;,
  0.973680;0.000000;,
  1.000000;0.052630;,
  0.000000;0.105260;,
  0.052630;0.105260;,
  0.105260;0.105260;,
  0.157890;0.105260;,
  0.210530;0.105260;,
  0.263160;0.105260;,
  0.315790;0.105260;,
  0.368420;0.105260;,
  0.421050;0.105260;,
  0.473680;0.105260;,
  0.526320;0.105260;,
  0.578950;0.105260;,
  0.631580;0.105260;,
  0.684210;0.105260;,
  0.736840;0.105260;,
  0.789470;0.105260;,
  0.842110;0.105260;,
  0.894740;0.105260;,
  0.947370;0.105260;,
  1.000000;0.105260;,
  0.000000;0.157890;,
  0.052630;0.157890;,
  0.105260;0.157890;,
  0.157890;0.157890;,
  0.210530;0.157890;,
  0.263160;0.157890;,
  0.315790;0.157890;,
  0.368420;0.157890;,
  0.421050;0.157890;,
  0.473680;0.157890;,
  0.526320;0.157890;,
  0.578950;0.157890;,
  0.631580;0.157890;,
  0.684210;0.157890;,
  0.736840;0.157890;,
  0.789470;0.157890;,
  0.842110;0.157890;,
  0.894740;0.157890;,
  0.947370;0.157890;,
  1.000000;0.157890;,
  0.000000;0.210530;,
  0.052630;0.210530;,
  0.105260;0.210530;,
  0.157890;0.210530;,
  0.210530;0.210530;,
  0.263160;0.210530;,
  0.315790;0.210530;,
  0.368420;0.210530;,
  0.421050;0.210530;,
  0.473680;0.210530;,
  0.526320;0.210530;,
  0.578950;0.210530;,
  0.631580;0.210530;,
  0.684210;0.210530;,
  0.736840;0.210530;,
  0.789470;0.210530;,
  0.842110;0.210530;,
  0.894740;0.210530;,
  0.947370;0.210530;,
  1.000000;0.210530;,
  0.000000;0.263160;,
  0.052630;0.263160;,
  0.105260;0.263160;,
  0.157890;0.263160;,
  0.210530;0.263160;,
  0.263160;0.263160;,
  0.315790;0.263160;,
  0.368420;0.263160;,
  0.421050;0.263160;,
  0.473680;0.263160;,
  0.526320;0.263160;,
  0.578950;0.263160;,
  0.631580;0.263160;,
  0.684210;0.263160;,
  0.736840;0.263160;,
  0.789470;0.263160;,
  0.842110;0.263160;,
  0.894740;0.263160;,
  0.947370;0.263160;,
  1.000000;0.263160;,
  0.000000;0.315790;,
  0.052630;0.315790;,
  0.105260;0.315790;,
  0.157890;0.315790;,
  0.210530;0.315790;,
  0.263160;0.315790;,
  0.315790;0.315790;,
  0.368420;0.315790;,
  0.421050;0.315790;,
  0.473680;0.315790;,
  0.526320;0.315790;,
  0.578950;0.315790;,
  0.631580;0.315790;,
  0.684210;0.315790;,
  0.736840;0.315790;,
  0.789470;0.315790;,
  0.842110;0.315790;,
  0.894740;0.315790;,
  0.947370;0.315790;,
  1.000000;0.315790;,
  0.000000;0.368420;,
  0.052630;0.368420;,
  0.105260;0.368420;,
  0.157890;0.368420;,
  0.210530;0.368420;,
  0.263160;0.368420;,
  0.315790;0.368420;,
  0.368420;0.368420;,
  0.421050;0.368420;,
  0.473680;0.368420;,
  0.526320;0.368420;,
  0.578950;0.368420;,
  0.631580;0.368420;,
  0.684210;0.368420;,
  0.736840;0.368420;,
  0.789470;0.368420;,
  0.842110;0.368420;,
  0.894740;0.368420;,
  0.947370;0.368420;,
  1.000000;0.368420;,
  0.000000;0.421050;,
  0.052630;0.421050;,
  0.105260;0.421050;,
  0.157890;0.421050;,
  0.210530;0.421050;,
  0.263160;0.421050;,
  0.315790;0.421050;,
  0.368420;0.421050;,
  0.421050;0.421050;,
  0.473680;0.421050;,
  0.526320;0.421050;,
  0.578950;0.421050;,
  0.631580;0.421050;,
  0.684210;0.421050;,
  0.736840;0.421050;,
  0.789470;0.421050;,
  0.842110;0.421050;,
  0.894740;0.421050;,
  0.947370;0.421050;,
  1.000000;0.421050;,
  0.000000;0.473680;,
  0.052630;0.473680;,
  0.105260;0.473680;,
  0.157890;0.473680;,
  0.210530;0.473680;,
  0.263160;0.473680;,
  0.315790;0.473680;,
  0.368420;0.473680;,
  0.421050;0.473680;,
  0.473680;0.473680;,
  0.526320;0.473680;,
  0.578950;0.473680;,
  0.631580;0.473680;,
  0.684210;0.473680;,
  0.736840;0.473680;,
  0.789470;0.473680;,
  0.842110;0.473680;,
  0.894740;0.473680;,
  0.947370;0.473680;,
  1.000000;0.473680;,
  0.000000;0.526320;,
  0.052630;0.526320;,
  0.105260;0.526320;,
  0.157890;0.526320;,
  0.210530;0.526320;,
  0.263160;0.526320;,
  0.315790;0.526320;,
  0.368420;0.526320;,
  0.421050;0.526320;,
  0.473680;0.526320;,
  0.526320;0.526320;,
  0.578950;0.526320;,
  0.631580;0.526320;,
  0.684210;0.526320;,
  0.736840;0.526320;,
  0.789470;0.526320;,
  0.842110;0.526320;,
  0.894740;0.526320;,
  0.947370;0.526320;,
  1.000000;0.526320;,
  0.000000;0.578950;,
  0.052630;0.578950;,
  0.105260;0.578950;,
  0.157890;0.578950;,
  0.210530;0.578950;,
  0.263160;0.578950;,
  0.315790;0.578950;,
  0.368420;0.578950;,
  0.421050;0.578950;,
  0.473680;0.578950;,
  0.526320;0.578950;,
  0.578950;0.578950;,
  0.631580;0.578950;,
  0.684210;0.578950;,
  0.736840;0.578950;,
  0.789470;0.578950;,
  0.842110;0.578950;,
  0.894740;0.578950;,
  0.947370;0.578950;,
  1.000000;0.578950;,
  0.000000;0.631580;,
  0.052630;0.631580;,
  0.105260;0.631580;,
  0.157890;0.631580;,
  0.210530;0.631580;,
  0.263160;0.631580;,
  0.315790;0.631580;,
  0.368420;0.631580;,
  0.421050;0.631580;,
  0.473680;0.631580;,
  0.526320;0.631580;,
  0.578950;0.631580;,
  0.631580;0.631580;,
  0.684210;0.631580;,
  0.736840;0.631580;,
  0.789470;0.631580;,
  0.842110;0.631580;,
  0.894740;0.631580;,
  0.947370;0.631580;,
  1.000000;0.631580;,
  0.000000;0.684210;,
  0.052630;0.684210;,
  0.105260;0.684210;,
  0.157890;0.684210;,
  0.210530;0.684210;,
  0.263160;0.684210;,
  0.315790;0.684210;,
  0.368420;0.684210;,
  0.421050;0.684210;,
  0.473680;0.684210;,
  0.526320;0.684210;,
  0.578950;0.684210;,
  0.631580;0.684210;,
  0.684210;0.684210;,
  0.736840;0.684210;,
  0.789470;0.684210;,
  0.842110;0.684210;,
  0.894740;0.684210;,
  0.947370;0.684210;,
  1.000000;0.684210;,
  0.000000;0.736840;,
  0.052630;0.736840;,
  0.105260;0.736840;,
  0.157890;0.736840;,
  0.210530;0.736840;,
  0.263160;0.736840;,
  0.315790;0.736840;,
  0.368420;0.736840;,
  0.421050;0.736840;,
  0.473680;0.736840;,
  0.526320;0.736840;,
  0.578950;0.736840;,
  0.631580;0.736840;,
  0.684210;0.736840;,
  0.736840;0.736840;,
  0.789470;0.736840;,
  0.842110;0.736840;,
  0.894740;0.736840;,
  0.947370;0.736840;,
  1.000000;0.736840;,
  0.000000;0.789470;,
  0.052630;0.789470;,
  0.105260;0.789470;,
  0.157890;0.789470;,
  0.210530;0.789470;,
  0.263160;0.789470;,
  0.315790;0.789470;,
  0.368420;0.789470;,
  0.421050;0.789470;,
  0.473680;0.789470;,
  0.526320;0.789470;,
  0.578950;0.789470;,
  0.631580;0.789470;,
  0.684210;0.789470;,
  0.736840;0.789470;,
  0.789470;0.789470;,
  0.842110;0.789470;,
  0.894740;0.789470;,
  0.947370;0.789470;,
  1.000000;0.789470;,
  0.000000;0.842110;,
  0.052630;0.842110;,
  0.105260;0.842110;,
  0.157890;0.842110;,
  0.210530;0.842110;,
  0.263160;0.842110;,
  0.315790;0.842110;,
  0.368420;0.842110;,
  0.421050;0.842110;,
  0.473680;0.842110;,
  0.526320;0.842110;,
  0.578950;0.842110;,
  0.631580;0.842110;,
  0.684210;0.842110;,
  0.736840;0.842110;,
  0.789470;0.842110;,
  0.842110;0.842110;,
  0.894740;0.842110;,
  0.947370;0.842110;,
  1.000000;0.842110;,
  0.000000;0.894740;,
  0.052630;0.894740;,
  0.105260;0.894740;,
  0.157890;0.894740;,
  0.210530;0.894740;,
  0.263160;0.894740;,
  0.315790;0.894740;,
  0.368420;0.894740;,
  0.421050;0.894740;,
  0.473680;0.894740;,
  0.526320;0.894740;,
  0.578950;0.894740;,
  0.631580;0.894740;,
  0.684210;0.894740;,
  0.736840;0.894740;,
  0.789470;0.894740;,
  0.842110;0.894740;,
  0.894740;0.894740;,
  0.947370;0.894740;,
  1.000000;0.894740;,
  0.000000;0.947370;,
  0.052630;0.947370;,
  0.105260;0.947370;,
  0.157890;0.947370;,
  0.210530;0.947370;,
  0.263160;0.947370;,
  0.315790;0.947370;,
  0.368420;0.947370;,
  0.421050;0.947370;,
  0.473680;0.947370;,
  0.526320;0.947370;,
  0.578950;0.947370;,
  0.631580;0.947370;,
  0.684210;0.947370;,
  0.736840;0.947370;,
  0.789470;0.947370;,
  0.842110;0.947370;,
  0.894740;0.947370;,
  0.947370;0.947370;,
  1.000000;0.947370;,
  0.026320;1.000000;,
  0.078950;1.000000;,
  0.131580;1.000000;,
  0.184210;1.000000;,
  0.236840;1.000000;,
  0.289470;1.000000;,
  0.342110;1.000000;,
  0.394740;1.000000;,
  0.447370;1.000000;,
  0.500000;1.000000;,
  0.552630;1.000000;,
  0.605260;1.000000;,
  0.657890;1.000000;,
  0.710530;1.000000;,
  0.763160;1.000000;,
  0.815790;1.000000;,
  0.868420;1.000000;,
  0.921050;1.000000;,
  0.973680;1.000000;;
 }
}
