xof 0302txt 0064
template Header {
 <3D82AB43-62DA-11cf-AB39-0020AF71E433>
 WORD major;
 WORD minor;
 DWORD flags;
}

template Vector {
 <3D82AB5E-62DA-11cf-AB39-0020AF71E433>
 FLOAT x;
 FLOAT y;
 FLOAT z;
}

template Coords2d {
 <F6F23F44-7686-11cf-8F52-0040333594A3>
 FLOAT u;
 FLOAT v;
}

template Matrix4x4 {
 <F6F23F45-7686-11cf-8F52-0040333594A3>
 array FLOAT matrix[16];
}

template ColorRGBA {
 <35FF44E0-6C7C-11cf-8F52-0040333594A3>
 FLOAT red;
 FLOAT green;
 FLOAT blue;
 FLOAT alpha;
}

template ColorRGB {
 <D3E16E81-7835-11cf-8F52-0040333594A3>
 FLOAT red;
 FLOAT green;
 FLOAT blue;
}

template IndexedColor {
 <1630B820-7842-11cf-8F52-0040333594A3>
 DWORD index;
 ColorRGBA indexColor;
}

template Boolean {
 <4885AE61-78E8-11cf-8F52-0040333594A3>
 WORD truefalse;
}

template Boolean2d {
 <4885AE63-78E8-11cf-8F52-0040333594A3>
 Boolean u;
 Boolean v;
}

template MaterialWrap {
 <4885AE60-78E8-11cf-8F52-0040333594A3>
 Boolean u;
 Boolean v;
}

template TextureFilename {
 <A42790E1-7810-11cf-8F52-0040333594A3>
 STRING filename;
}

template Material {
 <3D82AB4D-62DA-11cf-AB39-0020AF71E433>
 ColorRGBA faceColor;
 FLOAT power;
 ColorRGB specularColor;
 ColorRGB emissiveColor;
 [...]
}

template MeshFace {
 <3D82AB5F-62DA-11cf-AB39-0020AF71E433>
 DWORD nFaceVertexIndices;
 array DWORD faceVertexIndices[nFaceVertexIndices];
}

template MeshFaceWraps {
 <4885AE62-78E8-11cf-8F52-0040333594A3>
 DWORD nFaceWrapValues;
 Boolean2d faceWrapValues;
}

template MeshTextureCoords {
 <F6F23F40-7686-11cf-8F52-0040333594A3>
 DWORD nTextureCoords;
 array Coords2d textureCoords[nTextureCoords];
}

template MeshMaterialList {
 <F6F23F42-7686-11cf-8F52-0040333594A3>
 DWORD nMaterials;
 DWORD nFaceIndexes;
 array DWORD faceIndexes[nFaceIndexes];
 [Material]
}

template MeshNormals {
 <F6F23F43-7686-11cf-8F52-0040333594A3>
 DWORD nNormals;
 array Vector normals[nNormals];
 DWORD nFaceNormals;
 array MeshFace faceNormals[nFaceNormals];
}

template MeshVertexColors {
 <1630B821-7842-11cf-8F52-0040333594A3>
 DWORD nVertexColors;
 array IndexedColor vertexColors[nVertexColors];
}

template Mesh {
 <3D82AB44-62DA-11cf-AB39-0020AF71E433>
 DWORD nVertices;
 array Vector vertices[nVertices];
 DWORD nFaces;
 array MeshFace faces[nFaces];
 [...]
}

Header{
1;
0;
1;
}

Mesh {
 501;
 -50.10500;0.00000;50.10500;,
 -45.09450;0.00000;50.10500;,
 -45.09450;0.00000;45.09450;,
 -50.10500;0.00000;45.09450;,
 -40.08400;0.00000;50.10500;,
 -40.08400;0.00000;45.09450;,
 -35.07350;0.00000;50.10500;,
 -35.07350;0.00000;45.09450;,
 -30.06300;0.00000;50.10500;,
 -30.06300;0.00000;45.09450;,
 -25.05250;0.00000;50.10500;,
 -25.05250;0.00000;45.09450;,
 -20.04200;0.00000;50.10500;,
 -20.04200;0.00000;45.09450;,
 -15.03150;0.00000;50.10500;,
 -15.03150;0.00000;45.09450;,
 -10.02100;0.00000;50.10500;,
 -10.02100;0.00000;45.09450;,
 -5.01050;0.00000;50.10500;,
 -5.01050;0.00000;45.09450;,
 0.00000;0.00000;50.10500;,
 0.00000;0.00000;45.09450;,
 5.01050;0.00000;50.10500;,
 5.01050;0.00000;45.09450;,
 10.02100;0.00000;50.10500;,
 10.02100;0.00000;45.09450;,
 15.03150;0.00000;50.10500;,
 15.03150;0.00000;45.09450;,
 20.04200;0.00000;50.10500;,
 20.04200;0.00000;45.09450;,
 25.05250;0.00000;50.10500;,
 25.05250;0.00000;45.09450;,
 30.06300;0.00000;50.10500;,
 30.06300;0.00000;45.09450;,
 35.07350;0.00000;50.10500;,
 35.07350;0.00000;45.09450;,
 40.08400;0.00000;50.10500;,
 40.08400;0.00000;45.09450;,
 45.09450;0.00000;50.10500;,
 45.09450;0.00000;45.09450;,
 50.10500;0.00000;50.10500;,
 50.10500;0.00000;45.09450;,
 -45.09450;0.00000;40.08400;,
 -50.10500;0.00000;40.08400;,
 -40.08400;0.00000;40.08400;,
 -35.07350;0.00000;40.08400;,
 -30.06300;0.00000;40.08400;,
 -25.05250;0.00000;40.08400;,
 -20.04200;0.00000;40.08400;,
 -15.03150;0.00000;40.08400;,
 -10.02100;0.00000;40.08400;,
 -5.01050;2.38330;40.08400;,
 0.00000;2.38330;40.08400;,
 5.01050;2.38330;40.08400;,
 10.02100;2.38330;40.08400;,
 15.03150;2.38330;40.08400;,
 20.04200;2.38330;40.08400;,
 25.05250;2.38330;40.08400;,
 30.06300;2.38330;40.08400;,
 35.07350;2.38330;40.08400;,
 40.08400;0.00000;40.08400;,
 45.09450;0.00000;40.08400;,
 50.10500;0.00000;40.08400;,
 -45.09450;0.00000;35.07350;,
 -50.10500;0.00000;35.07350;,
 -40.08400;0.00000;35.07350;,
 -35.07350;0.00000;35.07350;,
 -30.06300;2.58087;35.07350;,
 -25.05250;2.58087;35.07350;,
 -20.04200;2.58087;35.07350;,
 -15.03150;0.00000;35.07350;,
 -10.02100;0.00000;35.07350;,
 -5.01050;2.38330;35.07350;,
 0.00000;2.38330;35.07350;,
 5.01050;2.38330;35.07350;,
 10.02100;2.38330;35.07350;,
 15.03150;2.38330;35.07350;,
 20.04200;2.38330;35.07350;,
 25.05250;2.38330;35.07350;,
 30.06300;2.38330;35.07350;,
 35.07350;2.38330;35.07350;,
 40.08400;0.00000;35.07350;,
 45.09450;0.00000;35.07350;,
 50.10500;0.00000;35.07350;,
 -45.09450;0.00000;30.06300;,
 -50.10500;0.00000;30.06300;,
 -40.08400;0.00000;30.06300;,
 -35.07350;0.00000;30.06300;,
 -30.06300;2.58087;30.06300;,
 -25.05250;2.58087;30.06300;,
 -20.04200;2.58087;30.06300;,
 -15.03150;0.00000;30.06300;,
 -10.02100;-2.00817;30.06300;,
 -5.01050;2.38330;30.06300;,
 0.00000;2.38330;30.06300;,
 5.01050;2.38330;30.06300;,
 10.02100;2.38330;30.06300;,
 15.03150;2.38330;30.06300;,
 20.04200;2.38330;30.06300;,
 25.05250;2.38330;30.06300;,
 30.06300;2.38330;30.06300;,
 35.07350;2.38330;30.06300;,
 40.08400;0.00000;30.06300;,
 45.09450;0.00000;30.06300;,
 50.10500;0.00000;30.06300;,
 -45.09450;0.00000;25.05250;,
 -50.10500;0.00000;25.05250;,
 -40.08400;0.00000;25.05250;,
 -35.07350;0.00000;25.05250;,
 -30.06300;2.58087;25.05250;,
 -25.05250;2.58087;25.05250;,
 -20.04200;0.00000;25.05250;,
 -15.03150;-2.00817;25.05250;,
 -10.02100;-2.00817;25.05250;,
 -5.01050;-2.00817;25.05250;,
 0.00000;0.00000;25.05250;,
 5.01050;0.00000;25.05250;,
 10.02100;2.42043;25.05250;,
 15.03150;2.42043;25.05250;,
 20.04200;2.42043;25.05250;,
 25.05250;0.00000;25.05250;,
 30.06300;0.00000;25.05250;,
 35.07350;0.00000;25.05250;,
 40.08400;0.00000;25.05250;,
 45.09450;0.00000;25.05250;,
 50.10500;0.00000;25.05250;,
 -45.09450;0.00000;20.04200;,
 -50.10500;0.00000;20.04200;,
 -40.08400;0.00000;20.04200;,
 -35.07350;2.58087;20.04200;,
 -30.06300;2.58087;20.04200;,
 -25.05250;2.58087;20.04200;,
 -20.04200;-2.00817;20.04200;,
 -15.03150;-2.00817;20.04200;,
 -10.02100;-2.00817;20.04200;,
 -5.01050;-2.00817;20.04200;,
 0.00000;-2.00817;20.04200;,
 5.01050;-2.00817;20.04200;,
 10.02100;0.00000;20.04200;,
 15.03150;2.42043;20.04200;,
 20.04200;2.42043;20.04200;,
 25.05250;2.42043;20.04200;,
 30.06300;0.00000;20.04200;,
 35.07350;0.00000;20.04200;,
 40.08400;0.00000;20.04200;,
 45.09450;0.00000;20.04200;,
 50.10500;0.00000;20.04200;,
 -45.09450;0.00000;15.03150;,
 -50.10500;0.00000;15.03150;,
 -40.08400;0.00000;15.03150;,
 -35.07350;2.58087;15.03150;,
 -30.06300;2.58087;15.03150;,
 -25.05250;2.58087;15.03150;,
 -20.04200;0.00000;15.03150;,
 -15.03150;-2.00817;15.03150;,
 -10.02100;-2.00817;15.03150;,
 -5.01050;-2.00817;15.03150;,
 0.00000;-2.00817;15.03150;,
 5.01050;-2.00817;15.03150;,
 10.02100;-2.00817;15.03150;,
 15.03150;2.42043;15.03150;,
 20.04200;2.42043;15.03150;,
 25.05250;2.42043;15.03150;,
 30.06300;0.00000;15.03150;,
 35.07350;0.00000;15.03150;,
 40.08400;0.00000;15.03150;,
 45.09450;0.00000;15.03150;,
 50.10500;0.00000;15.03150;,
 -45.09450;0.00000;10.02100;,
 -50.10500;0.00000;10.02100;,
 -40.08400;0.00000;10.02100;,
 -35.07350;2.58087;10.02100;,
 -30.06300;2.58087;10.02100;,
 -25.05250;2.58087;10.02100;,
 -20.04200;2.52657;10.02100;,
 -15.03150;2.52657;10.02100;,
 -10.02100;-2.00817;10.02100;,
 -5.01050;-2.00817;10.02100;,
 0.00000;-2.00817;10.02100;,
 5.01050;-2.00817;10.02100;,
 10.02100;-2.00817;10.02100;,
 15.03150;0.41226;10.02100;,
 20.04200;2.42043;10.02100;,
 25.05250;2.42043;10.02100;,
 30.06300;0.00000;10.02100;,
 35.07350;0.00000;10.02100;,
 40.08400;0.00000;10.02100;,
 45.09450;0.00000;10.02100;,
 50.10500;0.00000;10.02100;,
 -45.09450;0.00000;5.01050;,
 -50.10500;0.00000;5.01050;,
 -40.08400;0.00000;5.01050;,
 -35.07350;2.58087;5.01050;,
 -30.06300;2.58087;5.01050;,
 -25.05250;2.52657;5.01050;,
 -20.04200;2.52657;5.01050;,
 -15.03150;2.52657;5.01050;,
 -10.02100;1.22979;5.01050;,
 -5.01050;-2.00817;5.01050;,
 0.00000;-2.00817;5.01050;,
 5.01050;-2.00817;5.01050;,
 10.02100;-2.00817;5.01050;,
 15.03150;-2.00817;5.01050;,
 20.04200;0.41226;5.01050;,
 25.05250;2.42043;5.01050;,
 30.06300;2.42043;5.01050;,
 35.07350;0.00000;5.01050;,
 40.08400;0.00000;5.01050;,
 45.09450;0.00000;5.01050;,
 50.10500;0.00000;5.01050;,
 -45.09450;0.00000;-0.00000;,
 -50.10500;0.00000;-0.00000;,
 -40.08400;2.58087;-0.00000;,
 -35.07350;2.58087;-0.00000;,
 -30.06300;0.27055;-0.00000;,
 -25.05250;0.00000;-0.00000;,
 -20.04200;1.22979;-0.00000;,
 -15.03150;1.22979;-0.00000;,
 -10.02100;1.22979;-0.00000;,
 -5.01050;1.22979;-0.00000;,
 0.00000;-2.00817;-0.00000;,
 5.01050;-2.00817;-0.00000;,
 10.02100;-2.00817;-0.00000;,
 15.03150;-2.00817;-0.00000;,
 20.04200;-2.36315;-0.00000;,
 25.05250;0.41226;-0.00000;,
 30.06300;2.42043;-0.00000;,
 35.07350;0.00000;-0.00000;,
 40.08400;1.89949;-0.00000;,
 45.09450;1.89949;-0.00000;,
 50.10500;0.00000;-0.00000;,
 -45.09450;0.00000;-5.01050;,
 -50.10500;0.00000;-5.01050;,
 -40.08400;0.00000;-5.01050;,
 -35.07350;0.27055;-5.01050;,
 -30.06300;-1.02624;-5.01050;,
 -25.05250;-3.60711;-5.01050;,
 -20.04200;-1.29678;-5.01050;,
 -15.03150;1.22979;-5.01050;,
 -10.02100;1.22979;-5.01050;,
 -5.01050;1.22979;-5.01050;,
 0.00000;2.52657;-5.01050;,
 5.01050;-2.00817;-5.01050;,
 10.02100;-2.00817;-5.01050;,
 15.03150;-2.00817;-5.01050;,
 20.04200;-2.36315;-5.01050;,
 25.05250;-2.77541;-5.01050;,
 30.06300;-2.77541;-5.01050;,
 35.07350;-2.77541;-5.01050;,
 40.08400;1.89949;-5.01050;,
 45.09450;1.89949;-5.01050;,
 50.10500;0.00000;-5.01050;,
 -45.09450;0.00000;-10.02100;,
 -50.10500;0.00000;-10.02100;,
 -40.08400;-3.60711;-10.02100;,
 -35.07350;-3.60711;-10.02100;,
 -30.06300;-3.60711;-10.02100;,
 -25.05250;-3.60711;-10.02100;,
 -20.04200;-3.60711;-10.02100;,
 -15.03150;-3.60711;-10.02100;,
 -10.02100;1.22979;-10.02100;,
 -5.01050;1.22979;-10.02100;,
 0.00000;1.22979;-10.02100;,
 5.01050;2.52657;-10.02100;,
 10.02100;-2.00817;-10.02100;,
 15.03150;-2.00817;-10.02100;,
 20.04200;-2.77541;-10.02100;,
 25.05250;-2.77541;-10.02100;,
 30.06300;-2.77541;-10.02100;,
 35.07350;-0.87593;-10.02100;,
 40.08400;1.89949;-10.02100;,
 45.09450;1.89949;-10.02100;,
 50.10500;0.00000;-10.02100;,
 -45.09450;-2.31032;-15.03150;,
 -50.10500;0.00000;-15.03150;,
 -40.08400;-3.60711;-15.03150;,
 -35.07350;-3.60711;-15.03150;,
 -30.06300;-3.60711;-15.03150;,
 -25.05250;-3.60711;-15.03150;,
 -20.04200;-3.60711;-15.03150;,
 -15.03150;-3.60711;-15.03150;,
 -10.02100;-3.60711;-15.03150;,
 -5.01050;1.22979;-15.03150;,
 0.00000;2.52657;-15.03150;,
 5.01050;2.52657;-15.03150;,
 10.02100;0.00000;-15.03150;,
 15.03150;-2.77541;-15.03150;,
 20.04200;-2.77541;-15.03150;,
 25.05250;-2.77541;-15.03150;,
 30.06300;-2.77541;-15.03150;,
 35.07350;-0.87593;-15.03150;,
 40.08400;1.89949;-15.03150;,
 45.09450;1.89949;-15.03150;,
 50.10500;0.00000;-15.03150;,
 -45.09450;0.00000;-20.04200;,
 -50.10500;0.00000;-20.04200;,
 -40.08400;-2.31032;-20.04200;,
 -35.07350;-3.60711;-20.04200;,
 -30.06300;-3.60711;-20.04200;,
 -25.05250;-3.60711;-20.04200;,
 -20.04200;-3.60711;-20.04200;,
 -15.03150;-3.60711;-20.04200;,
 -10.02100;0.00000;-20.04200;,
 -5.01050;0.00000;-20.04200;,
 0.00000;2.52657;-20.04200;,
 5.01050;5.44863;-20.04200;,
 10.02100;5.44863;-20.04200;,
 15.03150;0.14664;-20.04200;,
 20.04200;-2.77541;-20.04200;,
 25.05250;-2.77541;-20.04200;,
 30.06300;-2.77541;-20.04200;,
 35.07350;-0.87593;-20.04200;,
 40.08400;1.89949;-20.04200;,
 45.09450;0.00000;-20.04200;,
 50.10500;0.00000;-20.04200;,
 -45.09450;0.00000;-25.05250;,
 -50.10500;0.00000;-25.05250;,
 -40.08400;0.00000;-25.05250;,
 -35.07350;-3.60711;-25.05250;,
 -30.06300;-3.60711;-25.05250;,
 -25.05250;-3.60711;-25.05250;,
 -20.04200;-2.31032;-25.05250;,
 -15.03150;2.92205;-25.05250;,
 -10.02100;2.92205;-25.05250;,
 -5.01050;2.92205;-25.05250;,
 0.00000;2.92205;-25.05250;,
 5.01050;5.44863;-25.05250;,
 10.02100;5.44863;-25.05250;,
 15.03150;2.67321;-25.05250;,
 20.04200;0.14664;-25.05250;,
 25.05250;-2.77541;-25.05250;,
 30.06300;-2.77541;-25.05250;,
 35.07350;1.89949;-25.05250;,
 40.08400;1.89949;-25.05250;,
 45.09450;0.00000;-25.05250;,
 50.10500;0.00000;-25.05250;,
 -45.09450;0.00000;-30.06300;,
 -50.10500;0.00000;-30.06300;,
 -40.08400;0.00000;-30.06300;,
 -35.07350;2.92205;-30.06300;,
 -30.06300;0.61173;-30.06300;,
 -25.05250;0.61173;-30.06300;,
 -20.04200;2.92205;-30.06300;,
 -15.03150;2.92205;-30.06300;,
 -10.02100;2.92205;-30.06300;,
 -5.01050;2.92205;-30.06300;,
 0.00000;2.92205;-30.06300;,
 5.01050;2.92205;-30.06300;,
 10.02100;5.44863;-30.06300;,
 15.03150;2.92205;-30.06300;,
 20.04200;2.92205;-30.06300;,
 25.05250;0.00000;-30.06300;,
 30.06300;-2.77541;-30.06300;,
 35.07350;1.89949;-30.06300;,
 40.08400;1.89949;-30.06300;,
 45.09450;0.00000;-30.06300;,
 50.10500;0.00000;-30.06300;,
 -45.09450;0.00000;-35.07350;,
 -50.10500;0.00000;-35.07350;,
 -40.08400;0.00000;-35.07350;,
 -35.07350;2.92205;-35.07350;,
 -30.06300;2.92205;-35.07350;,
 -25.05250;2.92205;-35.07350;,
 -20.04200;2.92205;-35.07350;,
 -15.03150;2.92205;-35.07350;,
 -10.02100;2.92205;-35.07350;,
 -5.01050;2.92205;-35.07350;,
 0.00000;2.92205;-35.07350;,
 5.01050;2.92205;-35.07350;,
 10.02100;2.92205;-35.07350;,
 15.03150;2.92205;-35.07350;,
 20.04200;2.92205;-35.07350;,
 25.05250;0.00000;-35.07350;,
 30.06300;1.89949;-35.07350;,
 35.07350;1.89949;-35.07350;,
 40.08400;1.89949;-35.07350;,
 45.09450;0.00000;-35.07350;,
 50.10500;0.00000;-35.07350;,
 -45.09450;0.00000;-40.08400;,
 -50.10500;0.00000;-40.08400;,
 -40.08400;0.00000;-40.08400;,
 -35.07350;0.00000;-40.08400;,
 -30.06300;2.92205;-40.08400;,
 -25.05250;2.92205;-40.08400;,
 -20.04200;2.92205;-40.08400;,
 -15.03150;2.92205;-40.08400;,
 -10.02100;2.92205;-40.08400;,
 -5.01050;2.92205;-40.08400;,
 0.00000;2.92205;-40.08400;,
 5.01050;0.00000;-40.08400;,
 10.02100;0.00000;-40.08400;,
 15.03150;0.00000;-40.08400;,
 20.04200;0.00000;-40.08400;,
 25.05250;0.00000;-40.08400;,
 30.06300;1.89949;-40.08400;,
 35.07350;1.89949;-40.08400;,
 40.08400;1.89949;-40.08400;,
 45.09450;0.00000;-40.08400;,
 50.10500;0.00000;-40.08400;,
 -45.09450;0.00000;-45.09450;,
 -50.10500;0.00000;-45.09450;,
 -40.08400;0.00000;-45.09450;,
 -35.07350;0.00000;-45.09450;,
 -30.06300;2.92205;-45.09450;,
 -25.05250;2.92205;-45.09450;,
 -20.04200;0.00000;-45.09450;,
 -15.03150;0.00000;-45.09450;,
 -10.02100;0.00000;-45.09450;,
 -5.01050;0.00000;-45.09450;,
 0.00000;0.00000;-45.09450;,
 5.01050;0.00000;-45.09450;,
 10.02100;0.00000;-45.09450;,
 15.03150;0.00000;-45.09450;,
 20.04200;0.00000;-45.09450;,
 25.05250;0.00000;-45.09450;,
 30.06300;1.89949;-45.09450;,
 35.07350;1.89949;-45.09450;,
 40.08400;0.00000;-45.09450;,
 45.09450;0.00000;-45.09450;,
 50.10500;0.00000;-45.09450;,
 -45.09450;0.00000;-50.10500;,
 -50.10500;0.00000;-50.10500;,
 -40.08400;0.00000;-50.10500;,
 -35.07350;0.00000;-50.10500;,
 -30.06300;0.00000;-50.10500;,
 -25.05250;0.00000;-50.10500;,
 -20.04200;0.00000;-50.10500;,
 -15.03150;0.00000;-50.10500;,
 -10.02100;0.00000;-50.10500;,
 -5.01050;0.00000;-50.10500;,
 0.00000;0.00000;-50.10500;,
 5.01050;0.00000;-50.10500;,
 10.02100;0.00000;-50.10500;,
 15.03150;0.00000;-50.10500;,
 20.04200;0.00000;-50.10500;,
 25.05250;0.00000;-50.10500;,
 30.06300;0.00000;-50.10500;,
 35.07350;0.00000;-50.10500;,
 40.08400;0.00000;-50.10500;,
 45.09450;0.00000;-50.10500;,
 50.10500;0.00000;-50.10500;,
 -41.08939;19.27785;-3.38000;,
 -35.58597;23.20339;-3.38000;,
 -17.43900;-2.23773;-3.38000;,
 -22.94243;-6.16328;-3.38000;,
 -35.58597;23.20339;-3.38000;,
 -35.58597;23.20339;3.38000;,
 -17.43900;-2.23773;3.38000;,
 -17.43900;-2.23773;-3.38000;,
 -35.58597;23.20339;3.38000;,
 -41.08939;19.27785;3.38000;,
 -22.94243;-6.16328;3.38000;,
 -17.43900;-2.23773;3.38000;,
 -41.08939;19.27785;3.38000;,
 -41.08939;19.27785;-3.38000;,
 -22.94243;-6.16328;-3.38000;,
 -22.94243;-6.16328;3.38000;,
 -35.58597;23.20339;-3.38000;,
 -41.08939;19.27785;-3.38000;,
 -22.94243;-6.16328;-3.38000;,
 -17.43900;-2.23773;-3.38000;,
 28.02482;11.82752;-4.15883;,
 26.23308;15.75306;-9.36241;,
 20.32501;-9.68806;-26.52071;,
 22.11675;-13.61361;-21.31712;,
 26.23308;15.75306;-9.36241;,
 32.62479;15.75306;-11.56325;,
 26.71671;-9.68806;-28.72155;,
 20.32501;-9.68806;-26.52071;,
 32.62479;15.75306;-11.56325;,
 34.41653;11.82752;-6.35966;,
 28.50845;-13.61361;-23.51796;,
 26.71671;-9.68806;-28.72155;,
 34.41653;11.82752;-6.35966;,
 28.02482;11.82752;-4.15883;,
 22.11675;-13.61361;-21.31712;,
 28.50845;-13.61361;-23.51796;,
 26.23308;15.75306;-9.36241;,
 28.02482;11.82752;-4.15883;,
 22.11675;-13.61361;-21.31712;,
 20.32501;-9.68806;-26.52071;,
 5.16825;26.04063;26.84699;,
 9.47528;28.67624;31.34150;,
 23.67723;0.96531;33.98190;,
 19.37020;-1.67030;29.48739;,
 9.47528;28.67624;31.34150;,
 5.26707;26.99757;36.35854;,
 19.46903;-0.71336;38.99892;,
 23.67723;0.96531;33.98190;,
 5.26707;26.99757;36.35854;,
 0.96004;24.36195;31.86403;,
 15.16200;-3.34899;34.50442;,
 19.46903;-0.71336;38.99892;,
 0.96004;24.36195;31.86403;,
 5.16825;26.04063;26.84699;,
 19.37020;-1.67030;29.48739;,
 15.16200;-3.34899;34.50442;,
 9.47528;28.67624;31.34150;,
 5.16825;26.04063;26.84699;,
 19.37020;-1.67030;29.48739;,
 23.67723;0.96531;33.98190;;
 
 418;
 4;0,1,2,3;,
 4;1,4,5,2;,
 4;4,6,7,5;,
 4;6,8,9,7;,
 4;8,10,11,9;,
 4;10,12,13,11;,
 4;12,14,15,13;,
 4;14,16,17,15;,
 4;16,18,19,17;,
 4;18,20,21,19;,
 4;20,22,23,21;,
 4;22,24,25,23;,
 4;24,26,27,25;,
 4;26,28,29,27;,
 4;28,30,31,29;,
 4;30,32,33,31;,
 4;32,34,35,33;,
 4;34,36,37,35;,
 4;36,38,39,37;,
 4;38,40,41,39;,
 4;3,2,42,43;,
 4;2,5,44,42;,
 4;5,7,45,44;,
 4;7,9,46,45;,
 4;9,11,47,46;,
 4;11,13,48,47;,
 4;13,15,49,48;,
 4;15,17,50,49;,
 4;17,19,51,50;,
 4;19,21,52,51;,
 4;21,23,53,52;,
 4;23,25,54,53;,
 4;25,27,55,54;,
 4;27,29,56,55;,
 4;29,31,57,56;,
 4;31,33,58,57;,
 4;33,35,59,58;,
 4;35,37,60,59;,
 4;37,39,61,60;,
 4;39,41,62,61;,
 4;43,42,63,64;,
 4;42,44,65,63;,
 4;44,45,66,65;,
 4;45,46,67,66;,
 4;46,47,68,67;,
 4;47,48,69,68;,
 4;48,49,70,69;,
 4;49,50,71,70;,
 4;50,51,72,71;,
 4;51,52,73,72;,
 4;52,53,74,73;,
 4;53,54,75,74;,
 4;54,55,76,75;,
 4;55,56,77,76;,
 4;56,57,78,77;,
 4;57,58,79,78;,
 4;58,59,80,79;,
 4;59,60,81,80;,
 4;60,61,82,81;,
 4;61,62,83,82;,
 4;64,63,84,85;,
 4;63,65,86,84;,
 4;65,66,87,86;,
 4;66,67,88,87;,
 4;67,68,89,88;,
 4;68,69,90,89;,
 4;69,70,91,90;,
 4;70,71,92,91;,
 4;71,72,93,92;,
 4;72,73,94,93;,
 4;73,74,95,94;,
 4;74,75,96,95;,
 4;75,76,97,96;,
 4;76,77,98,97;,
 4;77,78,99,98;,
 4;78,79,100,99;,
 4;79,80,101,100;,
 4;80,81,102,101;,
 4;81,82,103,102;,
 4;82,83,104,103;,
 4;85,84,105,106;,
 4;84,86,107,105;,
 4;86,87,108,107;,
 4;87,88,109,108;,
 4;88,89,110,109;,
 4;89,90,111,110;,
 4;90,91,112,111;,
 4;91,92,113,112;,
 4;92,93,114,113;,
 4;93,94,115,114;,
 4;94,95,116,115;,
 4;95,96,117,116;,
 4;96,97,118,117;,
 4;97,98,119,118;,
 4;98,99,120,119;,
 4;99,100,121,120;,
 4;100,101,122,121;,
 4;101,102,123,122;,
 4;102,103,124,123;,
 4;103,104,125,124;,
 4;106,105,126,127;,
 4;105,107,128,126;,
 4;107,108,129,128;,
 4;108,109,130,129;,
 4;109,110,131,130;,
 4;110,111,132,131;,
 4;111,112,133,132;,
 4;112,113,134,133;,
 4;113,114,135,134;,
 4;114,115,136,135;,
 4;115,116,137,136;,
 4;116,117,138,137;,
 4;117,118,139,138;,
 4;118,119,140,139;,
 4;119,120,141,140;,
 4;120,121,142,141;,
 4;121,122,143,142;,
 4;122,123,144,143;,
 4;123,124,145,144;,
 4;124,125,146,145;,
 4;127,126,147,148;,
 4;126,128,149,147;,
 4;128,129,150,149;,
 4;129,130,151,150;,
 4;130,131,152,151;,
 4;131,132,153,152;,
 4;132,133,154,153;,
 4;133,134,155,154;,
 4;134,135,156,155;,
 4;135,136,157,156;,
 4;136,137,158,157;,
 4;137,138,159,158;,
 4;138,139,160,159;,
 4;139,140,161,160;,
 4;140,141,162,161;,
 4;141,142,163,162;,
 4;142,143,164,163;,
 4;143,144,165,164;,
 4;144,145,166,165;,
 4;145,146,167,166;,
 4;148,147,168,169;,
 4;147,149,170,168;,
 4;149,150,171,170;,
 4;150,151,172,171;,
 4;151,152,173,172;,
 4;152,153,174,173;,
 4;153,154,175,174;,
 4;154,155,176,175;,
 4;155,156,177,176;,
 4;156,157,178,177;,
 4;157,158,179,178;,
 4;158,159,180,179;,
 4;159,160,181,180;,
 4;160,161,182,181;,
 4;161,162,183,182;,
 4;162,163,184,183;,
 4;163,164,185,184;,
 4;164,165,186,185;,
 4;165,166,187,186;,
 4;166,167,188,187;,
 4;169,168,189,190;,
 4;168,170,191,189;,
 4;170,171,192,191;,
 4;171,172,193,192;,
 4;172,173,194,193;,
 4;173,174,195,194;,
 4;174,175,196,195;,
 4;175,176,197,196;,
 4;176,177,198,197;,
 4;177,178,199,198;,
 4;178,179,200,199;,
 4;179,180,201,200;,
 4;180,181,202,201;,
 4;181,182,203,202;,
 4;182,183,204,203;,
 4;183,184,205,204;,
 4;184,185,206,205;,
 4;185,186,207,206;,
 4;186,187,208,207;,
 4;187,188,209,208;,
 4;190,189,210,211;,
 4;189,191,212,210;,
 4;191,192,213,212;,
 4;192,193,214,213;,
 4;193,194,215,214;,
 4;194,195,216,215;,
 4;195,196,217,216;,
 4;196,197,218,217;,
 4;197,198,219,218;,
 4;198,199,220,219;,
 4;199,200,221,220;,
 4;200,201,222,221;,
 4;201,202,223,222;,
 4;202,203,224,223;,
 4;203,204,225,224;,
 4;204,205,226,225;,
 4;205,206,227,226;,
 4;206,207,228,227;,
 4;207,208,229,228;,
 4;208,209,230,229;,
 4;211,210,231,232;,
 4;210,212,233,231;,
 4;212,213,234,233;,
 4;213,214,235,234;,
 4;214,215,236,235;,
 4;215,216,237,236;,
 4;216,217,238,237;,
 4;217,218,239,238;,
 4;218,219,240,239;,
 4;219,220,241,240;,
 4;220,221,242,241;,
 4;221,222,243,242;,
 4;222,223,244,243;,
 4;223,224,245,244;,
 4;224,225,246,245;,
 4;225,226,247,246;,
 4;226,227,248,247;,
 4;227,228,249,248;,
 4;228,229,250,249;,
 4;229,230,251,250;,
 4;232,231,252,253;,
 4;231,233,254,252;,
 4;233,234,255,254;,
 4;234,235,256,255;,
 4;235,236,257,256;,
 4;236,237,258,257;,
 4;237,238,259,258;,
 4;238,239,260,259;,
 4;239,240,261,260;,
 4;240,241,262,261;,
 4;241,242,263,262;,
 4;242,243,264,263;,
 4;243,244,265,264;,
 4;244,245,266,265;,
 4;245,246,267,266;,
 4;246,247,268,267;,
 4;247,248,269,268;,
 4;248,249,270,269;,
 4;249,250,271,270;,
 4;250,251,272,271;,
 4;253,252,273,274;,
 4;252,254,275,273;,
 4;254,255,276,275;,
 4;255,256,277,276;,
 4;256,257,278,277;,
 4;257,258,279,278;,
 4;258,259,280,279;,
 4;259,260,281,280;,
 4;260,261,282,281;,
 4;261,262,283,282;,
 4;262,263,284,283;,
 4;263,264,285,284;,
 4;264,265,286,285;,
 4;265,266,287,286;,
 4;266,267,288,287;,
 4;267,268,289,288;,
 4;268,269,290,289;,
 4;269,270,291,290;,
 4;270,271,292,291;,
 4;271,272,293,292;,
 4;274,273,294,295;,
 4;273,275,296,294;,
 4;275,276,297,296;,
 4;276,277,298,297;,
 4;277,278,299,298;,
 4;278,279,300,299;,
 4;279,280,301,300;,
 4;280,281,302,301;,
 4;281,282,303,302;,
 4;282,283,304,303;,
 4;283,284,305,304;,
 4;284,285,306,305;,
 4;285,286,307,306;,
 4;286,287,308,307;,
 4;287,288,309,308;,
 4;288,289,310,309;,
 4;289,290,311,310;,
 4;290,291,312,311;,
 4;291,292,313,312;,
 4;292,293,314,313;,
 4;295,294,315,316;,
 4;294,296,317,315;,
 4;296,297,318,317;,
 4;297,298,319,318;,
 4;298,299,320,319;,
 4;299,300,321,320;,
 4;300,301,322,321;,
 4;301,302,323,322;,
 4;302,303,324,323;,
 4;303,304,325,324;,
 4;304,305,326,325;,
 4;305,306,327,326;,
 4;306,307,328,327;,
 4;307,308,329,328;,
 4;308,309,330,329;,
 4;309,310,331,330;,
 4;310,311,332,331;,
 4;311,312,333,332;,
 4;312,313,334,333;,
 4;313,314,335,334;,
 4;316,315,336,337;,
 4;315,317,338,336;,
 4;317,318,339,338;,
 4;318,319,340,339;,
 4;319,320,341,340;,
 4;320,321,342,341;,
 4;321,322,343,342;,
 4;322,323,344,343;,
 4;323,324,345,344;,
 4;324,325,346,345;,
 4;325,326,347,346;,
 4;326,327,348,347;,
 4;327,328,349,348;,
 4;328,329,350,349;,
 4;329,330,351,350;,
 4;330,331,352,351;,
 4;331,332,353,352;,
 4;332,333,354,353;,
 4;333,334,355,354;,
 4;334,335,356,355;,
 4;337,336,357,358;,
 4;336,338,359,357;,
 4;338,339,360,359;,
 4;339,340,361,360;,
 4;340,341,362,361;,
 4;341,342,363,362;,
 4;342,343,364,363;,
 4;343,344,365,364;,
 4;344,345,366,365;,
 4;345,346,367,366;,
 4;346,347,368,367;,
 4;347,348,369,368;,
 4;348,349,370,369;,
 4;349,350,371,370;,
 4;350,351,372,371;,
 4;351,352,373,372;,
 4;352,353,374,373;,
 4;353,354,375,374;,
 4;354,355,376,375;,
 4;355,356,377,376;,
 4;358,357,378,379;,
 4;357,359,380,378;,
 4;359,360,381,380;,
 4;360,361,382,381;,
 4;361,362,383,382;,
 4;362,363,384,383;,
 4;363,364,385,384;,
 4;364,365,386,385;,
 4;365,366,387,386;,
 4;366,367,388,387;,
 4;367,368,389,388;,
 4;368,369,390,389;,
 4;369,370,391,390;,
 4;370,371,392,391;,
 4;371,372,393,392;,
 4;372,373,394,393;,
 4;373,374,395,394;,
 4;374,375,396,395;,
 4;375,376,397,396;,
 4;376,377,398,397;,
 4;379,378,399,400;,
 4;378,380,401,399;,
 4;380,381,402,401;,
 4;381,382,403,402;,
 4;382,383,404,403;,
 4;383,384,405,404;,
 4;384,385,406,405;,
 4;385,386,407,406;,
 4;386,387,408,407;,
 4;387,388,409,408;,
 4;388,389,410,409;,
 4;389,390,411,410;,
 4;390,391,412,411;,
 4;391,392,413,412;,
 4;392,393,414,413;,
 4;393,394,415,414;,
 4;394,395,416,415;,
 4;395,396,417,416;,
 4;396,397,418,417;,
 4;397,398,419,418;,
 4;400,399,420,421;,
 4;399,401,422,420;,
 4;401,402,423,422;,
 4;402,403,424,423;,
 4;403,404,425,424;,
 4;404,405,426,425;,
 4;405,406,427,426;,
 4;406,407,428,427;,
 4;407,408,429,428;,
 4;408,409,430,429;,
 4;409,410,431,430;,
 4;410,411,432,431;,
 4;411,412,433,432;,
 4;412,413,434,433;,
 4;413,414,435,434;,
 4;414,415,436,435;,
 4;415,416,437,436;,
 4;416,417,438,437;,
 4;417,418,439,438;,
 4;418,419,440,439;,
 4;441,442,443,444;,
 4;445,446,447,448;,
 4;449,450,451,452;,
 4;453,454,455,456;,
 4;453,446,457,458;,
 4;459,460,447,456;,
 4;461,462,463,464;,
 4;465,466,467,468;,
 4;469,470,471,472;,
 4;473,474,475,476;,
 4;473,466,477,478;,
 4;479,480,467,476;,
 4;481,482,483,484;,
 4;485,486,487,488;,
 4;489,490,491,492;,
 4;493,494,495,496;,
 4;493,486,497,498;,
 4;499,500,487,496;;
 
 MeshMaterialList {
  1;
  418;
  0,
  0,
  0,
  0,
  0,
  0,
  0,
  0,
  0,
  0,
  0,
  0,
  0,
  0,
  0,
  0,
  0,
  0,
  0,
  0,
  0,
  0,
  0,
  0,
  0,
  0,
  0,
  0,
  0,
  0,
  0,
  0,
  0,
  0,
  0,
  0,
  0,
  0,
  0,
  0,
  0,
  0,
  0,
  0,
  0,
  0,
  0,
  0,
  0,
  0,
  0,
  0,
  0,
  0,
  0,
  0,
  0,
  0,
  0,
  0,
  0,
  0,
  0,
  0,
  0,
  0,
  0,
  0,
  0,
  0,
  0,
  0,
  0,
  0,
  0,
  0,
  0,
  0,
  0,
  0,
  0,
  0,
  0,
  0,
  0,
  0,
  0,
  0,
  0,
  0,
  0,
  0,
  0,
  0,
  0,
  0,
  0,
  0,
  0,
  0,
  0,
  0,
  0,
  0,
  0,
  0,
  0,
  0,
  0,
  0,
  0,
  0,
  0,
  0,
  0,
  0,
  0,
  0,
  0,
  0,
  0,
  0,
  0,
  0,
  0,
  0,
  0,
  0,
  0,
  0,
  0,
  0,
  0,
  0,
  0,
  0,
  0,
  0,
  0,
  0,
  0,
  0,
  0,
  0,
  0,
  0,
  0,
  0,
  0,
  0,
  0,
  0,
  0,
  0,
  0,
  0,
  0,
  0,
  0,
  0,
  0,
  0,
  0,
  0,
  0,
  0,
  0,
  0,
  0,
  0,
  0,
  0,
  0,
  0,
  0,
  0,
  0,
  0,
  0,
  0,
  0,
  0,
  0,
  0,
  0,
  0,
  0,
  0,
  0,
  0,
  0,
  0,
  0,
  0,
  0,
  0,
  0,
  0,
  0,
  0,
  0,
  0,
  0,
  0,
  0,
  0,
  0,
  0,
  0,
  0,
  0,
  0,
  0,
  0,
  0,
  0,
  0,
  0,
  0,
  0,
  0,
  0,
  0,
  0,
  0,
  0,
  0,
  0,
  0,
  0,
  0,
  0,
  0,
  0,
  0,
  0,
  0,
  0,
  0,
  0,
  0,
  0,
  0,
  0,
  0,
  0,
  0,
  0,
  0,
  0,
  0,
  0,
  0,
  0,
  0,
  0,
  0,
  0,
  0,
  0,
  0,
  0,
  0,
  0,
  0,
  0,
  0,
  0,
  0,
  0,
  0,
  0,
  0,
  0,
  0,
  0,
  0,
  0,
  0,
  0,
  0,
  0,
  0,
  0,
  0,
  0,
  0,
  0,
  0,
  0,
  0,
  0,
  0,
  0,
  0,
  0,
  0,
  0,
  0,
  0,
  0,
  0,
  0,
  0,
  0,
  0,
  0,
  0,
  0,
  0,
  0,
  0,
  0,
  0,
  0,
  0,
  0,
  0,
  0,
  0,
  0,
  0,
  0,
  0,
  0,
  0,
  0,
  0,
  0,
  0,
  0,
  0,
  0,
  0,
  0,
  0,
  0,
  0,
  0,
  0,
  0,
  0,
  0,
  0,
  0,
  0,
  0,
  0,
  0,
  0,
  0,
  0,
  0,
  0,
  0,
  0,
  0,
  0,
  0,
  0,
  0,
  0,
  0,
  0,
  0,
  0,
  0,
  0,
  0,
  0,
  0,
  0,
  0,
  0,
  0,
  0,
  0,
  0,
  0,
  0,
  0,
  0,
  0,
  0,
  0,
  0,
  0,
  0,
  0,
  0,
  0,
  0,
  0,
  0,
  0,
  0,
  0,
  0,
  0,
  0,
  0,
  0,
  0,
  0,
  0,
  0,
  0,
  0,
  0,
  0,
  0,
  0,
  0,
  0,
  0,
  0,
  0,
  0;;
  Material {
   0.800000;0.800000;0.800000;1.000000;;
   5.000000;
   0.000000;0.000000;0.000000;;
   0.000000;0.000000;0.000000;;
   TextureFilename {
    "data\\TEXTURE\\lunar.png";
   }
  }
 }
 MeshNormals {
  298;
  0.000000;1.000000;0.000000;,
  -0.052005;0.997292;0.052005;,
  -0.052671;0.985329;0.162333;,
  0.000000;0.975460;0.220175;,
  0.000000;0.975460;0.220175;,
  0.052672;0.985329;0.162333;,
  0.052005;0.997292;0.052005;,
  -0.055243;0.996943;0.055243;,
  -0.056061;0.983269;0.173318;,
  0.000000;0.971853;0.235589;,
  0.056061;0.983269;0.173318;,
  0.055243;0.996943;0.055243;,
  -0.162333;0.985329;0.052672;,
  -0.164366;0.972609;0.164366;,
  0.164366;0.972609;0.164366;,
  0.162333;0.985329;0.052672;,
  -0.173318;0.983269;0.056061;,
  -0.175815;0.968596;0.175814;,
  0.175815;0.968596;0.175814;,
  0.219650;0.975529;0.009899;,
  -0.208214;0.974270;-0.086287;,
  -0.251581;0.967084;-0.038159;,
  0.220175;0.975460;0.000000;,
  -0.235589;0.971853;0.000000;,
  0.055243;0.996943;-0.055243;,
  0.273401;0.949282;-0.155290;,
  0.306034;0.932988;-0.189412;,
  -0.128280;0.968202;-0.214778;,
  -0.259652;0.930141;-0.259652;,
  -0.038159;0.967084;-0.251581;,
  -0.053438;0.985458;-0.161297;,
  -0.052761;0.997399;-0.049105;,
  0.000000;0.999993;0.003705;,
  0.052761;0.997399;-0.049105;,
  0.053438;0.985458;-0.161297;,
  0.000000;0.975460;-0.220175;,
  0.164366;0.972609;-0.164366;,
  0.162333;0.985329;-0.052671;,
  -0.055243;0.996943;0.055243;,
  -0.228533;0.967106;0.111707;,
  0.202587;0.974733;-0.094092;,
  0.342635;0.909353;-0.235960;,
  0.189814;0.963297;-0.189814;,
  -0.031962;0.991719;-0.124388;,
  -0.162653;0.950729;-0.263931;,
  -0.082986;0.918809;-0.385880;,
  -0.148360;0.924777;-0.350395;,
  -0.202021;0.959091;-0.198323;,
  -0.052638;0.997416;-0.048900;,
  0.106253;0.994333;0.003543;,
  0.163721;0.984918;-0.055970;,
  0.054601;0.983911;-0.170113;,
  0.052672;0.985329;-0.162333;,
  0.052005;0.997292;-0.052005;,
  -0.173318;0.983269;0.056061;,
  -0.228533;0.967106;0.111707;,
  0.296710;0.954968;0.000000;,
  0.385459;0.922725;0.000000;,
  0.091281;0.995825;0.000000;,
  -0.045357;0.997941;-0.045357;,
  -0.045781;0.989058;-0.140245;,
  -0.142289;0.960843;-0.237770;,
  -0.332651;0.914244;-0.231302;,
  -0.194781;0.976541;-0.091808;,
  0.052627;0.997227;0.052627;,
  0.217036;0.970359;0.106291;,
  0.164432;0.984946;0.053321;,
  -0.235589;0.971853;0.000000;,
  0.204127;0.974519;0.092977;,
  0.287283;0.915123;0.282875;,
  0.163712;0.948868;0.269904;,
  0.079007;0.993738;0.079007;,
  -0.045357;0.997941;-0.045357;,
  -0.328987;0.936341;-0.122608;,
  -0.045357;0.997941;-0.045357;,
  0.223113;0.974793;0.000000;,
  0.223113;0.974793;0.000000;,
  0.001354;0.999998;-0.001354;,
  0.059504;0.996902;0.051436;,
  0.097216;0.975280;0.198441;,
  0.235337;0.929378;0.284381;,
  0.259911;0.944089;0.202834;,
  0.064791;0.995793;0.064791;,
  -0.194781;0.976541;-0.091808;,
  -0.332651;0.914244;-0.231302;,
  -0.187300;0.964281;-0.187300;,
  0.120341;0.992705;0.007386;,
  0.217036;0.970359;0.106291;,
  0.052627;0.997227;0.052627;,
  -0.055243;0.996943;0.055243;,
  -0.228533;0.967106;0.111707;,
  -0.124181;0.992249;0.004561;,
  0.060195;0.984683;-0.163633;,
  -0.017488;0.979022;-0.203004;,
  -0.026060;0.987832;-0.153323;,
  0.148792;0.988144;-0.037854;,
  0.277354;0.947802;0.157306;,
  0.194372;0.961478;0.194372;,
  -0.052627;0.997227;-0.052627;,
  -0.191716;0.958939;-0.208999;,
  -0.282473;0.911284;-0.299616;,
  -0.143529;0.979183;-0.143529;,
  0.174819;0.982666;0.061688;,
  0.121719;0.987679;0.098358;,
  -0.043672;0.990079;0.133549;,
  0.043672;0.990079;0.133549;,
  0.086778;0.992441;0.086778;,
  -0.111521;0.993762;0.000000;,
  -0.178273;0.982303;-0.057444;,
  0.072720;0.978132;-0.194859;,
  0.195218;0.918692;-0.343358;,
  -0.034987;0.902034;-0.430245;,
  -0.153977;0.930507;-0.332338;,
  -0.023318;0.988528;-0.149224;,
  0.096323;0.994782;0.033634;,
  0.156091;0.963531;0.217355;,
  0.170306;0.957753;0.231744;,
  -0.024821;0.997904;-0.059761;,
  -0.173350;0.957894;-0.228888;,
  -0.228618;0.898955;-0.373649;,
  0.075860;0.922538;-0.378378;,
  -0.024346;0.984302;-0.174807;,
  -0.179191;0.979964;0.086950;,
  0.134658;0.981700;0.134658;,
  0.265500;0.960194;0.086821;,
  0.013983;0.991916;-0.126122;,
  0.002386;0.919358;-0.393415;,
  0.094667;0.872456;-0.479435;,
  0.217959;0.901859;-0.373021;,
  -0.010505;0.938973;-0.343830;,
  -0.222627;0.901098;-0.372102;,
  -0.183052;0.942423;-0.279878;,
  -0.081621;0.993316;-0.081621;,
  -0.005082;0.998392;0.056451;,
  0.124912;0.974351;0.187184;,
  0.207105;0.956146;0.207105;,
  0.045464;0.998914;-0.010163;,
  0.009835;0.996173;-0.086850;,
  -0.072670;0.967631;-0.241681;,
  -0.039575;0.957559;-0.285508;,
  -0.305942;0.942503;-0.134494;,
  -0.287451;0.957670;-0.015514;,
  0.180191;0.983632;0.000000;,
  0.354483;0.935062;0.000000;,
  0.101794;0.989584;-0.101794;,
  0.225651;0.959810;-0.166871;,
  0.173715;0.945547;-0.275253;,
  0.020940;0.954716;-0.296782;,
  0.082554;0.977505;-0.194084;,
  0.004440;0.994258;-0.106917;,
  -0.097494;0.975999;-0.194734;,
  -0.210199;0.928153;-0.307163;,
  -0.244863;0.938128;-0.244863;,
  -0.144710;0.986098;-0.081672;,
  -0.044748;0.995726;0.080795;,
  0.243142;0.949088;0.200288;,
  0.285921;0.947709;0.141761;,
  0.108031;0.994134;-0.005117;,
  0.056853;0.997611;-0.039244;,
  0.010236;0.999895;-0.010236;,
  -0.133549;0.990079;0.043672;,
  -0.404791;0.911048;0.078332;,
  -0.277999;0.959927;0.035443;,
  0.205685;0.978618;-0.000000;,
  0.292034;0.955768;0.034986;,
  0.219917;0.973226;0.066833;,
  0.030943;0.999042;0.030943;,
  -0.153703;0.988044;-0.011987;,
  -0.328944;0.942318;-0.061906;,
  -0.293408;0.954912;-0.045322;,
  -0.211452;0.972700;0.095614;,
  0.097253;0.948049;0.302895;,
  0.388148;0.846521;0.364340;,
  0.280763;0.937033;0.207704;,
  0.079537;0.995970;0.041446;,
  -0.180191;0.983632;0.000000;,
  -0.420598;0.907247;0.000000;,
  -0.209274;0.976810;-0.045236;,
  0.176848;0.980371;-0.087159;,
  0.265500;0.960194;-0.086821;,
  0.101794;0.989584;0.101794;,
  0.182423;0.966149;0.182423;,
  0.265926;0.941373;0.207605;,
  0.136416;0.987611;0.077556;,
  -0.030943;0.999042;0.030943;,
  -0.107837;0.980859;0.162132;,
  -0.202633;0.906648;0.370041;,
  -0.216139;0.891180;0.398851;,
  -0.236859;0.948783;0.209068;,
  -0.324539;0.938974;0.114029;,
  -0.147203;0.960163;0.237524;,
  0.344783;0.869140;0.354572;,
  0.457040;0.817199;0.351141;,
  0.233338;0.943984;0.233338;,
  0.060427;0.996342;0.060427;,
  -0.223597;0.973385;0.050258;,
  -0.400649;0.909873;0.107758;,
  -0.050523;0.998600;0.015655;,
  0.176848;0.980371;-0.087159;,
  0.086778;0.992441;-0.086778;,
  0.050763;0.997420;0.050763;,
  0.141968;0.965989;0.216124;,
  0.129354;0.924033;0.359766;,
  0.036968;0.929831;0.366126;,
  -0.099279;0.919526;0.380284;,
  -0.257020;0.871714;0.417198;,
  -0.217794;0.896746;0.385243;,
  -0.055152;0.951679;0.302100;,
  -0.053776;0.977821;0.202423;,
  -0.232661;0.972206;0.026167;,
  -0.232179;0.967361;-0.101520;,
  0.229387;0.973310;-0.006984;,
  0.437701;0.870562;0.224810;,
  0.338350;0.875719;0.344434;,
  0.237783;0.943226;0.231915;,
  -0.262699;0.957882;0.115984;,
  -0.373478;0.920913;0.111508;,
  0.124169;0.990453;0.059873;,
  0.180191;0.983632;0.000000;,
  -0.148543;0.981740;0.118838;,
  -0.062425;0.925568;0.373401;,
  0.087336;0.855524;0.510345;,
  -0.116279;0.860285;0.496376;,
  -0.204592;0.927678;0.312338;,
  -0.084725;0.992796;0.084725;,
  -0.054371;0.997039;-0.054371;,
  -0.163113;0.973031;-0.163113;,
  0.066251;0.984168;-0.164393;,
  0.230281;0.972983;0.016594;,
  0.305058;0.935181;0.179931;,
  0.311293;0.912246;0.266277;,
  -0.203982;0.947507;0.246216;,
  -0.264108;0.960884;0.083363;,
  -0.191239;0.979613;-0.061538;,
  -0.205572;0.975926;-0.072861;,
  -0.009814;0.994979;0.099600;,
  -0.051378;0.986076;0.158162;,
  -0.050763;0.997420;0.050763;,
  0.060427;0.996342;-0.060427;,
  0.006058;0.968961;-0.247138;,
  0.000000;0.929740;-0.368216;,
  0.055493;0.947500;-0.314904;,
  0.194643;0.961368;-0.194643;,
  0.108362;0.993527;0.034091;,
  -0.169409;0.969843;0.175229;,
  -0.080247;0.993539;0.080247;,
  -0.060427;0.996342;-0.060427;,
  -0.251620;0.960041;-0.122513;,
  -0.191239;0.979613;-0.061538;,
  0.060427;0.996342;-0.060427;,
  0.061538;0.979613;-0.191239;,
  0.000000;0.965359;-0.260927;,
  0.000000;0.965359;-0.260927;,
  0.122513;0.960041;-0.251620;,
  0.122513;0.960041;-0.251620;,
  0.000000;0.965359;-0.260927;,
  0.061538;0.979613;-0.191239;,
  -0.122140;0.990567;-0.062124;,
  -0.180191;0.983632;0.000000;,
  0.043306;0.998123;-0.043306;,
  0.176848;0.980371;-0.087159;,
  0.133549;0.990079;-0.043672;,
  -0.194643;0.961368;-0.194643;,
  0.122513;0.960041;-0.251620;,
  0.122513;0.960041;-0.251619;,
  0.061538;0.979613;-0.191239;,
  0.060427;0.996342;-0.060427;,
  -0.133549;0.990079;-0.043672;,
  -0.134658;0.981700;-0.134658;,
  0.087159;0.980371;-0.176848;,
  0.129919;0.982976;-0.129919;,
  0.043306;0.998123;-0.043306;,
  -0.121311;0.985174;-0.121311;,
  -0.121554;0.917897;-0.377743;,
  0.121553;0.917897;-0.377743;,
  0.121311;0.985174;-0.121311;,
  -0.086778;0.992441;-0.086778;,
  -0.086821;0.960194;-0.265500;,
  0.086821;0.960194;-0.265500;,
  0.086778;0.992441;-0.086778;,
  0.000000;0.000000;-1.000000;,
  0.814116;0.580703;0.000000;,
  0.000000;0.000000;1.000000;,
  -0.814116;-0.580703;0.000000;,
  -0.580702;0.814116;0.000000;,
  0.580702;-0.814116;-0.000000;,
  -0.945518;-0.000000;0.325568;,
  -0.265050;0.580703;-0.769762;,
  0.945519;-0.000000;-0.325568;,
  0.265050;-0.580703;0.769762;,
  0.189058;0.814116;0.549065;,
  -0.189058;-0.814116;-0.549065;,
  0.622514;0.248324;-0.742167;,
  0.637133;0.389884;0.664869;,
  -0.622514;-0.248325;0.742167;,
  -0.637133;-0.389884;-0.664870;,
  -0.454462;0.886750;-0.084493;,
  0.454462;-0.886750;0.084492;;
  418;
  4;0,0,0,0;,
  4;0,0,0,0;,
  4;0,0,0,0;,
  4;0,0,0,0;,
  4;0,0,0,0;,
  4;0,0,0,0;,
  4;0,0,0,0;,
  4;0,0,1,0;,
  4;0,0,2,1;,
  4;0,0,3,2;,
  4;0,0,3,3;,
  4;0,0,4,3;,
  4;0,0,4,4;,
  4;0,0,4,4;,
  4;0,0,4,4;,
  4;0,0,4,4;,
  4;0,0,5,4;,
  4;0,0,6,5;,
  4;0,0,0,6;,
  4;0,0,0,0;,
  4;0,0,0,0;,
  4;0,0,0,0;,
  4;0,0,7,0;,
  4;0,0,8,7;,
  4;0,0,9,8;,
  4;0,0,10,9;,
  4;0,0,11,10;,
  4;0,1,12,11;,
  4;1,2,13,12;,
  4;2,3,3,13;,
  4;3,3,3,3;,
  4;3,4,4,3;,
  4;4,4,4,4;,
  4;4,4,4,4;,
  4;4,4,4,4;,
  4;4,4,4,4;,
  4;4,5,14,4;,
  4;5,6,15,14;,
  4;6,0,0,15;,
  4;0,0,0,0;,
  4;0,0,0,0;,
  4;0,0,0,0;,
  4;0,7,16,0;,
  4;7,8,17,16;,
  4;8,9,9,17;,
  4;9,10,18,9;,
  4;10,11,19,18;,
  4;11,12,20,19;,
  4;12,13,21,20;,
  4;13,3,0,21;,
  4;3,3,0,0;,
  4;3,4,0,0;,
  4;4,4,0,0;,
  4;4,4,0,0;,
  4;4,4,0,0;,
  4;4,4,0,0;,
  4;4,14,22,0;,
  4;14,15,22,22;,
  4;15,0,0,22;,
  4;0,0,0,0;,
  4;0,0,0,0;,
  4;0,0,0,0;,
  4;0,16,23,0;,
  4;16,17,23,23;,
  4;17,9,24,23;,
  4;9,18,25,24;,
  4;18,19,26,25;,
  4;19,20,27,26;,
  4;20,21,28,27;,
  4;21,0,29,28;,
  4;0,0,30,29;,
  4;0,0,31,30;,
  4;0,0,32,31;,
  4;0,0,33,32;,
  4;0,0,34,33;,
  4;0,0,35,34;,
  4;0,22,36,35;,
  4;22,22,37,36;,
  4;22,0,0,37;,
  4;0,0,0,0;,
  4;0,0,0,0;,
  4;0,0,38,0;,
  4;0,23,39,38;,
  4;23,23,16,39;,
  4;23,24,40,16;,
  4;24,25,41,40;,
  4;25,26,42,41;,
  4;26,27,43,42;,
  4;27,28,44,43;,
  4;28,29,45,44;,
  4;29,30,46,45;,
  4;30,31,47,46;,
  4;31,32,48,47;,
  4;32,33,49,48;,
  4;33,34,50,49;,
  4;34,35,51,50;,
  4;35,36,52,51;,
  4;36,37,53,52;,
  4;37,0,0,53;,
  4;0,0,0,0;,
  4;0,0,0,0;,
  4;0,38,54,0;,
  4;38,39,55,54;,
  4;39,16,7,55;,
  4;16,40,56,7;,
  4;40,41,57,56;,
  4;41,42,58,57;,
  4;42,43,0,58;,
  4;43,44,59,0;,
  4;44,45,60,59;,
  4;45,46,61,60;,
  4;46,47,62,61;,
  4;47,48,63,62;,
  4;48,49,64,63;,
  4;49,50,65,64;,
  4;50,51,66,65;,
  4;51,52,0,66;,
  4;52,53,0,0;,
  4;53,0,0,0;,
  4;0,0,0,0;,
  4;0,0,0,0;,
  4;0,54,67,0;,
  4;54,55,67,67;,
  4;55,7,0,67;,
  4;7,56,68,0;,
  4;56,57,69,68;,
  4;57,58,70,69;,
  4;58,0,71,70;,
  4;0,59,0,71;,
  4;59,60,0,0;,
  4;60,61,72,0;,
  4;61,62,73,72;,
  4;62,63,73,73;,
  4;63,64,74,73;,
  4;64,65,75,74;,
  4;65,66,76,75;,
  4;66,0,0,76;,
  4;0,0,0,0;,
  4;0,0,0,0;,
  4;0,0,0,0;,
  4;0,0,0,0;,
  4;0,67,67,0;,
  4;67,67,67,67;,
  4;67,0,77,67;,
  4;0,68,78,77;,
  4;68,69,79,78;,
  4;69,70,80,79;,
  4;70,71,81,80;,
  4;71,0,82,81;,
  4;0,0,0,82;,
  4;0,72,0,0;,
  4;72,73,83,0;,
  4;73,73,84,83;,
  4;73,74,85,84;,
  4;74,75,86,85;,
  4;75,76,87,86;,
  4;76,0,88,87;,
  4;0,0,0,88;,
  4;0,0,0,0;,
  4;0,0,0,0;,
  4;0,0,89,0;,
  4;0,67,90,89;,
  4;67,67,91,90;,
  4;67,77,92,91;,
  4;77,78,93,92;,
  4;78,79,94,93;,
  4;79,80,95,94;,
  4;80,81,96,95;,
  4;81,82,97,96;,
  4;82,0,82,97;,
  4;0,0,0,82;,
  4;0,83,98,0;,
  4;83,84,99,98;,
  4;84,85,100,99;,
  4;85,86,101,100;,
  4;86,87,102,101;,
  4;87,88,103,102;,
  4;88,0,104,103;,
  4;0,0,105,104;,
  4;0,0,106,105;,
  4;0,89,107,0;,
  4;89,90,108,107;,
  4;90,91,109,108;,
  4;91,92,110,109;,
  4;92,93,111,110;,
  4;93,94,112,111;,
  4;94,95,113,112;,
  4;95,96,114,113;,
  4;96,97,115,114;,
  4;97,82,116,115;,
  4;82,0,71,116;,
  4;0,98,0,71;,
  4;98,99,117,0;,
  4;99,100,118,117;,
  4;100,101,119,118;,
  4;101,102,120,119;,
  4;102,103,121,120;,
  4;103,104,122,121;,
  4;104,105,123,122;,
  4;105,106,124,123;,
  4;0,107,125,0;,
  4;107,108,126,125;,
  4;108,109,127,126;,
  4;109,110,128,127;,
  4;110,111,129,128;,
  4;111,112,130,129;,
  4;112,113,131,130;,
  4;113,114,132,131;,
  4;114,115,133,132;,
  4;115,116,134,133;,
  4;116,71,135,134;,
  4;71,0,71,135;,
  4;0,117,136,71;,
  4;117,118,137,136;,
  4;118,119,138,137;,
  4;119,120,139,138;,
  4;120,121,140,139;,
  4;121,122,141,140;,
  4;122,123,142,141;,
  4;123,124,143,142;,
  4;0,125,145,144;,
  4;125,126,146,145;,
  4;126,127,147,146;,
  4;127,128,148,147;,
  4;128,129,149,148;,
  4;129,130,150,149;,
  4;130,131,151,150;,
  4;131,132,152,151;,
  4;132,133,153,152;,
  4;133,134,154,153;,
  4;134,135,155,154;,
  4;135,71,156,155;,
  4;71,136,157,156;,
  4;136,137,158,157;,
  4;137,138,159,158;,
  4;138,139,160,159;,
  4;139,140,161,160;,
  4;140,141,162,161;,
  4;141,142,142,162;,
  4;142,143,143,142;,
  4;144,145,164,163;,
  4;145,146,165,164;,
  4;146,147,166,165;,
  4;147,148,0,166;,
  4;148,149,0,0;,
  4;149,150,0,0;,
  4;150,151,167,0;,
  4;151,152,168,167;,
  4;152,153,169,168;,
  4;153,154,170,169;,
  4;154,155,171,170;,
  4;155,156,172,171;,
  4;156,157,173,172;,
  4;157,158,174,173;,
  4;158,159,0,174;,
  4;159,160,175,0;,
  4;160,161,176,175;,
  4;161,162,177,176;,
  4;162,142,178,177;,
  4;142,143,179,178;,
  4;163,164,181,180;,
  4;164,165,182,181;,
  4;165,166,183,182;,
  4;166,0,0,183;,
  4;0,0,184,0;,
  4;0,0,185,184;,
  4;0,167,186,185;,
  4;167,168,187,186;,
  4;168,169,188,187;,
  4;169,170,189,188;,
  4;170,171,190,189;,
  4;171,172,191,190;,
  4;172,173,192,191;,
  4;173,174,193,192;,
  4;174,0,194,193;,
  4;0,175,195,194;,
  4;175,176,196,195;,
  4;176,177,197,196;,
  4;177,178,198,197;,
  4;178,179,199,198;,
  4;180,181,200,0;,
  4;181,182,201,200;,
  4;182,183,202,201;,
  4;183,0,203,202;,
  4;0,184,204,203;,
  4;184,185,205,204;,
  4;185,186,206,205;,
  4;186,187,207,206;,
  4;187,188,208,207;,
  4;188,189,209,208;,
  4;189,190,210,209;,
  4;190,191,211,210;,
  4;191,192,212,211;,
  4;192,193,213,212;,
  4;193,194,214,213;,
  4;194,195,215,214;,
  4;195,196,216,215;,
  4;196,197,217,216;,
  4;197,198,218,217;,
  4;198,199,0,218;,
  4;0,200,0,0;,
  4;200,201,219,0;,
  4;201,202,220,219;,
  4;202,203,221,220;,
  4;203,204,222,221;,
  4;204,205,223,222;,
  4;205,206,224,223;,
  4;206,207,0,224;,
  4;207,208,0,0;,
  4;208,209,225,0;,
  4;209,210,226,225;,
  4;210,211,227,226;,
  4;211,212,228,227;,
  4;212,213,229,228;,
  4;213,214,230,229;,
  4;214,215,231,230;,
  4;215,216,232,231;,
  4;216,217,218,232;,
  4;217,218,218,218;,
  4;218,0,0,218;,
  4;0,0,0,0;,
  4;0,219,233,0;,
  4;219,220,234,233;,
  4;220,221,235,234;,
  4;221,222,236,235;,
  4;222,223,237,236;,
  4;223,224,0,237;,
  4;224,0,0,0;,
  4;0,0,0,0;,
  4;0,225,238,0;,
  4;225,226,239,238;,
  4;226,227,240,239;,
  4;227,228,241,240;,
  4;228,229,242,241;,
  4;229,230,243,242;,
  4;230,231,244,243;,
  4;231,232,245,244;,
  4;232,218,218,245;,
  4;218,218,218,218;,
  4;218,0,0,218;,
  4;0,0,0,0;,
  4;0,233,246,0;,
  4;233,234,247,246;,
  4;234,235,248,247;,
  4;235,236,249,248;,
  4;236,237,250,249;,
  4;237,0,251,250;,
  4;0,0,251,251;,
  4;0,0,252,251;,
  4;0,238,253,252;,
  4;238,239,254,253;,
  4;239,240,255,254;,
  4;240,241,255,255;,
  4;241,242,256,255;,
  4;242,243,257,256;,
  4;243,244,258,257;,
  4;244,245,259,258;,
  4;245,218,260,259;,
  4;218,218,261,260;,
  4;218,0,0,261;,
  4;0,0,0,0;,
  4;0,246,0,0;,
  4;246,247,248,0;,
  4;247,248,262,248;,
  4;248,249,263,262;,
  4;249,250,264,263;,
  4;250,251,251,264;,
  4;251,251,251,251;,
  4;251,252,252,251;,
  4;252,253,265,252;,
  4;253,254,266,265;,
  4;254,255,0,266;,
  4;255,255,0,0;,
  4;255,256,0,0;,
  4;256,257,267,0;,
  4;257,258,268,267;,
  4;258,259,269,268;,
  4;259,260,270,269;,
  4;260,261,271,270;,
  4;261,0,0,271;,
  4;0,0,0,0;,
  4;0,0,0,0;,
  4;0,248,272,0;,
  4;248,262,273,272;,
  4;262,263,274,273;,
  4;263,264,275,274;,
  4;264,251,0,275;,
  4;251,251,0,0;,
  4;251,252,0,0;,
  4;252,265,0,0;,
  4;265,266,0,0;,
  4;266,0,0,0;,
  4;0,0,0,0;,
  4;0,0,0,0;,
  4;0,267,276,0;,
  4;267,268,277,276;,
  4;268,269,278,277;,
  4;269,270,279,278;,
  4;270,271,0,279;,
  4;271,0,0,0;,
  4;280,280,280,280;,
  4;281,281,281,281;,
  4;282,282,282,282;,
  4;283,283,283,283;,
  4;284,284,284,284;,
  4;285,285,285,285;,
  4;286,286,286,286;,
  4;287,287,287,287;,
  4;288,288,288,288;,
  4;289,289,289,289;,
  4;290,290,290,290;,
  4;291,291,291,291;,
  4;292,292,292,292;,
  4;293,293,293,293;,
  4;294,294,294,294;,
  4;295,295,295,295;,
  4;296,296,296,296;,
  4;297,297,297,297;;
 }
 MeshTextureCoords {
  501;
  0.000000;0.000000;,
  0.050000;0.000000;,
  0.050000;0.050000;,
  0.000000;0.050000;,
  0.100000;0.000000;,
  0.100000;0.050000;,
  0.150000;0.000000;,
  0.150000;0.050000;,
  0.200000;0.000000;,
  0.200000;0.050000;,
  0.250000;0.000000;,
  0.250000;0.050000;,
  0.300000;0.000000;,
  0.300000;0.050000;,
  0.350000;0.000000;,
  0.350000;0.050000;,
  0.400000;0.000000;,
  0.400000;0.050000;,
  0.450000;0.000000;,
  0.450000;0.050000;,
  0.500000;0.000000;,
  0.500000;0.050000;,
  0.550000;0.000000;,
  0.550000;0.050000;,
  0.600000;0.000000;,
  0.600000;0.050000;,
  0.650000;0.000000;,
  0.650000;0.050000;,
  0.700000;0.000000;,
  0.700000;0.050000;,
  0.750000;0.000000;,
  0.750000;0.050000;,
  0.800000;0.000000;,
  0.800000;0.050000;,
  0.850000;0.000000;,
  0.850000;0.050000;,
  0.900000;0.000000;,
  0.900000;0.050000;,
  0.950000;0.000000;,
  0.950000;0.050000;,
  1.000000;0.000000;,
  1.000000;0.050000;,
  0.050000;0.100000;,
  0.000000;0.100000;,
  0.100000;0.100000;,
  0.150000;0.100000;,
  0.200000;0.100000;,
  0.250000;0.100000;,
  0.300000;0.100000;,
  0.350000;0.100000;,
  0.400000;0.100000;,
  0.450000;0.100000;,
  0.500000;0.100000;,
  0.550000;0.100000;,
  0.600000;0.100000;,
  0.650000;0.100000;,
  0.700000;0.100000;,
  0.750000;0.100000;,
  0.800000;0.100000;,
  0.850000;0.100000;,
  0.900000;0.100000;,
  0.950000;0.100000;,
  1.000000;0.100000;,
  0.050000;0.150000;,
  0.000000;0.150000;,
  0.100000;0.150000;,
  0.150000;0.150000;,
  0.200000;0.150000;,
  0.250000;0.150000;,
  0.300000;0.150000;,
  0.350000;0.150000;,
  0.400000;0.150000;,
  0.450000;0.150000;,
  0.500000;0.150000;,
  0.550000;0.150000;,
  0.600000;0.150000;,
  0.650000;0.150000;,
  0.700000;0.150000;,
  0.750000;0.150000;,
  0.800000;0.150000;,
  0.850000;0.150000;,
  0.900000;0.150000;,
  0.950000;0.150000;,
  1.000000;0.150000;,
  0.050000;0.200000;,
  0.000000;0.200000;,
  0.100000;0.200000;,
  0.150000;0.200000;,
  0.200000;0.200000;,
  0.250000;0.200000;,
  0.300000;0.200000;,
  0.350000;0.200000;,
  0.400000;0.200000;,
  0.450000;0.200000;,
  0.500000;0.200000;,
  0.550000;0.200000;,
  0.600000;0.200000;,
  0.650000;0.200000;,
  0.700000;0.200000;,
  0.750000;0.200000;,
  0.800000;0.200000;,
  0.850000;0.200000;,
  0.900000;0.200000;,
  0.950000;0.200000;,
  1.000000;0.200000;,
  0.050000;0.250000;,
  0.000000;0.250000;,
  0.100000;0.250000;,
  0.150000;0.250000;,
  0.200000;0.250000;,
  0.250000;0.250000;,
  0.300000;0.250000;,
  0.350000;0.250000;,
  0.400000;0.250000;,
  0.450000;0.250000;,
  0.500000;0.250000;,
  0.550000;0.250000;,
  0.600000;0.250000;,
  0.650000;0.250000;,
  0.700000;0.250000;,
  0.750000;0.250000;,
  0.800000;0.250000;,
  0.850000;0.250000;,
  0.900000;0.250000;,
  0.950000;0.250000;,
  1.000000;0.250000;,
  0.050000;0.300000;,
  0.000000;0.300000;,
  0.100000;0.300000;,
  0.150000;0.300000;,
  0.200000;0.300000;,
  0.250000;0.300000;,
  0.300000;0.300000;,
  0.350000;0.300000;,
  0.400000;0.300000;,
  0.450000;0.300000;,
  0.500000;0.300000;,
  0.550000;0.300000;,
  0.600000;0.300000;,
  0.650000;0.300000;,
  0.700000;0.300000;,
  0.750000;0.300000;,
  0.800000;0.300000;,
  0.850000;0.300000;,
  0.900000;0.300000;,
  0.950000;0.300000;,
  1.000000;0.300000;,
  0.050000;0.350000;,
  0.000000;0.350000;,
  0.100000;0.350000;,
  0.150000;0.350000;,
  0.200000;0.350000;,
  0.250000;0.350000;,
  0.300000;0.350000;,
  0.350000;0.350000;,
  0.400000;0.350000;,
  0.450000;0.350000;,
  0.500000;0.350000;,
  0.550000;0.350000;,
  0.600000;0.350000;,
  0.650000;0.350000;,
  0.700000;0.350000;,
  0.750000;0.350000;,
  0.800000;0.350000;,
  0.850000;0.350000;,
  0.900000;0.350000;,
  0.950000;0.350000;,
  1.000000;0.350000;,
  0.050000;0.400000;,
  0.000000;0.400000;,
  0.100000;0.400000;,
  0.150000;0.400000;,
  0.200000;0.400000;,
  0.250000;0.400000;,
  0.300000;0.400000;,
  0.350000;0.400000;,
  0.400000;0.400000;,
  0.450000;0.400000;,
  0.500000;0.400000;,
  0.550000;0.400000;,
  0.600000;0.400000;,
  0.650000;0.400000;,
  0.700000;0.400000;,
  0.750000;0.400000;,
  0.800000;0.400000;,
  0.850000;0.400000;,
  0.900000;0.400000;,
  0.950000;0.400000;,
  1.000000;0.400000;,
  0.050000;0.450000;,
  0.000000;0.450000;,
  0.100000;0.450000;,
  0.150000;0.450000;,
  0.200000;0.450000;,
  0.250000;0.450000;,
  0.300000;0.450000;,
  0.350000;0.450000;,
  0.400000;0.450000;,
  0.450000;0.450000;,
  0.500000;0.450000;,
  0.550000;0.450000;,
  0.600000;0.450000;,
  0.650000;0.450000;,
  0.700000;0.450000;,
  0.750000;0.450000;,
  0.800000;0.450000;,
  0.850000;0.450000;,
  0.900000;0.450000;,
  0.950000;0.450000;,
  1.000000;0.450000;,
  0.050000;0.500000;,
  0.000000;0.500000;,
  0.100000;0.500000;,
  0.150000;0.500000;,
  0.200000;0.500000;,
  0.250000;0.500000;,
  0.300000;0.500000;,
  0.350000;0.500000;,
  0.400000;0.500000;,
  0.450000;0.500000;,
  0.500000;0.500000;,
  0.550000;0.500000;,
  0.600000;0.500000;,
  0.650000;0.500000;,
  0.700000;0.500000;,
  0.750000;0.500000;,
  0.800000;0.500000;,
  0.850000;0.500000;,
  0.900000;0.500000;,
  0.950000;0.500000;,
  1.000000;0.500000;,
  0.050000;0.550000;,
  0.000000;0.550000;,
  0.100000;0.550000;,
  0.150000;0.550000;,
  0.200000;0.550000;,
  0.250000;0.550000;,
  0.300000;0.550000;,
  0.350000;0.550000;,
  0.400000;0.550000;,
  0.450000;0.550000;,
  0.500000;0.550000;,
  0.550000;0.550000;,
  0.600000;0.550000;,
  0.650000;0.550000;,
  0.700000;0.550000;,
  0.750000;0.550000;,
  0.800000;0.550000;,
  0.850000;0.550000;,
  0.900000;0.550000;,
  0.950000;0.550000;,
  1.000000;0.550000;,
  0.050000;0.600000;,
  0.000000;0.600000;,
  0.100000;0.600000;,
  0.150000;0.600000;,
  0.200000;0.600000;,
  0.250000;0.600000;,
  0.300000;0.600000;,
  0.350000;0.600000;,
  0.400000;0.600000;,
  0.450000;0.600000;,
  0.500000;0.600000;,
  0.550000;0.600000;,
  0.600000;0.600000;,
  0.650000;0.600000;,
  0.700000;0.600000;,
  0.750000;0.600000;,
  0.800000;0.600000;,
  0.850000;0.600000;,
  0.900000;0.600000;,
  0.950000;0.600000;,
  1.000000;0.600000;,
  0.050000;0.650000;,
  0.000000;0.650000;,
  0.100000;0.650000;,
  0.150000;0.650000;,
  0.200000;0.650000;,
  0.250000;0.650000;,
  0.300000;0.650000;,
  0.350000;0.650000;,
  0.400000;0.650000;,
  0.450000;0.650000;,
  0.500000;0.650000;,
  0.550000;0.650000;,
  0.600000;0.650000;,
  0.650000;0.650000;,
  0.700000;0.650000;,
  0.750000;0.650000;,
  0.800000;0.650000;,
  0.850000;0.650000;,
  0.900000;0.650000;,
  0.950000;0.650000;,
  1.000000;0.650000;,
  0.050000;0.700000;,
  0.000000;0.700000;,
  0.100000;0.700000;,
  0.150000;0.700000;,
  0.200000;0.700000;,
  0.250000;0.700000;,
  0.300000;0.700000;,
  0.350000;0.700000;,
  0.400000;0.700000;,
  0.450000;0.700000;,
  0.500000;0.700000;,
  0.550000;0.700000;,
  0.600000;0.700000;,
  0.650000;0.700000;,
  0.700000;0.700000;,
  0.750000;0.700000;,
  0.800000;0.700000;,
  0.850000;0.700000;,
  0.900000;0.700000;,
  0.950000;0.700000;,
  1.000000;0.700000;,
  0.050000;0.750000;,
  0.000000;0.750000;,
  0.100000;0.750000;,
  0.150000;0.750000;,
  0.200000;0.750000;,
  0.250000;0.750000;,
  0.300000;0.750000;,
  0.350000;0.750000;,
  0.400000;0.750000;,
  0.450000;0.750000;,
  0.500000;0.750000;,
  0.550000;0.750000;,
  0.600000;0.750000;,
  0.650000;0.750000;,
  0.700000;0.750000;,
  0.750000;0.750000;,
  0.800000;0.750000;,
  0.850000;0.750000;,
  0.900000;0.750000;,
  0.950000;0.750000;,
  1.000000;0.750000;,
  0.050000;0.800000;,
  0.000000;0.800000;,
  0.100000;0.800000;,
  0.150000;0.800000;,
  0.200000;0.800000;,
  0.250000;0.800000;,
  0.300000;0.800000;,
  0.350000;0.800000;,
  0.400000;0.800000;,
  0.450000;0.800000;,
  0.500000;0.800000;,
  0.550000;0.800000;,
  0.600000;0.800000;,
  0.650000;0.800000;,
  0.700000;0.800000;,
  0.750000;0.800000;,
  0.800000;0.800000;,
  0.850000;0.800000;,
  0.900000;0.800000;,
  0.950000;0.800000;,
  1.000000;0.800000;,
  0.050000;0.850000;,
  0.000000;0.850000;,
  0.100000;0.850000;,
  0.150000;0.850000;,
  0.200000;0.850000;,
  0.250000;0.850000;,
  0.300000;0.850000;,
  0.350000;0.850000;,
  0.400000;0.850000;,
  0.450000;0.850000;,
  0.500000;0.850000;,
  0.550000;0.850000;,
  0.600000;0.850000;,
  0.650000;0.850000;,
  0.700000;0.850000;,
  0.750000;0.850000;,
  0.800000;0.850000;,
  0.850000;0.850000;,
  0.900000;0.850000;,
  0.950000;0.850000;,
  1.000000;0.850000;,
  0.050000;0.900000;,
  0.000000;0.900000;,
  0.100000;0.900000;,
  0.150000;0.900000;,
  0.200000;0.900000;,
  0.250000;0.900000;,
  0.300000;0.900000;,
  0.350000;0.900000;,
  0.400000;0.900000;,
  0.450000;0.900000;,
  0.500000;0.900000;,
  0.550000;0.900000;,
  0.600000;0.900000;,
  0.650000;0.900000;,
  0.700000;0.900000;,
  0.750000;0.900000;,
  0.800000;0.900000;,
  0.850000;0.900000;,
  0.900000;0.900000;,
  0.950000;0.900000;,
  1.000000;0.900000;,
  0.050000;0.950000;,
  0.000000;0.950000;,
  0.100000;0.950000;,
  0.150000;0.950000;,
  0.200000;0.950000;,
  0.250000;0.950000;,
  0.300000;0.950000;,
  0.350000;0.950000;,
  0.400000;0.950000;,
  0.450000;0.950000;,
  0.500000;0.950000;,
  0.550000;0.950000;,
  0.600000;0.950000;,
  0.650000;0.950000;,
  0.700000;0.950000;,
  0.750000;0.950000;,
  0.800000;0.950000;,
  0.850000;0.950000;,
  0.900000;0.950000;,
  0.950000;0.950000;,
  1.000000;0.950000;,
  0.050000;1.000000;,
  0.000000;1.000000;,
  0.100000;1.000000;,
  0.150000;1.000000;,
  0.200000;1.000000;,
  0.250000;1.000000;,
  0.300000;1.000000;,
  0.350000;1.000000;,
  0.400000;1.000000;,
  0.450000;1.000000;,
  0.500000;1.000000;,
  0.550000;1.000000;,
  0.600000;1.000000;,
  0.650000;1.000000;,
  0.700000;1.000000;,
  0.750000;1.000000;,
  0.800000;1.000000;,
  0.850000;1.000000;,
  0.900000;1.000000;,
  0.950000;1.000000;,
  1.000000;1.000000;,
  0.000000;0.000000;,
  1.000000;0.000000;,
  1.000000;1.000000;,
  0.000000;1.000000;,
  0.000000;0.000000;,
  1.000000;0.000000;,
  1.000000;1.000000;,
  0.000000;1.000000;,
  0.000000;0.000000;,
  1.000000;0.000000;,
  1.000000;1.000000;,
  0.000000;1.000000;,
  0.000000;0.000000;,
  1.000000;0.000000;,
  1.000000;1.000000;,
  0.000000;1.000000;,
  1.000000;1.000000;,
  0.000000;1.000000;,
  0.000000;0.000000;,
  1.000000;0.000000;,
  0.000000;0.000000;,
  1.000000;0.000000;,
  1.000000;1.000000;,
  0.000000;1.000000;,
  0.000000;0.000000;,
  1.000000;0.000000;,
  1.000000;1.000000;,
  0.000000;1.000000;,
  0.000000;0.000000;,
  1.000000;0.000000;,
  1.000000;1.000000;,
  0.000000;1.000000;,
  0.000000;0.000000;,
  1.000000;0.000000;,
  1.000000;1.000000;,
  0.000000;1.000000;,
  1.000000;1.000000;,
  0.000000;1.000000;,
  0.000000;0.000000;,
  1.000000;0.000000;,
  0.000000;0.000000;,
  1.000000;0.000000;,
  1.000000;1.000000;,
  0.000000;1.000000;,
  0.000000;0.000000;,
  1.000000;0.000000;,
  1.000000;1.000000;,
  0.000000;1.000000;,
  0.000000;0.000000;,
  1.000000;0.000000;,
  1.000000;1.000000;,
  0.000000;1.000000;,
  0.000000;0.000000;,
  1.000000;0.000000;,
  1.000000;1.000000;,
  0.000000;1.000000;,
  1.000000;1.000000;,
  0.000000;1.000000;,
  0.000000;0.000000;,
  1.000000;0.000000;;
 }
}
