xof 0302txt 0064
template Header {
 <3D82AB43-62DA-11cf-AB39-0020AF71E433>
 WORD major;
 WORD minor;
 DWORD flags;
}

template Vector {
 <3D82AB5E-62DA-11cf-AB39-0020AF71E433>
 FLOAT x;
 FLOAT y;
 FLOAT z;
}

template Coords2d {
 <F6F23F44-7686-11cf-8F52-0040333594A3>
 FLOAT u;
 FLOAT v;
}

template Matrix4x4 {
 <F6F23F45-7686-11cf-8F52-0040333594A3>
 array FLOAT matrix[16];
}

template ColorRGBA {
 <35FF44E0-6C7C-11cf-8F52-0040333594A3>
 FLOAT red;
 FLOAT green;
 FLOAT blue;
 FLOAT alpha;
}

template ColorRGB {
 <D3E16E81-7835-11cf-8F52-0040333594A3>
 FLOAT red;
 FLOAT green;
 FLOAT blue;
}

template IndexedColor {
 <1630B820-7842-11cf-8F52-0040333594A3>
 DWORD index;
 ColorRGBA indexColor;
}

template Boolean {
 <4885AE61-78E8-11cf-8F52-0040333594A3>
 WORD truefalse;
}

template Boolean2d {
 <4885AE63-78E8-11cf-8F52-0040333594A3>
 Boolean u;
 Boolean v;
}

template MaterialWrap {
 <4885AE60-78E8-11cf-8F52-0040333594A3>
 Boolean u;
 Boolean v;
}

template TextureFilename {
 <A42790E1-7810-11cf-8F52-0040333594A3>
 STRING filename;
}

template Material {
 <3D82AB4D-62DA-11cf-AB39-0020AF71E433>
 ColorRGBA faceColor;
 FLOAT power;
 ColorRGB specularColor;
 ColorRGB emissiveColor;
 [...]
}

template MeshFace {
 <3D82AB5F-62DA-11cf-AB39-0020AF71E433>
 DWORD nFaceVertexIndices;
 array DWORD faceVertexIndices[nFaceVertexIndices];
}

template MeshFaceWraps {
 <4885AE62-78E8-11cf-8F52-0040333594A3>
 DWORD nFaceWrapValues;
 Boolean2d faceWrapValues;
}

template MeshTextureCoords {
 <F6F23F40-7686-11cf-8F52-0040333594A3>
 DWORD nTextureCoords;
 array Coords2d textureCoords[nTextureCoords];
}

template MeshMaterialList {
 <F6F23F42-7686-11cf-8F52-0040333594A3>
 DWORD nMaterials;
 DWORD nFaceIndexes;
 array DWORD faceIndexes[nFaceIndexes];
 [Material]
}

template MeshNormals {
 <F6F23F43-7686-11cf-8F52-0040333594A3>
 DWORD nNormals;
 array Vector normals[nNormals];
 DWORD nFaceNormals;
 array MeshFace faceNormals[nFaceNormals];
}

template MeshVertexColors {
 <1630B821-7842-11cf-8F52-0040333594A3>
 DWORD nVertexColors;
 array IndexedColor vertexColors[nVertexColors];
}

template Mesh {
 <3D82AB44-62DA-11cf-AB39-0020AF71E433>
 DWORD nVertices;
 array Vector vertices[nVertices];
 DWORD nFaces;
 array MeshFace faces[nFaces];
 [...]
}

Header{
1;
0;
1;
}

Mesh {
 361;
 -50.06500;0.00000;50.06500;,
 -44.50222;0.00000;50.06500;,
 -44.50222;0.00000;44.50222;,
 -50.06500;0.00000;44.50222;,
 -38.93944;0.00000;50.06500;,
 -38.93944;0.00000;44.50222;,
 -33.37667;0.00000;50.06500;,
 -33.37667;0.00000;44.50222;,
 -27.81389;0.00000;50.06500;,
 -27.81389;0.00000;44.50222;,
 -22.25111;0.00000;50.06500;,
 -22.25111;0.00000;44.50222;,
 -16.68833;0.00000;50.06500;,
 -16.68833;0.00000;44.50222;,
 -11.12556;0.00000;50.06500;,
 -11.12556;0.00000;44.50222;,
 -5.56278;0.00000;50.06500;,
 -5.56278;0.00000;44.50222;,
 0.00000;0.00000;50.06500;,
 0.00000;0.00000;44.50222;,
 5.56278;0.00000;50.06500;,
 5.56278;0.00000;44.50222;,
 11.12556;0.00000;50.06500;,
 11.12556;0.00000;44.50222;,
 16.68833;0.00000;50.06500;,
 16.68833;0.00000;44.50222;,
 22.25111;0.00000;50.06500;,
 22.25111;0.00000;44.50222;,
 27.81389;0.00000;50.06500;,
 27.81389;6.31418;44.50222;,
 33.37667;0.00000;50.06500;,
 33.37667;6.31418;44.50222;,
 38.93944;0.00000;50.06500;,
 38.93944;0.00000;44.50222;,
 44.50222;0.00000;50.06500;,
 44.50222;0.00000;44.50222;,
 50.06500;0.00000;50.06500;,
 50.06500;0.00000;44.50222;,
 -44.50222;0.00000;38.93944;,
 -50.06500;0.00000;38.93944;,
 -38.93944;0.00000;38.93944;,
 -33.37667;4.77733;38.93944;,
 -27.81389;4.77733;38.93944;,
 -22.25111;4.77733;38.93944;,
 -16.68833;4.77733;38.93944;,
 -11.12556;4.77733;38.93944;,
 -5.56278;4.77733;38.93944;,
 0.00000;4.77733;38.93944;,
 5.56278;-4.63311;38.93944;,
 11.12556;-4.63311;38.93944;,
 16.68833;1.68107;38.93944;,
 22.25111;1.68107;38.93944;,
 27.81389;1.68107;38.93944;,
 33.37667;6.31418;38.93944;,
 38.93944;0.00000;38.93944;,
 44.50222;0.00000;38.93944;,
 50.06500;0.00000;38.93944;,
 -44.50222;0.00000;33.37667;,
 -50.06500;0.00000;33.37667;,
 -38.93944;4.77733;33.37667;,
 -33.37667;4.77733;33.37667;,
 -27.81389;8.18713;33.37667;,
 -22.25111;8.18713;33.37667;,
 -16.68833;8.18713;33.37667;,
 -11.12556;4.77733;33.37667;,
 -5.56278;0.14422;33.37667;,
 0.00000;-4.63311;33.37667;,
 5.56278;-4.63311;33.37667;,
 11.12556;1.68107;33.37667;,
 16.68833;6.44104;33.37667;,
 22.25111;6.44104;33.37667;,
 27.81389;6.44104;33.37667;,
 33.37667;2.63150;33.37667;,
 38.93944;2.63150;33.37667;,
 44.50222;0.00000;33.37667;,
 50.06500;0.00000;33.37667;,
 -44.50222;0.00000;27.81389;,
 -50.06500;0.00000;27.81389;,
 -38.93944;4.77733;27.81389;,
 -33.37667;4.77733;27.81389;,
 -27.81389;8.18713;27.81389;,
 -22.25111;8.18713;27.81389;,
 -16.68833;8.18713;27.81389;,
 -11.12556;4.77733;27.81389;,
 -5.56278;0.14422;27.81389;,
 0.00000;-0.99915;27.81389;,
 5.56278;-4.63311;27.81389;,
 11.12556;1.68107;27.81389;,
 16.68833;6.44104;27.81389;,
 22.25111;7.39148;27.81389;,
 27.81389;7.39148;27.81389;,
 33.37667;2.63150;27.81389;,
 38.93944;2.63150;27.81389;,
 44.50222;6.31418;27.81389;,
 50.06500;0.00000;27.81389;,
 -44.50222;0.00000;22.25111;,
 -50.06500;0.00000;22.25111;,
 -38.93944;4.77733;22.25111;,
 -33.37667;4.77733;22.25111;,
 -27.81389;15.14653;22.25111;,
 -22.25111;15.14653;22.25111;,
 -16.68833;15.14653;22.25111;,
 -11.12556;11.73673;22.25111;,
 -5.56278;8.41129;22.25111;,
 0.00000;3.63396;22.25111;,
 5.56278;3.63396;22.25111;,
 11.12556;3.63396;22.25111;,
 16.68833;9.61284;22.25111;,
 22.25111;11.02544;22.25111;,
 27.81389;7.39148;22.25111;,
 33.37667;2.63150;22.25111;,
 38.93944;2.63150;22.25111;,
 44.50222;6.31418;22.25111;,
 50.06500;0.00000;22.25111;,
 -44.50222;0.00000;16.68833;,
 -50.06500;0.00000;16.68833;,
 -38.93944;0.00000;16.68833;,
 -33.37667;0.00000;16.68833;,
 -27.81389;10.36919;16.68833;,
 -22.25111;18.38582;16.68833;,
 -16.68833;18.38582;16.68833;,
 -11.12556;11.73673;16.68833;,
 -5.56278;4.77733;16.68833;,
 0.00000;0.00000;16.68833;,
 5.56278;3.63396;16.68833;,
 11.12556;3.63396;16.68833;,
 16.68833;9.61284;16.68833;,
 22.25111;11.02544;16.68833;,
 27.81389;7.39148;16.68833;,
 33.37667;2.63150;16.68833;,
 38.93944;2.63150;16.68833;,
 44.50222;6.31418;16.68833;,
 50.06500;0.00000;16.68833;,
 -44.50222;0.00000;11.12556;,
 -50.06500;0.00000;11.12556;,
 -38.93944;4.49668;11.12556;,
 -33.37667;4.49668;11.12556;,
 -27.81389;6.95940;11.12556;,
 -22.25111;10.19869;11.12556;,
 -16.68833;10.19869;11.12556;,
 -11.12556;6.95940;11.12556;,
 -5.56278;0.00000;11.12556;,
 0.00000;0.00000;11.12556;,
 5.56278;0.00000;11.12556;,
 11.12556;0.00000;11.12556;,
 16.68833;4.75998;11.12556;,
 22.25111;11.02544;11.12556;,
 27.81389;7.39148;11.12556;,
 33.37667;2.63150;11.12556;,
 38.93944;2.63150;11.12556;,
 44.50222;0.00000;11.12556;,
 50.06500;0.00000;11.12556;,
 -44.50222;4.49668;5.56278;,
 -50.06500;0.00000;5.56278;,
 -38.93944;4.49668;5.56278;,
 -33.37667;4.49668;5.56278;,
 -27.81389;11.45607;5.56278;,
 -22.25111;14.69537;5.56278;,
 -16.68833;10.19869;5.56278;,
 -11.12556;12.79529;5.56278;,
 -5.56278;5.83590;5.56278;,
 0.00000;5.83590;5.56278;,
 5.56278;5.83590;5.56278;,
 11.12556;5.83590;5.56278;,
 16.68833;4.75998;5.56278;,
 22.25111;7.39148;5.56278;,
 27.81389;7.39148;5.56278;,
 33.37667;-3.68268;5.56278;,
 38.93944;-3.68268;5.56278;,
 44.50222;0.00000;5.56278;,
 50.06500;0.00000;5.56278;,
 -44.50222;4.49668;0.00000;,
 -50.06500;0.00000;0.00000;,
 -38.93944;4.49668;0.00000;,
 -33.37667;4.49668;0.00000;,
 -27.81389;12.76364;0.00000;,
 -22.25111;16.00293;0.00000;,
 -16.68833;11.50625;0.00000;,
 -11.12556;14.10286;0.00000;,
 -5.56278;5.83590;0.00000;,
 0.00000;5.83590;0.00000;,
 5.56278;8.29940;0.00000;,
 11.12556;8.29940;0.00000;,
 16.68833;7.22348;0.00000;,
 22.25111;3.54080;0.00000;,
 27.81389;3.54080;0.00000;,
 33.37667;-3.68268;-0.00000;,
 38.93944;-3.68268;-0.00000;,
 44.50222;0.00000;0.00000;,
 50.06500;0.00000;0.00000;,
 -44.50222;4.49668;-5.56278;,
 -50.06500;0.00000;-5.56278;,
 -38.93944;4.49668;-5.56278;,
 -33.37667;-0.76482;-5.56278;,
 -27.81389;7.50215;-5.56278;,
 -22.25111;16.00293;-5.56278;,
 -16.68833;11.50625;-5.56278;,
 -11.12556;8.26696;-5.56278;,
 -5.56278;0.00000;-5.56278;,
 0.00000;0.00000;-5.56278;,
 5.56278;5.36801;-5.56278;,
 11.12556;5.36801;-5.56278;,
 16.68833;2.46350;-5.56278;,
 22.25111;2.46350;-5.56278;,
 27.81389;2.46350;-5.56278;,
 33.37667;0.00000;-5.56278;,
 38.93944;0.00000;-5.56278;,
 44.50222;0.00000;-5.56278;,
 50.06500;0.00000;-5.56278;,
 -44.50222;4.49668;-11.12556;,
 -50.06500;0.00000;-11.12556;,
 -38.93944;4.49668;-11.12556;,
 -33.37667;-0.76482;-11.12556;,
 -27.81389;7.50215;-11.12556;,
 -22.25111;10.74144;-11.12556;,
 -16.68833;11.50625;-11.12556;,
 -11.12556;8.26696;-11.12556;,
 -5.56278;0.00000;-11.12556;,
 0.00000;0.00000;-11.12556;,
 5.56278;5.36801;-11.12556;,
 11.12556;5.36801;-11.12556;,
 16.68833;2.46350;-11.12556;,
 22.25111;2.46350;-11.12556;,
 27.81389;-2.94471;-11.12556;,
 33.37667;0.00000;-11.12556;,
 38.93944;0.00000;-11.12556;,
 44.50222;0.00000;-11.12556;,
 50.06500;0.00000;-11.12556;,
 -44.50222;4.49668;-16.68833;,
 -50.06500;0.00000;-16.68833;,
 -38.93944;4.49668;-16.68833;,
 -33.37667;2.57267;-16.68833;,
 -27.81389;10.83963;-16.68833;,
 -22.25111;14.07892;-16.68833;,
 -16.68833;11.50625;-16.68833;,
 -11.12556;8.26696;-16.68833;,
 -5.56278;0.00000;-16.68833;,
 0.00000;0.00000;-16.68833;,
 5.56278;5.36801;-16.68833;,
 11.12556;5.36801;-16.68833;,
 16.68833;2.46350;-16.68833;,
 22.25111;-2.94471;-16.68833;,
 27.81389;-6.11422;-16.68833;,
 33.37667;-8.57772;-16.68833;,
 38.93944;-3.16951;-16.68833;,
 44.50222;0.00000;-16.68833;,
 50.06500;0.00000;-16.68833;,
 -44.50222;7.83416;-22.25111;,
 -50.06500;0.00000;-22.25111;,
 -38.93944;7.83416;-22.25111;,
 -33.37667;7.83416;-22.25111;,
 -27.81389;5.53096;-22.25111;,
 -22.25111;8.77025;-22.25111;,
 -16.68833;9.53507;-22.25111;,
 -11.12556;2.95829;-22.25111;,
 -5.56278;-5.30867;-22.25111;,
 0.00000;-5.30867;-22.25111;,
 5.56278;5.36801;-22.25111;,
 11.12556;5.36801;-22.25111;,
 16.68833;-2.94471;-22.25111;,
 22.25111;-2.94471;-22.25111;,
 27.81389;-6.11422;-22.25111;,
 33.37667;-8.57772;-22.25111;,
 38.93944;-4.81026;-22.25111;,
 44.50222;-5.40821;-22.25111;,
 50.06500;0.00000;-22.25111;,
 -44.50222;3.33748;-27.81389;,
 -50.06500;0.00000;-27.81389;,
 -38.93944;3.33748;-27.81389;,
 -33.37667;3.33748;-27.81389;,
 -27.81389;6.29577;-27.81389;,
 -22.25111;9.53507;-27.81389;,
 -16.68833;9.53507;-27.81389;,
 -11.12556;2.95829;-27.81389;,
 -5.56278;-5.30867;-27.81389;,
 0.00000;-5.30867;-27.81389;,
 5.56278;0.00000;-27.81389;,
 11.12556;0.00000;-27.81389;,
 16.68833;-5.40821;-27.81389;,
 22.25111;-1.64075;-27.81389;,
 27.81389;-4.81026;-27.81389;,
 33.37667;-4.81026;-27.81389;,
 38.93944;-4.81026;-27.81389;,
 44.50222;-5.40821;-27.81389;,
 50.06500;0.00000;-27.81389;,
 -44.50222;3.33748;-33.37667;,
 -50.06500;0.00000;-33.37667;,
 -38.93944;3.33748;-33.37667;,
 -33.37667;0.00000;-33.37667;,
 -27.81389;2.95829;-33.37667;,
 -22.25111;2.95829;-33.37667;,
 -16.68833;2.95829;-33.37667;,
 -11.12556;2.95829;-33.37667;,
 -5.56278;-5.30867;-33.37667;,
 0.00000;-5.30867;-33.37667;,
 5.56278;0.00000;-33.37667;,
 11.12556;0.00000;-33.37667;,
 16.68833;-5.40821;-33.37667;,
 22.25111;-1.64075;-33.37667;,
 27.81389;-4.81026;-33.37667;,
 33.37667;-4.81026;-33.37667;,
 38.93944;-4.81026;-33.37667;,
 44.50222;0.00000;-33.37667;,
 50.06500;0.00000;-33.37667;,
 -44.50222;0.00000;-38.93944;,
 -50.06500;0.00000;-38.93944;,
 -38.93944;0.00000;-38.93944;,
 -33.37667;0.00000;-38.93944;,
 -27.81389;-5.30867;-38.93944;,
 -22.25111;-5.30867;-38.93944;,
 -16.68833;-5.30867;-38.93944;,
 -11.12556;-5.30867;-38.93944;,
 -5.56278;-5.30867;-38.93944;,
 0.00000;-5.30867;-38.93944;,
 5.56278;0.00000;-38.93944;,
 11.12556;0.00000;-38.93944;,
 16.68833;0.00000;-38.93944;,
 22.25111;3.76746;-38.93944;,
 27.81389;-4.81026;-38.93944;,
 33.37667;-4.81026;-38.93944;,
 38.93944;-4.81026;-38.93944;,
 44.50222;0.00000;-38.93944;,
 50.06500;0.00000;-38.93944;,
 -44.50222;0.00000;-44.50222;,
 -50.06500;0.00000;-44.50222;,
 -38.93944;0.00000;-44.50222;,
 -33.37667;0.00000;-44.50222;,
 -27.81389;0.00000;-44.50222;,
 -22.25111;0.00000;-44.50222;,
 -16.68833;0.00000;-44.50222;,
 -11.12556;0.00000;-44.50222;,
 -5.56278;0.00000;-44.50222;,
 0.00000;0.00000;-44.50222;,
 5.56278;0.00000;-44.50222;,
 11.12556;0.00000;-44.50222;,
 16.68833;0.00000;-44.50222;,
 22.25111;3.76746;-44.50222;,
 27.81389;3.76746;-44.50222;,
 33.37667;3.76746;-44.50222;,
 38.93944;3.76746;-44.50222;,
 44.50222;0.00000;-44.50222;,
 50.06500;0.00000;-44.50222;,
 -44.50222;0.00000;-50.06500;,
 -50.06500;0.00000;-50.06500;,
 -38.93944;0.00000;-50.06500;,
 -33.37667;0.00000;-50.06500;,
 -27.81389;0.00000;-50.06500;,
 -22.25111;0.00000;-50.06500;,
 -16.68833;0.00000;-50.06500;,
 -11.12556;0.00000;-50.06500;,
 -5.56278;0.00000;-50.06500;,
 0.00000;0.00000;-50.06500;,
 5.56278;0.00000;-50.06500;,
 11.12556;0.00000;-50.06500;,
 16.68833;0.00000;-50.06500;,
 22.25111;0.00000;-50.06500;,
 27.81389;0.00000;-50.06500;,
 33.37667;0.00000;-50.06500;,
 38.93944;0.00000;-50.06500;,
 44.50222;0.00000;-50.06500;,
 50.06500;0.00000;-50.06500;;
 
 324;
 4;0,1,2,3;,
 4;1,4,5,2;,
 4;4,6,7,5;,
 4;6,8,9,7;,
 4;8,10,11,9;,
 4;10,12,13,11;,
 4;12,14,15,13;,
 4;14,16,17,15;,
 4;16,18,19,17;,
 4;18,20,21,19;,
 4;20,22,23,21;,
 4;22,24,25,23;,
 4;24,26,27,25;,
 4;26,28,29,27;,
 4;28,30,31,29;,
 4;30,32,33,31;,
 4;32,34,35,33;,
 4;34,36,37,35;,
 4;3,2,38,39;,
 4;2,5,40,38;,
 4;5,7,41,40;,
 4;7,9,42,41;,
 4;9,11,43,42;,
 4;11,13,44,43;,
 4;13,15,45,44;,
 4;15,17,46,45;,
 4;17,19,47,46;,
 4;19,21,48,47;,
 4;21,23,49,48;,
 4;23,25,50,49;,
 4;25,27,51,50;,
 4;27,29,52,51;,
 4;29,31,53,52;,
 4;31,33,54,53;,
 4;33,35,55,54;,
 4;35,37,56,55;,
 4;39,38,57,58;,
 4;38,40,59,57;,
 4;40,41,60,59;,
 4;41,42,61,60;,
 4;42,43,62,61;,
 4;43,44,63,62;,
 4;44,45,64,63;,
 4;45,46,65,64;,
 4;46,47,66,65;,
 4;47,48,67,66;,
 4;48,49,68,67;,
 4;49,50,69,68;,
 4;50,51,70,69;,
 4;51,52,71,70;,
 4;52,53,72,71;,
 4;53,54,73,72;,
 4;54,55,74,73;,
 4;55,56,75,74;,
 4;58,57,76,77;,
 4;57,59,78,76;,
 4;59,60,79,78;,
 4;60,61,80,79;,
 4;61,62,81,80;,
 4;62,63,82,81;,
 4;63,64,83,82;,
 4;64,65,84,83;,
 4;65,66,85,84;,
 4;66,67,86,85;,
 4;67,68,87,86;,
 4;68,69,88,87;,
 4;69,70,89,88;,
 4;70,71,90,89;,
 4;71,72,91,90;,
 4;72,73,92,91;,
 4;73,74,93,92;,
 4;74,75,94,93;,
 4;77,76,95,96;,
 4;76,78,97,95;,
 4;78,79,98,97;,
 4;79,80,99,98;,
 4;80,81,100,99;,
 4;81,82,101,100;,
 4;82,83,102,101;,
 4;83,84,103,102;,
 4;84,85,104,103;,
 4;85,86,105,104;,
 4;86,87,106,105;,
 4;87,88,107,106;,
 4;88,89,108,107;,
 4;89,90,109,108;,
 4;90,91,110,109;,
 4;91,92,111,110;,
 4;92,93,112,111;,
 4;93,94,113,112;,
 4;96,95,114,115;,
 4;95,97,116,114;,
 4;97,98,117,116;,
 4;98,99,118,117;,
 4;99,100,119,118;,
 4;100,101,120,119;,
 4;101,102,121,120;,
 4;102,103,122,121;,
 4;103,104,123,122;,
 4;104,105,124,123;,
 4;105,106,125,124;,
 4;106,107,126,125;,
 4;107,108,127,126;,
 4;108,109,128,127;,
 4;109,110,129,128;,
 4;110,111,130,129;,
 4;111,112,131,130;,
 4;112,113,132,131;,
 4;115,114,133,134;,
 4;114,116,135,133;,
 4;116,117,136,135;,
 4;117,118,137,136;,
 4;118,119,138,137;,
 4;119,120,139,138;,
 4;120,121,140,139;,
 4;121,122,141,140;,
 4;122,123,142,141;,
 4;123,124,143,142;,
 4;124,125,144,143;,
 4;125,126,145,144;,
 4;126,127,146,145;,
 4;127,128,147,146;,
 4;128,129,148,147;,
 4;129,130,149,148;,
 4;130,131,150,149;,
 4;131,132,151,150;,
 4;134,133,152,153;,
 4;133,135,154,152;,
 4;135,136,155,154;,
 4;136,137,156,155;,
 4;137,138,157,156;,
 4;138,139,158,157;,
 4;139,140,159,158;,
 4;140,141,160,159;,
 4;141,142,161,160;,
 4;142,143,162,161;,
 4;143,144,163,162;,
 4;144,145,164,163;,
 4;145,146,165,164;,
 4;146,147,166,165;,
 4;147,148,167,166;,
 4;148,149,168,167;,
 4;149,150,169,168;,
 4;150,151,170,169;,
 4;153,152,171,172;,
 4;152,154,173,171;,
 4;154,155,174,173;,
 4;155,156,175,174;,
 4;156,157,176,175;,
 4;157,158,177,176;,
 4;158,159,178,177;,
 4;159,160,179,178;,
 4;160,161,180,179;,
 4;161,162,181,180;,
 4;162,163,182,181;,
 4;163,164,183,182;,
 4;164,165,184,183;,
 4;165,166,185,184;,
 4;166,167,186,185;,
 4;167,168,187,186;,
 4;168,169,188,187;,
 4;169,170,189,188;,
 4;172,171,190,191;,
 4;171,173,192,190;,
 4;173,174,193,192;,
 4;174,175,194,193;,
 4;175,176,195,194;,
 4;176,177,196,195;,
 4;177,178,197,196;,
 4;178,179,198,197;,
 4;179,180,199,198;,
 4;180,181,200,199;,
 4;181,182,201,200;,
 4;182,183,202,201;,
 4;183,184,203,202;,
 4;184,185,204,203;,
 4;185,186,205,204;,
 4;186,187,206,205;,
 4;187,188,207,206;,
 4;188,189,208,207;,
 4;191,190,209,210;,
 4;190,192,211,209;,
 4;192,193,212,211;,
 4;193,194,213,212;,
 4;194,195,214,213;,
 4;195,196,215,214;,
 4;196,197,216,215;,
 4;197,198,217,216;,
 4;198,199,218,217;,
 4;199,200,219,218;,
 4;200,201,220,219;,
 4;201,202,221,220;,
 4;202,203,222,221;,
 4;203,204,223,222;,
 4;204,205,224,223;,
 4;205,206,225,224;,
 4;206,207,226,225;,
 4;207,208,227,226;,
 4;210,209,228,229;,
 4;209,211,230,228;,
 4;211,212,231,230;,
 4;212,213,232,231;,
 4;213,214,233,232;,
 4;214,215,234,233;,
 4;215,216,235,234;,
 4;216,217,236,235;,
 4;217,218,237,236;,
 4;218,219,238,237;,
 4;219,220,239,238;,
 4;220,221,240,239;,
 4;221,222,241,240;,
 4;222,223,242,241;,
 4;223,224,243,242;,
 4;224,225,244,243;,
 4;225,226,245,244;,
 4;226,227,246,245;,
 4;229,228,247,248;,
 4;228,230,249,247;,
 4;230,231,250,249;,
 4;231,232,251,250;,
 4;232,233,252,251;,
 4;233,234,253,252;,
 4;234,235,254,253;,
 4;235,236,255,254;,
 4;236,237,256,255;,
 4;237,238,257,256;,
 4;238,239,258,257;,
 4;239,240,259,258;,
 4;240,241,260,259;,
 4;241,242,261,260;,
 4;242,243,262,261;,
 4;243,244,263,262;,
 4;244,245,264,263;,
 4;245,246,265,264;,
 4;248,247,266,267;,
 4;247,249,268,266;,
 4;249,250,269,268;,
 4;250,251,270,269;,
 4;251,252,271,270;,
 4;252,253,272,271;,
 4;253,254,273,272;,
 4;254,255,274,273;,
 4;255,256,275,274;,
 4;256,257,276,275;,
 4;257,258,277,276;,
 4;258,259,278,277;,
 4;259,260,279,278;,
 4;260,261,280,279;,
 4;261,262,281,280;,
 4;262,263,282,281;,
 4;263,264,283,282;,
 4;264,265,284,283;,
 4;267,266,285,286;,
 4;266,268,287,285;,
 4;268,269,288,287;,
 4;269,270,289,288;,
 4;270,271,290,289;,
 4;271,272,291,290;,
 4;272,273,292,291;,
 4;273,274,293,292;,
 4;274,275,294,293;,
 4;275,276,295,294;,
 4;276,277,296,295;,
 4;277,278,297,296;,
 4;278,279,298,297;,
 4;279,280,299,298;,
 4;280,281,300,299;,
 4;281,282,301,300;,
 4;282,283,302,301;,
 4;283,284,303,302;,
 4;286,285,304,305;,
 4;285,287,306,304;,
 4;287,288,307,306;,
 4;288,289,308,307;,
 4;289,290,309,308;,
 4;290,291,310,309;,
 4;291,292,311,310;,
 4;292,293,312,311;,
 4;293,294,313,312;,
 4;294,295,314,313;,
 4;295,296,315,314;,
 4;296,297,316,315;,
 4;297,298,317,316;,
 4;298,299,318,317;,
 4;299,300,319,318;,
 4;300,301,320,319;,
 4;301,302,321,320;,
 4;302,303,322,321;,
 4;305,304,323,324;,
 4;304,306,325,323;,
 4;306,307,326,325;,
 4;307,308,327,326;,
 4;308,309,328,327;,
 4;309,310,329,328;,
 4;310,311,330,329;,
 4;311,312,331,330;,
 4;312,313,332,331;,
 4;313,314,333,332;,
 4;314,315,334,333;,
 4;315,316,335,334;,
 4;316,317,336,335;,
 4;317,318,337,336;,
 4;318,319,338,337;,
 4;319,320,339,338;,
 4;320,321,340,339;,
 4;321,322,341,340;,
 4;324,323,342,343;,
 4;323,325,344,342;,
 4;325,326,345,344;,
 4;326,327,346,345;,
 4;327,328,347,346;,
 4;328,329,348,347;,
 4;329,330,349,348;,
 4;330,331,350,349;,
 4;331,332,351,350;,
 4;332,333,352,351;,
 4;333,334,353,352;,
 4;334,335,354,353;,
 4;335,336,355,354;,
 4;336,337,356,355;,
 4;337,338,357,356;,
 4;338,339,358,357;,
 4;339,340,359,358;,
 4;340,341,360,359;;
 
 MeshMaterialList {
  1;
  324;
  0,
  0,
  0,
  0,
  0,
  0,
  0,
  0,
  0,
  0,
  0,
  0,
  0,
  0,
  0,
  0,
  0,
  0,
  0,
  0,
  0,
  0,
  0,
  0,
  0,
  0,
  0,
  0,
  0,
  0,
  0,
  0,
  0,
  0,
  0,
  0,
  0,
  0,
  0,
  0,
  0,
  0,
  0,
  0,
  0,
  0,
  0,
  0,
  0,
  0,
  0,
  0,
  0,
  0,
  0,
  0,
  0,
  0,
  0,
  0,
  0,
  0,
  0,
  0,
  0,
  0,
  0,
  0,
  0,
  0,
  0,
  0,
  0,
  0,
  0,
  0,
  0,
  0,
  0,
  0,
  0,
  0,
  0,
  0,
  0,
  0,
  0,
  0,
  0,
  0,
  0,
  0,
  0,
  0,
  0,
  0,
  0,
  0,
  0,
  0,
  0,
  0,
  0,
  0,
  0,
  0,
  0,
  0,
  0,
  0,
  0,
  0,
  0,
  0,
  0,
  0,
  0,
  0,
  0,
  0,
  0,
  0,
  0,
  0,
  0,
  0,
  0,
  0,
  0,
  0,
  0,
  0,
  0,
  0,
  0,
  0,
  0,
  0,
  0,
  0,
  0,
  0,
  0,
  0,
  0,
  0,
  0,
  0,
  0,
  0,
  0,
  0,
  0,
  0,
  0,
  0,
  0,
  0,
  0,
  0,
  0,
  0,
  0,
  0,
  0,
  0,
  0,
  0,
  0,
  0,
  0,
  0,
  0,
  0,
  0,
  0,
  0,
  0,
  0,
  0,
  0,
  0,
  0,
  0,
  0,
  0,
  0,
  0,
  0,
  0,
  0,
  0,
  0,
  0,
  0,
  0,
  0,
  0,
  0,
  0,
  0,
  0,
  0,
  0,
  0,
  0,
  0,
  0,
  0,
  0,
  0,
  0,
  0,
  0,
  0,
  0,
  0,
  0,
  0,
  0,
  0,
  0,
  0,
  0,
  0,
  0,
  0,
  0,
  0,
  0,
  0,
  0,
  0,
  0,
  0,
  0,
  0,
  0,
  0,
  0,
  0,
  0,
  0,
  0,
  0,
  0,
  0,
  0,
  0,
  0,
  0,
  0,
  0,
  0,
  0,
  0,
  0,
  0,
  0,
  0,
  0,
  0,
  0,
  0,
  0,
  0,
  0,
  0,
  0,
  0,
  0,
  0,
  0,
  0,
  0,
  0,
  0,
  0,
  0,
  0,
  0,
  0,
  0,
  0,
  0,
  0,
  0,
  0,
  0,
  0,
  0,
  0,
  0,
  0,
  0,
  0,
  0,
  0,
  0,
  0,
  0,
  0,
  0,
  0,
  0,
  0,
  0,
  0,
  0,
  0,
  0,
  0,
  0,
  0,
  0,
  0,
  0,
  0,
  0,
  0,
  0,
  0,
  0,
  0;;
  Material {
   0.800000;0.800000;0.800000;1.000000;;
   5.000000;
   0.000000;0.000000;0.000000;;
   0.000000;0.000000;0.000000;;
   TextureFilename {
    "data\\TEXTURE\\sand.jpg";
   }
  }
 }
 MeshNormals {
  324;
  0.000000;1.000000;0.000000;,
  -0.177281;0.968062;0.177281;,
  -0.179144;0.801331;0.570767;,
  0.179144;0.801331;0.570767;,
  0.177281;0.968062;0.177281;,
  -0.076845;0.994077;0.076845;,
  -0.079488;0.964698;0.251075;,
  0.000000;0.937719;0.347395;,
  0.145079;0.980326;0.133842;,
  0.142591;0.966138;-0.215048;,
  -0.103414;0.974376;-0.199741;,
  -0.100344;0.993943;0.044818;,
  -0.190594;0.972418;0.134447;,
  -0.288259;0.938383;0.190643;,
  0.407102;0.817640;0.407102;,
  0.294250;0.951256;0.092355;,
  -0.230534;0.945361;0.230534;,
  -0.217795;0.897032;0.384575;,
  -0.063208;0.845602;0.530058;,
  0.000000;0.808180;0.588935;,
  0.063208;0.845602;0.530058;,
  0.149958;0.926411;0.345362;,
  0.000000;0.758634;0.651517;,
  0.355845;0.933777;0.037878;,
  0.322547;0.849811;-0.416874;,
  -0.384050;0.922080;0.047691;,
  -0.265313;0.884108;0.384658;,
  -0.105107;0.911907;0.396709;,
  -0.209083;0.973791;0.089528;,
  0.013446;0.997613;-0.067724;,
  0.361417;0.930571;0.058440;,
  0.051784;0.997315;0.051784;,
  -0.251075;0.964698;0.079488;,
  -0.327754;0.931521;0.157625;,
  -0.275821;0.950766;0.141307;,
  -0.202505;0.958115;0.202505;,
  0.000000;0.962439;0.271498;,
  0.202505;0.958115;0.202505;,
  0.441791;0.897025;-0.012893;,
  0.428119;0.876513;-0.220089;,
  0.355741;0.917340;-0.178705;,
  0.344717;0.935998;-0.071263;,
  -0.608576;0.756067;0.240828;,
  -0.362545;0.858558;0.362545;,
  -0.021845;0.913832;0.405505;,
  0.142577;0.954186;0.263059;,
  0.246774;0.968039;0.044751;,
  0.163796;0.972801;0.163796;,
  0.144664;0.958240;0.246676;,
  -0.347395;0.937719;0.000000;,
  -0.323316;0.943477;0.072926;,
  -0.341826;0.891260;0.298011;,
  0.000000;0.901213;0.433376;,
  0.249706;0.868282;0.428641;,
  0.521372;0.752282;0.402793;,
  0.466996;0.760613;0.450980;,
  0.299320;0.811846;0.501312;,
  0.049799;0.835707;0.546913;,
  -0.615407;0.754222;0.228962;,
  -0.418668;0.875252;0.242181;,
  -0.000913;0.964769;0.263096;,
  0.396872;0.908828;0.128545;,
  0.333614;0.942554;0.017142;,
  -0.140861;0.984020;0.108912;,
  0.163470;0.961227;0.222080;,
  0.570767;0.801331;0.179144;,
  -0.251075;0.964698;-0.079488;,
  -0.259224;0.930379;-0.259224;,
  -0.451576;0.862893;-0.226924;,
  -0.428997;0.807252;0.405347;,
  -0.127938;0.811141;0.570686;,
  0.268566;0.760240;0.591530;,
  0.559072;0.724625;0.402936;,
  0.572490;0.783356;0.242091;,
  0.238346;0.654698;0.717330;,
  -0.105656;0.950608;0.291857;,
  -0.458458;0.856154;0.238362;,
  -0.483558;0.847293;0.219696;,
  0.103512;0.972331;0.209425;,
  0.537969;0.840389;0.065846;,
  0.346551;0.938031;0.000000;,
  -0.288241;0.957558;0.000000;,
  -0.552016;0.833834;0.000000;,
  0.750342;0.661050;0.000000;,
  -0.153862;0.988089;-0.002482;,
  -0.174532;0.984605;-0.009534;,
  -0.561471;0.717230;-0.412712;,
  -0.665548;0.700162;-0.258494;,
  -0.318240;0.910149;-0.265240;,
  0.342654;0.864975;0.366615;,
  0.650608;0.697082;-0.301308;,
  0.568182;0.738571;-0.362879;,
  0.100395;0.934364;-0.341884;,
  -0.132676;0.952676;-0.273504;,
  -0.374538;0.881732;-0.286827;,
  -0.541862;0.817208;-0.196358;,
  0.104249;0.991554;-0.077152;,
  0.599779;0.800165;0.000000;,
  -0.140861;0.984021;-0.108912;,
  -0.070520;0.958199;-0.277277;,
  0.570767;0.801331;-0.179144;,
  -0.149496;0.977395;0.149496;,
  -0.222944;0.948995;0.222944;,
  -0.152103;0.936587;0.315704;,
  -0.352114;0.909932;0.219177;,
  -0.619287;0.783811;0.046078;,
  -0.288162;0.617076;-0.732243;,
  0.251577;0.594514;-0.763716;,
  0.592620;0.573583;-0.565512;,
  0.636857;0.765974;-0.087736;,
  0.023022;0.956307;-0.291456;,
  -0.131450;0.902335;-0.410503;,
  -0.304566;0.917595;-0.255459;,
  -0.498387;0.852073;-0.159943;,
  -0.289843;0.919668;-0.264957;,
  0.571746;0.810378;-0.128040;,
  0.404243;0.869532;-0.283728;,
  0.008422;0.910648;-0.413097;,
  0.096418;0.948743;-0.300984;,
  0.177281;0.968062;-0.177281;,
  -0.473414;0.867934;0.150234;,
  -0.315704;0.936587;0.152103;,
  -0.074315;0.994462;0.074315;,
  -0.379334;0.921532;0.082971;,
  -0.592694;0.755942;0.277967;,
  0.001432;0.933237;0.359260;,
  0.127237;0.947379;0.293740;,
  0.305531;0.878434;0.367428;,
  0.424904;0.817045;0.389736;,
  -0.052371;0.896140;0.440670;,
  -0.050703;0.845360;0.531786;,
  -0.002703;0.875266;0.483634;,
  -0.146885;0.980775;0.128475;,
  -0.072772;0.951140;-0.300062;,
  0.508611;0.793620;-0.333889;,
  0.466796;0.819038;-0.333583;,
  -0.147302;0.935852;-0.320130;,
  -0.140861;0.984020;-0.108912;,
  -0.628647;0.777691;0.000000;,
  -0.333399;0.942786;0.000000;,
  0.080800;0.993450;-0.080800;,
  -0.370253;0.903034;-0.217812;,
  -0.708104;0.696298;-0.117293;,
  -0.593636;0.804418;-0.022549;,
  0.442183;0.893410;-0.079330;,
  -0.237575;0.966027;-0.101738;,
  0.452289;0.821888;-0.346315;,
  -0.184718;0.937671;-0.294369;,
  -0.186277;0.976267;-0.110469;,
  0.126260;0.990372;-0.056760;,
  0.198717;0.965186;-0.170080;,
  0.074425;0.944244;-0.320724;,
  0.409203;0.883641;-0.227446;,
  0.412502;0.899293;0.145309;,
  -0.214969;0.952668;0.214969;,
  -0.210361;0.975303;0.067322;,
  0.266243;0.960239;-0.083998;,
  0.519481;0.838617;-0.163892;,
  -0.735206;0.632703;-0.243227;,
  -0.406692;0.862092;-0.302323;,
  0.346430;0.917813;-0.193922;,
  0.563221;0.786923;-0.252061;,
  0.458714;0.810237;-0.364825;,
  -0.326570;0.877322;-0.351651;,
  -0.318190;0.908158;-0.272036;,
  0.194344;0.944277;-0.265653;,
  0.255028;0.934538;-0.248193;,
  0.143207;0.961246;-0.235579;,
  0.252696;0.945206;-0.206711;,
  0.176409;0.981277;0.077294;,
  -0.067322;0.975303;0.210361;,
  -0.065821;0.995658;0.065821;,
  0.315127;0.947432;0.055389;,
  0.600209;0.792855;0.105497;,
  -0.719971;0.679407;0.141586;,
  -0.223384;0.973913;0.039909;,
  0.348628;0.937030;-0.020783;,
  0.683762;0.729706;0.000000;,
  0.469962;0.882687;0.000000;,
  -0.374438;0.927252;0.000000;,
  0.238284;0.971196;0.000000;,
  0.320982;0.943475;-0.082621;,
  0.300808;0.905002;-0.300808;,
  0.235239;0.837488;-0.493230;,
  -0.045889;0.889031;-0.455542;,
  -0.127197;0.963769;-0.234457;,
  -0.059445;0.996460;-0.059445;,
  -0.676108;0.731948;0.084437;,
  -0.369362;0.910179;0.187470;,
  0.164638;0.922443;0.349276;,
  0.103470;0.963497;0.246915;,
  -0.563453;0.826143;-0.002836;,
  -0.086037;0.993316;0.076946;,
  0.354247;0.916843;-0.184143;,
  0.691064;0.684526;-0.232066;,
  0.460898;0.818706;-0.342481;,
  -0.422122;0.869176;-0.257578;,
  -0.405955;0.912081;-0.057513;,
  0.289583;0.954827;-0.066691;,
  0.443374;0.866838;-0.228060;,
  0.422818;0.856551;-0.295880;,
  0.392431;0.861051;-0.323402;,
  -0.122500;0.900546;-0.417145;,
  -0.328801;0.860590;-0.388940;,
  -0.179989;0.946309;-0.268521;,
  -0.164984;0.972399;-0.164984;,
  -0.699305;0.714299;-0.027387;,
  -0.411062;0.910217;-0.050335;,
  0.061955;0.827312;0.558315;,
  -0.064771;0.989563;-0.128724;,
  -0.330070;0.910224;-0.250091;,
  -0.237338;0.933709;-0.268064;,
  0.382989;0.891521;-0.241888;,
  0.750267;0.620078;-0.229352;,
  -0.447195;0.835615;-0.319005;,
  -0.447443;0.834973;-0.320334;,
  0.373637;0.849057;-0.373493;,
  0.380808;0.879542;-0.285291;,
  0.273004;0.960727;-0.049725;,
  0.399409;0.904325;0.150560;,
  0.112323;0.966710;0.229904;,
  -0.252241;0.963452;-0.090196;,
  -0.285079;0.933129;-0.219090;,
  -0.527407;0.833190;-0.166242;,
  -0.591214;0.798698;-0.112021;,
  -0.319907;0.918459;-0.232579;,
  0.063943;0.916934;-0.393883;,
  -0.045250;0.905883;-0.421104;,
  -0.293071;0.895824;-0.334080;,
  -0.210913;0.916090;-0.341020;,
  0.299694;0.905741;-0.299694;,
  0.722114;0.685779;-0.090881;,
  -0.403914;0.912953;-0.058051;,
  -0.420254;0.869576;-0.259276;,
  0.399415;0.862998;-0.309356;,
  0.716115;0.668749;-0.199884;,
  0.037622;0.998538;0.038824;,
  0.300752;0.941346;0.153020;,
  -0.022084;0.985544;0.167974;,
  -0.101355;0.982879;0.153868;,
  -0.306200;0.935728;0.175088;,
  -0.527407;0.833190;0.166242;,
  -0.385849;0.914189;-0.124011;,
  -0.199100;0.959541;-0.199100;,
  0.125033;0.958281;-0.257030;,
  0.019082;0.927482;-0.373381;,
  -0.154012;0.768857;-0.620596;,
  -0.045746;0.634837;-0.771291;,
  0.090881;0.685779;-0.722114;,
  0.433885;0.789612;-0.433885;,
  0.332471;0.937363;-0.103990;,
  -0.371862;0.928288;0.000000;,
  0.270536;0.958926;0.085275;,
  0.527407;0.833190;0.166242;,
  -0.528867;0.780889;0.332434;,
  0.304823;0.950146;0.065622;,
  -0.235578;0.967789;0.088809;,
  -0.317957;0.932329;0.172239;,
  -0.164984;0.972399;0.164984;,
  -0.123742;0.984569;-0.123742;,
  -0.062818;0.978699;-0.195453;,
  0.062818;0.978699;-0.195453;,
  0.148811;0.983309;-0.104686;,
  0.000220;0.742623;-0.669710;,
  0.000000;0.558271;-0.829659;,
  0.199835;0.742881;-0.638901;,
  0.109058;0.950875;0.289730;,
  -0.277678;0.919668;0.277678;,
  -0.267638;0.959815;0.084413;,
  0.081905;0.993269;0.081905;,
  -0.190090;0.944969;0.266269;,
  -0.236923;0.890604;0.388189;,
  0.289203;0.865140;0.409750;,
  0.000000;0.878667;0.477435;,
  -0.162550;0.909038;0.383702;,
  -0.153022;0.979056;0.134290;,
  0.081159;0.993391;0.081159;,
  0.084413;0.959815;0.267638;,
  0.000000;0.928288;0.371862;,
  -0.084413;0.959815;0.267638;,
  -0.081159;0.993391;0.081159;,
  -0.213863;0.974468;-0.068375;,
  -0.290790;0.911528;-0.290790;,
  0.202463;0.734812;0.647349;,
  0.000000;0.544112;0.839013;,
  0.045464;0.724691;0.687573;,
  0.092231;0.993863;0.061071;,
  -0.134211;0.981822;-0.134211;,
  -0.134625;0.896979;-0.421077;,
  0.000000;0.827979;-0.560759;,
  0.134625;0.896979;-0.421077;,
  0.134211;0.981822;-0.134211;,
  -0.296984;0.907525;-0.296984;,
  0.750342;0.661050;0.000000;,
  0.261403;0.801747;-0.537466;,
  0.207449;0.639617;-0.740172;,
  -0.343237;0.874286;0.343237;,
  -0.570767;0.801331;0.179144;,
  -0.750342;0.661050;0.000000;,
  -0.816478;0.438017;-0.376171;,
  0.182486;0.901418;-0.392612;,
  0.000000;0.777691;0.628647;,
  0.546908;0.837193;0.000000;,
  -0.065397;0.880146;0.470177;,
  0.133175;0.927125;0.350292;,
  0.340492;0.785656;0.516536;,
  0.000000;0.689966;0.723842;,
  0.000000;0.689966;0.723842;,
  0.626080;0.774515;0.090279;,
  -0.413691;0.886263;0.208321;,
  0.795175;0.560973;-0.230228;,
  -0.805301;0.541881;-0.240530;,
  0.628647;0.777691;0.000000;,
  -0.818849;0.550998;0.160897;,
  -0.786702;0.529366;0.317602;,
  -0.388226;0.666694;-0.636239;,
  -0.627165;0.771856;-0.104415;,
  0.000000;0.777691;-0.628647;,
  -0.429194;0.902643;-0.032051;,
  0.582896;0.802799;0.125484;,
  0.654518;0.714396;0.247477;,
  0.164657;0.836864;0.522060;,
  0.000000;0.723437;0.690390;,
  0.381827;0.841675;0.381827;;
  324;
  4;0,0,0,0;,
  4;0,0,5,0;,
  4;0,0,6,5;,
  4;0,0,7,6;,
  4;0,0,7,7;,
  4;0,0,7,7;,
  4;0,0,7,7;,
  4;0,0,7,7;,
  4;0,0,8,7;,
  4;0,0,9,8;,
  4;0,0,10,9;,
  4;0,0,11,10;,
  4;0,1,12,11;,
  4;1,2,13,12;,
  4;2,3,14,13;,
  4;3,4,15,14;,
  4;4,0,0,15;,
  4;0,0,0,0;,
  4;0,0,5,0;,
  4;0,5,16,5;,
  4;5,6,17,16;,
  4;6,7,18,17;,
  4;7,7,19,18;,
  4;7,7,20,19;,
  4;7,7,21,20;,
  4;7,7,22,21;,
  4;7,8,23,22;,
  4;8,9,24,23;,
  4;9,10,25,24;,
  4;10,11,26,25;,
  4;11,12,27,26;,
  4;12,13,28,27;,
  4;13,292,29,28;,
  4;14,15,30,293;,
  4;15,0,31,30;,
  4;0,0,0,31;,
  4;0,5,32,0;,
  4;5,16,33,32;,
  4;16,17,34,33;,
  4;17,18,35,34;,
  4;18,19,36,35;,
  4;19,20,37,36;,
  4;20,21,38,37;,
  4;21,294,39,38;,
  4;294,295,40,39;,
  4;23,24,41,40;,
  4;296,25,42,297;,
  4;25,26,43,42;,
  4;26,27,44,43;,
  4;27,28,45,44;,
  4;28,29,46,45;,
  4;29,30,47,46;,
  4;30,31,48,47;,
  4;31,0,4,48;,
  4;0,32,49,0;,
  4;32,33,49,49;,
  4;33,34,50,49;,
  4;34,35,51,50;,
  4;35,36,52,51;,
  4;36,37,53,52;,
  4;37,38,54,53;,
  4;38,39,55,54;,
  4;39,40,56,55;,
  4;40,41,57,56;,
  4;297,42,58,298;,
  4;42,43,59,58;,
  4;43,44,60,59;,
  4;44,45,61,60;,
  4;45,46,62,61;,
  4;46,47,63,62;,
  4;47,48,64,63;,
  4;48,4,65,64;,
  4;0,49,66,0;,
  4;49,49,67,66;,
  4;49,50,68,67;,
  4;50,51,69,68;,
  4;51,52,70,69;,
  4;52,53,71,70;,
  4;53,54,72,71;,
  4;54,55,73,72;,
  4;55,56,74,73;,
  4;56,57,75,74;,
  4;57,58,76,75;,
  4;58,59,77,76;,
  4;59,60,78,77;,
  4;60,61,79,78;,
  4;61,62,80,79;,
  4;62,63,81,80;,
  4;63,64,82,81;,
  4;64,65,83,83;,
  4;0,66,84,0;,
  4;66,67,85,84;,
  4;67,68,86,85;,
  4;68,299,87,86;,
  4;69,70,88,87;,
  4;70,71,89,88;,
  4;71,72,90,89;,
  4;72,73,91,90;,
  4;73,300,92,91;,
  4;300,75,93,92;,
  4;75,76,94,93;,
  4;76,77,95,94;,
  4;77,78,96,95;,
  4;78,79,97,96;,
  4;79,80,80,97;,
  4;80,81,98,80;,
  4;81,82,99,98;,
  4;83,83,100,293;,
  4;0,84,102,101;,
  4;84,85,103,102;,
  4;85,301,104,103;,
  4;86,87,105,104;,
  4;87,88,106,105;,
  4;88,107,107,106;,
  4;107,90,108,107;,
  4;90,91,109,108;,
  4;91,92,110,109;,
  4;92,93,111,110;,
  4;93,94,112,111;,
  4;94,95,113,112;,
  4;95,96,114,113;,
  4;96,97,115,302;,
  4;97,80,116,115;,
  4;80,98,117,116;,
  4;98,99,118,117;,
  4;99,100,119,118;,
  4;101,102,121,120;,
  4;102,103,122,121;,
  4;103,104,123,122;,
  4;104,105,124,123;,
  4;105,303,125,124;,
  4;303,304,126,125;,
  4;304,305,127,126;,
  4;305,109,128,127;,
  4;306,307,129,128;,
  4;307,307,130,129;,
  4;307,306,131,130;,
  4;112,113,132,131;,
  4;113,114,133,132;,
  4;114,115,134,133;,
  4;115,116,135,134;,
  4;116,117,136,135;,
  4;117,118,137,136;,
  4;118,119,0,137;,
  4;120,121,139,138;,
  4;121,122,140,139;,
  4;122,123,141,140;,
  4;123,124,142,141;,
  4;124,125,143,142;,
  4;125,126,144,308;,
  4;126,127,145,309;,
  4;127,128,146,310;,
  4;128,129,147,146;,
  4;129,130,148,147;,
  4;130,131,149,148;,
  4;131,132,150,149;,
  4;132,133,151,150;,
  4;133,134,152,151;,
  4;134,135,153,152;,
  4;135,136,154,153;,
  4;136,137,155,154;,
  4;137,0,0,155;,
  4;138,139,139,138;,
  4;139,140,156,139;,
  4;140,141,157,156;,
  4;141,142,158,311;,
  4;142,143,159,158;,
  4;308,144,160,312;,
  4;144,145,161,160;,
  4;310,146,162,161;,
  4;146,147,163,162;,
  4;147,148,164,163;,
  4;148,149,165,164;,
  4;149,150,166,165;,
  4;150,151,167,166;,
  4;151,152,168,167;,
  4;152,153,169,168;,
  4;153,154,170,169;,
  4;154,155,171,170;,
  4;155,0,0,171;,
  4;138,139,139,138;,
  4;139,156,172,139;,
  4;156,157,173,172;,
  4;311,158,174,313;,
  4;158,159,175,174;,
  4;159,160,176,175;,
  4;160,161,177,176;,
  4;161,162,178,177;,
  4;162,163,179,178;,
  4;163,164,179,179;,
  4;164,165,180,179;,
  4;165,166,181,180;,
  4;166,167,182,181;,
  4;167,168,183,182;,
  4;168,169,184,183;,
  4;169,170,185,184;,
  4;170,171,186,185;,
  4;171,0,0,186;,
  4;138,139,188,187;,
  4;139,172,189,188;,
  4;172,173,190,189;,
  4;313,174,191,314;,
  4;174,175,192,191;,
  4;175,176,193,192;,
  4;176,177,194,193;,
  4;177,178,195,194;,
  4;178,179,196,195;,
  4;179,179,197,196;,
  4;179,180,198,197;,
  4;180,181,199,198;,
  4;181,182,200,199;,
  4;182,183,201,200;,
  4;183,184,202,201;,
  4;184,185,203,202;,
  4;185,186,204,203;,
  4;186,0,205,204;,
  4;187,188,207,206;,
  4;188,189,208,207;,
  4;189,190,209,208;,
  4;190,191,210,209;,
  4;191,315,211,210;,
  4;192,193,212,211;,
  4;193,194,213,212;,
  4;194,195,195,213;,
  4;195,196,214,195;,
  4;196,197,215,214;,
  4;197,198,216,215;,
  4;198,199,217,216;,
  4;199,200,218,217;,
  4;200,201,219,218;,
  4;201,202,220,219;,
  4;202,203,221,316;,
  4;203,204,222,221;,
  4;204,205,223,222;,
  4;206,207,225,224;,
  4;207,317,226,225;,
  4;317,209,227,226;,
  4;209,210,228,227;,
  4;210,211,229,228;,
  4;211,212,230,229;,
  4;212,213,231,230;,
  4;213,195,178,231;,
  4;195,214,232,178;,
  4;214,215,233,232;,
  4;215,216,234,233;,
  4;216,217,235,234;,
  4;217,218,236,318;,
  4;218,219,237,236;,
  4;219,220,238,237;,
  4;220,221,239,238;,
  4;221,222,240,239;,
  4;222,223,241,240;,
  4;224,225,243,242;,
  4;225,226,244,243;,
  4;226,227,245,244;,
  4;227,228,246,245;,
  4;228,229,247,246;,
  4;229,230,248,247;,
  4;230,231,249,248;,
  4;231,178,250,249;,
  4;178,232,251,250;,
  4;232,233,251,251;,
  4;233,234,252,251;,
  4;234,235,253,252;,
  4;318,236,254,254;,
  4;236,237,255,319;,
  4;237,238,0,255;,
  4;238,239,256,0;,
  4;239,240,257,256;,
  4;240,241,258,257;,
  4;242,243,260,259;,
  4;243,244,261,260;,
  4;244,245,262,261;,
  4;245,246,263,262;,
  4;246,247,264,263;,
  4;247,248,264,264;,
  4;248,249,265,264;,
  4;249,250,266,265;,
  4;250,251,267,266;,
  4;251,251,268,267;,
  4;251,252,269,268;,
  4;252,253,270,269;,
  4;254,254,271,270;,
  4;319,255,272,320;,
  4;255,0,273,272;,
  4;0,256,274,273;,
  4;256,257,275,274;,
  4;257,258,0,275;,
  4;259,260,0,0;,
  4;260,261,0,0;,
  4;261,262,276,0;,
  4;262,321,277,276;,
  4;321,322,278,277;,
  4;322,322,278,278;,
  4;322,322,278,278;,
  4;322,266,278,278;,
  4;266,267,279,278;,
  4;267,268,280,279;,
  4;268,269,0,280;,
  4;269,270,281,0;,
  4;270,271,282,281;,
  4;271,272,283,323;,
  4;272,273,284,283;,
  4;273,274,285,284;,
  4;274,275,286,285;,
  4;275,0,0,286;,
  4;0,0,0,0;,
  4;0,0,0,0;,
  4;0,276,0,0;,
  4;276,277,0,0;,
  4;277,278,0,0;,
  4;278,278,0,0;,
  4;278,278,0,0;,
  4;278,278,0,0;,
  4;278,279,0,0;,
  4;279,280,0,0;,
  4;280,0,0,0;,
  4;0,281,287,0;,
  4;281,282,288,287;,
  4;282,289,289,288;,
  4;289,289,289,289;,
  4;289,290,290,289;,
  4;290,286,291,290;,
  4;286,0,0,291;;
 }
 MeshTextureCoords {
  361;
  0.000000;0.000000;,
  0.055556;0.000000;,
  0.055556;0.055556;,
  0.000000;0.055556;,
  0.111111;0.000000;,
  0.111111;0.055556;,
  0.166667;0.000000;,
  0.166667;0.055556;,
  0.222222;0.000000;,
  0.222222;0.055556;,
  0.277778;0.000000;,
  0.277778;0.055556;,
  0.333333;0.000000;,
  0.333333;0.055556;,
  0.388889;0.000000;,
  0.388889;0.055556;,
  0.444444;0.000000;,
  0.444444;0.055556;,
  0.500000;0.000000;,
  0.500000;0.055556;,
  0.555556;0.000000;,
  0.555556;0.055556;,
  0.611111;0.000000;,
  0.611111;0.055556;,
  0.666667;0.000000;,
  0.666667;0.055556;,
  0.722222;0.000000;,
  0.722222;0.055556;,
  0.777778;0.000000;,
  0.777778;0.055556;,
  0.833333;0.000000;,
  0.833333;0.055556;,
  0.888889;0.000000;,
  0.888889;0.055556;,
  0.944444;0.000000;,
  0.944444;0.055556;,
  1.000000;0.000000;,
  1.000000;0.055556;,
  0.055556;0.111111;,
  0.000000;0.111111;,
  0.111111;0.111111;,
  0.166667;0.111111;,
  0.222222;0.111111;,
  0.277778;0.111111;,
  0.333333;0.111111;,
  0.388889;0.111111;,
  0.444444;0.111111;,
  0.500000;0.111111;,
  0.555556;0.111111;,
  0.611111;0.111111;,
  0.666667;0.111111;,
  0.722222;0.111111;,
  0.777778;0.111111;,
  0.833333;0.111111;,
  0.888889;0.111111;,
  0.944444;0.111111;,
  1.000000;0.111111;,
  0.055556;0.166667;,
  0.000000;0.166667;,
  0.111111;0.166667;,
  0.166667;0.166667;,
  0.222222;0.166667;,
  0.277778;0.166667;,
  0.333333;0.166667;,
  0.388889;0.166667;,
  0.444444;0.166667;,
  0.500000;0.166667;,
  0.555556;0.166667;,
  0.611111;0.166667;,
  0.666667;0.166667;,
  0.722222;0.166667;,
  0.777778;0.166667;,
  0.833333;0.166667;,
  0.888889;0.166667;,
  0.944444;0.166667;,
  1.000000;0.166667;,
  0.055556;0.222222;,
  0.000000;0.222222;,
  0.111111;0.222222;,
  0.166667;0.222222;,
  0.222222;0.222222;,
  0.277778;0.222222;,
  0.333333;0.222222;,
  0.388889;0.222222;,
  0.444444;0.222222;,
  0.500000;0.222222;,
  0.555556;0.222222;,
  0.611111;0.222222;,
  0.666667;0.222222;,
  0.722222;0.222222;,
  0.777778;0.222222;,
  0.833333;0.222222;,
  0.888889;0.222222;,
  0.944444;0.222222;,
  1.000000;0.222222;,
  0.055556;0.277778;,
  0.000000;0.277778;,
  0.111111;0.277778;,
  0.166667;0.277778;,
  0.222222;0.277778;,
  0.277778;0.277778;,
  0.333333;0.277778;,
  0.388889;0.277778;,
  0.444444;0.277778;,
  0.500000;0.277778;,
  0.555556;0.277778;,
  0.611111;0.277778;,
  0.666667;0.277778;,
  0.722222;0.277778;,
  0.777778;0.277778;,
  0.833333;0.277778;,
  0.888889;0.277778;,
  0.944444;0.277778;,
  1.000000;0.277778;,
  0.055556;0.333333;,
  0.000000;0.333333;,
  0.111111;0.333333;,
  0.166667;0.333333;,
  0.222222;0.333333;,
  0.277778;0.333333;,
  0.333333;0.333333;,
  0.388889;0.333333;,
  0.444444;0.333333;,
  0.500000;0.333333;,
  0.555556;0.333333;,
  0.611111;0.333333;,
  0.666667;0.333333;,
  0.722222;0.333333;,
  0.777778;0.333333;,
  0.833333;0.333333;,
  0.888889;0.333333;,
  0.944444;0.333333;,
  1.000000;0.333333;,
  0.055556;0.388889;,
  0.000000;0.388889;,
  0.111111;0.388889;,
  0.166667;0.388889;,
  0.222222;0.388889;,
  0.277778;0.388889;,
  0.333333;0.388889;,
  0.388889;0.388889;,
  0.444444;0.388889;,
  0.500000;0.388889;,
  0.555556;0.388889;,
  0.611111;0.388889;,
  0.666667;0.388889;,
  0.722222;0.388889;,
  0.777778;0.388889;,
  0.833333;0.388889;,
  0.888889;0.388889;,
  0.944444;0.388889;,
  1.000000;0.388889;,
  0.055556;0.444444;,
  0.000000;0.444444;,
  0.111111;0.444444;,
  0.166667;0.444444;,
  0.222222;0.444444;,
  0.277778;0.444444;,
  0.333333;0.444444;,
  0.388889;0.444444;,
  0.444444;0.444444;,
  0.500000;0.444444;,
  0.555556;0.444444;,
  0.611111;0.444444;,
  0.666667;0.444444;,
  0.722222;0.444444;,
  0.777778;0.444444;,
  0.833333;0.444444;,
  0.888889;0.444444;,
  0.944444;0.444444;,
  1.000000;0.444444;,
  0.055556;0.500000;,
  0.000000;0.500000;,
  0.111111;0.500000;,
  0.166667;0.500000;,
  0.222222;0.500000;,
  0.277778;0.500000;,
  0.333333;0.500000;,
  0.388889;0.500000;,
  0.444444;0.500000;,
  0.500000;0.500000;,
  0.555556;0.500000;,
  0.611111;0.500000;,
  0.666667;0.500000;,
  0.722222;0.500000;,
  0.777778;0.500000;,
  0.833333;0.500000;,
  0.888889;0.500000;,
  0.944444;0.500000;,
  1.000000;0.500000;,
  0.055556;0.555556;,
  0.000000;0.555556;,
  0.111111;0.555556;,
  0.166667;0.555556;,
  0.222222;0.555556;,
  0.277778;0.555556;,
  0.333333;0.555556;,
  0.388889;0.555556;,
  0.444444;0.555556;,
  0.500000;0.555556;,
  0.555556;0.555556;,
  0.611111;0.555556;,
  0.666667;0.555556;,
  0.722222;0.555556;,
  0.777778;0.555556;,
  0.833333;0.555556;,
  0.888889;0.555556;,
  0.944444;0.555556;,
  1.000000;0.555556;,
  0.055556;0.611111;,
  0.000000;0.611111;,
  0.111111;0.611111;,
  0.166667;0.611111;,
  0.222222;0.611111;,
  0.277778;0.611111;,
  0.333333;0.611111;,
  0.388889;0.611111;,
  0.444444;0.611111;,
  0.500000;0.611111;,
  0.555556;0.611111;,
  0.611111;0.611111;,
  0.666667;0.611111;,
  0.722222;0.611111;,
  0.777778;0.611111;,
  0.833333;0.611111;,
  0.888889;0.611111;,
  0.944444;0.611111;,
  1.000000;0.611111;,
  0.055556;0.666667;,
  0.000000;0.666667;,
  0.111111;0.666667;,
  0.166667;0.666667;,
  0.222222;0.666667;,
  0.277778;0.666667;,
  0.333333;0.666667;,
  0.388889;0.666667;,
  0.444444;0.666667;,
  0.500000;0.666667;,
  0.555556;0.666667;,
  0.611111;0.666667;,
  0.666667;0.666667;,
  0.722222;0.666667;,
  0.777778;0.666667;,
  0.833333;0.666667;,
  0.888889;0.666667;,
  0.944444;0.666667;,
  1.000000;0.666667;,
  0.055556;0.722222;,
  0.000000;0.722222;,
  0.111111;0.722222;,
  0.166667;0.722222;,
  0.222222;0.722222;,
  0.277778;0.722222;,
  0.333333;0.722222;,
  0.388889;0.722222;,
  0.444444;0.722222;,
  0.500000;0.722222;,
  0.555556;0.722222;,
  0.611111;0.722222;,
  0.666667;0.722222;,
  0.722222;0.722222;,
  0.777778;0.722222;,
  0.833333;0.722222;,
  0.888889;0.722222;,
  0.944444;0.722222;,
  1.000000;0.722222;,
  0.055556;0.777778;,
  0.000000;0.777778;,
  0.111111;0.777778;,
  0.166667;0.777778;,
  0.222222;0.777778;,
  0.277778;0.777778;,
  0.333333;0.777778;,
  0.388889;0.777778;,
  0.444444;0.777778;,
  0.500000;0.777778;,
  0.555556;0.777778;,
  0.611111;0.777778;,
  0.666667;0.777778;,
  0.722222;0.777778;,
  0.777778;0.777778;,
  0.833333;0.777778;,
  0.888889;0.777778;,
  0.944444;0.777778;,
  1.000000;0.777778;,
  0.055556;0.833333;,
  0.000000;0.833333;,
  0.111111;0.833333;,
  0.166667;0.833333;,
  0.222222;0.833333;,
  0.277778;0.833333;,
  0.333333;0.833333;,
  0.388889;0.833333;,
  0.444444;0.833333;,
  0.500000;0.833333;,
  0.555556;0.833333;,
  0.611111;0.833333;,
  0.666667;0.833333;,
  0.722222;0.833333;,
  0.777778;0.833333;,
  0.833333;0.833333;,
  0.888889;0.833333;,
  0.944444;0.833333;,
  1.000000;0.833333;,
  0.055556;0.888889;,
  0.000000;0.888889;,
  0.111111;0.888889;,
  0.166667;0.888889;,
  0.222222;0.888889;,
  0.277778;0.888889;,
  0.333333;0.888889;,
  0.388889;0.888889;,
  0.444444;0.888889;,
  0.500000;0.888889;,
  0.555556;0.888889;,
  0.611111;0.888889;,
  0.666667;0.888889;,
  0.722222;0.888889;,
  0.777778;0.888889;,
  0.833333;0.888889;,
  0.888889;0.888889;,
  0.944444;0.888889;,
  1.000000;0.888889;,
  0.055556;0.944444;,
  0.000000;0.944444;,
  0.111111;0.944444;,
  0.166667;0.944444;,
  0.222222;0.944444;,
  0.277778;0.944444;,
  0.333333;0.944444;,
  0.388889;0.944444;,
  0.444444;0.944444;,
  0.500000;0.944444;,
  0.555556;0.944444;,
  0.611111;0.944444;,
  0.666667;0.944444;,
  0.722222;0.944444;,
  0.777778;0.944444;,
  0.833333;0.944444;,
  0.888889;0.944444;,
  0.944444;0.944444;,
  1.000000;0.944444;,
  0.055556;1.000000;,
  0.000000;1.000000;,
  0.111111;1.000000;,
  0.166667;1.000000;,
  0.222222;1.000000;,
  0.277778;1.000000;,
  0.333333;1.000000;,
  0.388889;1.000000;,
  0.444444;1.000000;,
  0.500000;1.000000;,
  0.555556;1.000000;,
  0.611111;1.000000;,
  0.666667;1.000000;,
  0.722222;1.000000;,
  0.777778;1.000000;,
  0.833333;1.000000;,
  0.888889;1.000000;,
  0.944444;1.000000;,
  1.000000;1.000000;;
 }
}
