xof 0302txt 0064
template Header {
 <3D82AB43-62DA-11cf-AB39-0020AF71E433>
 WORD major;
 WORD minor;
 DWORD flags;
}

template Vector {
 <3D82AB5E-62DA-11cf-AB39-0020AF71E433>
 FLOAT x;
 FLOAT y;
 FLOAT z;
}

template Coords2d {
 <F6F23F44-7686-11cf-8F52-0040333594A3>
 FLOAT u;
 FLOAT v;
}

template Matrix4x4 {
 <F6F23F45-7686-11cf-8F52-0040333594A3>
 array FLOAT matrix[16];
}

template ColorRGBA {
 <35FF44E0-6C7C-11cf-8F52-0040333594A3>
 FLOAT red;
 FLOAT green;
 FLOAT blue;
 FLOAT alpha;
}

template ColorRGB {
 <D3E16E81-7835-11cf-8F52-0040333594A3>
 FLOAT red;
 FLOAT green;
 FLOAT blue;
}

template IndexedColor {
 <1630B820-7842-11cf-8F52-0040333594A3>
 DWORD index;
 ColorRGBA indexColor;
}

template Boolean {
 <4885AE61-78E8-11cf-8F52-0040333594A3>
 WORD truefalse;
}

template Boolean2d {
 <4885AE63-78E8-11cf-8F52-0040333594A3>
 Boolean u;
 Boolean v;
}

template MaterialWrap {
 <4885AE60-78E8-11cf-8F52-0040333594A3>
 Boolean u;
 Boolean v;
}

template TextureFilename {
 <A42790E1-7810-11cf-8F52-0040333594A3>
 STRING filename;
}

template Material {
 <3D82AB4D-62DA-11cf-AB39-0020AF71E433>
 ColorRGBA faceColor;
 FLOAT power;
 ColorRGB specularColor;
 ColorRGB emissiveColor;
 [...]
}

template MeshFace {
 <3D82AB5F-62DA-11cf-AB39-0020AF71E433>
 DWORD nFaceVertexIndices;
 array DWORD faceVertexIndices[nFaceVertexIndices];
}

template MeshFaceWraps {
 <4885AE62-78E8-11cf-8F52-0040333594A3>
 DWORD nFaceWrapValues;
 Boolean2d faceWrapValues;
}

template MeshTextureCoords {
 <F6F23F40-7686-11cf-8F52-0040333594A3>
 DWORD nTextureCoords;
 array Coords2d textureCoords[nTextureCoords];
}

template MeshMaterialList {
 <F6F23F42-7686-11cf-8F52-0040333594A3>
 DWORD nMaterials;
 DWORD nFaceIndexes;
 array DWORD faceIndexes[nFaceIndexes];
 [Material]
}

template MeshNormals {
 <F6F23F43-7686-11cf-8F52-0040333594A3>
 DWORD nNormals;
 array Vector normals[nNormals];
 DWORD nFaceNormals;
 array MeshFace faceNormals[nFaceNormals];
}

template MeshVertexColors {
 <1630B821-7842-11cf-8F52-0040333594A3>
 DWORD nVertexColors;
 array IndexedColor vertexColors[nVertexColors];
}

template Mesh {
 <3D82AB44-62DA-11cf-AB39-0020AF71E433>
 DWORD nVertices;
 array Vector vertices[nVertices];
 DWORD nFaces;
 array MeshFace faces[nFaces];
 [...]
}

Header{
1;
0;
1;
}

Mesh {
 398;
 0.00000;49.85000;0.00000;,
 2.66417;49.17011;-7.76047;,
 0.00000;49.17011;-8.20504;,
 0.00000;49.85000;0.00000;,
 5.03964;49.17011;-6.47493;,
 0.00000;49.85000;0.00000;,
 6.86898;49.17011;-4.48773;,
 0.00000;49.85000;0.00000;,
 7.95397;49.17011;-2.01422;,
 0.00000;49.85000;0.00000;,
 8.17702;49.17011;0.67757;,
 0.00000;49.85000;0.00000;,
 7.51396;49.17011;3.29593;,
 0.00000;49.85000;0.00000;,
 6.03664;49.17011;5.55712;,
 0.00000;49.85000;0.00000;,
 3.90517;49.17011;7.21612;,
 0.00000;49.85000;0.00000;,
 1.35051;49.17011;8.09313;,
 0.00000;49.85000;0.00000;,
 -1.35051;49.17011;8.09313;,
 0.00000;49.85000;0.00000;,
 -3.90517;49.17011;7.21612;,
 0.00000;49.85000;0.00000;,
 -6.03664;49.17011;5.55712;,
 0.00000;49.85000;0.00000;,
 -7.51396;49.17011;3.29593;,
 0.00000;49.85000;0.00000;,
 -8.17702;49.17011;0.67756;,
 0.00000;49.85000;0.00000;,
 -7.95397;49.17011;-2.01422;,
 0.00000;49.85000;0.00000;,
 -6.86898;49.17011;-4.48774;,
 0.00000;49.85000;0.00000;,
 -5.03963;49.17011;-6.47494;,
 0.00000;49.85000;0.00000;,
 -2.66416;49.17011;-7.76047;,
 0.00000;49.85000;0.00000;,
 0.00000;49.17011;-8.20504;,
 5.25567;47.14899;-15.30925;,
 0.00000;47.14899;-16.18627;,
 9.94181;47.14899;-12.77324;,
 13.55060;47.14899;-8.85305;,
 15.69097;47.14899;-3.97349;,
 16.13098;47.14899;1.33665;,
 14.82295;47.14899;6.50195;,
 11.90862;47.14899;10.96266;,
 7.70381;47.14899;14.23540;,
 2.66417;47.14899;15.96551;,
 -2.66417;47.14899;15.96551;,
 -7.70381;47.14899;14.23540;,
 -11.90862;47.14899;10.96266;,
 -14.82295;47.14899;6.50195;,
 -16.13098;47.14899;1.33664;,
 -15.69097;47.14899;-3.97350;,
 -13.55059;47.14899;-8.85306;,
 -9.94180;47.14899;-12.77325;,
 -5.25565;47.14899;-15.30926;,
 0.00000;47.14899;-16.18627;,
 7.70381;43.84177;-22.44044;,
 0.00000;43.84177;-23.72598;,
 14.57280;43.84177;-18.72313;,
 19.86259;43.84177;-12.97688;,
 22.99997;43.84177;-5.82438;,
 23.64494;43.84177;1.95928;,
 21.72762;43.84177;9.53062;,
 17.45577;43.84177;16.06917;,
 11.29232;43.84177;20.86637;,
 3.90517;43.84177;23.40238;,
 -3.90517;43.84177;23.40238;,
 -11.29232;43.84177;20.86637;,
 -17.45577;43.84177;16.06917;,
 -21.72762;43.84177;9.53061;,
 -23.64494;43.84177;1.95927;,
 -22.99996;43.84177;-5.82440;,
 -19.86258;43.84177;-12.97690;,
 -14.57278;43.84177;-18.72315;,
 -7.70378;43.84177;-22.44045;,
 0.00000;43.84177;-23.72598;,
 9.94181;39.33865;-28.95951;,
 0.00000;39.33865;-30.61850;,
 18.80627;39.33865;-24.16230;,
 25.63278;39.33865;-16.74673;,
 29.68158;39.33865;-7.51640;,
 30.51393;39.33865;2.52846;,
 28.03961;39.33865;12.29931;,
 22.52677;39.33865;20.73735;,
 14.57280;39.33865;26.92817;,
 5.03964;39.33865;30.20091;,
 -5.03964;39.33865;30.20091;,
 -14.57280;39.33865;26.92817;,
 -22.52676;39.33865;20.73735;,
 -28.03961;39.33865;12.29931;,
 -30.51393;39.33865;2.52844;,
 -29.68158;39.33865;-7.51642;,
 -25.63277;39.33865;-16.74676;,
 -18.80625;39.33865;-24.16232;,
 -9.94177;39.33865;-28.95952;,
 0.00000;39.33865;-30.61850;,
 11.90862;33.76248;-34.68864;,
 0.00000;33.76248;-36.67584;,
 22.52677;33.76248;-28.94239;,
 30.70378;33.76248;-20.05978;,
 35.55356;33.76248;-9.00339;,
 36.55057;33.76248;3.02867;,
 33.58676;33.76248;14.73251;,
 26.98329;33.76248;24.83987;,
 17.45577;33.76248;32.25544;,
 6.03665;33.76248;36.17563;,
 -6.03664;33.76248;36.17563;,
 -17.45577;33.76248;32.25544;,
 -26.98329;33.76248;24.83987;,
 -33.58676;33.76248;14.73251;,
 -36.55057;33.76248;3.02865;,
 -35.55356;33.76248;-9.00341;,
 -30.70376;33.76248;-20.05981;,
 -22.52673;33.76248;-28.94242;,
 -11.90858;33.76248;-34.68866;,
 0.00000;33.76248;-36.67584;,
 13.55060;27.26537;-39.47155;,
 0.00000;27.26537;-41.73275;,
 25.63279;27.26537;-32.93300;,
 34.93726;27.26537;-22.82565;,
 40.45574;27.26537;-10.24479;,
 41.59021;27.26537;3.44626;,
 38.21774;27.26537;16.76385;,
 30.70378;27.26537;28.26482;,
 19.86259;27.26537;36.70286;,
 6.86899;27.26537;41.16357;,
 -6.86898;27.26537;41.16357;,
 -19.86259;27.26537;36.70286;,
 -30.70378;27.26537;28.26482;,
 -38.21774;27.26537;16.76385;,
 -41.59021;27.26537;3.44625;,
 -40.45573;27.26537;-10.24481;,
 -34.93724;27.26537;-22.82568;,
 -25.63275;27.26537;-32.93303;,
 -13.55055;27.26537;-39.47157;,
 0.00000;27.26537;-41.73275;,
 14.82295;20.02452;-43.17779;,
 0.00000;20.02452;-45.65130;,
 28.03961;20.02452;-36.02529;,
 38.21774;20.02452;-24.96889;,
 44.25438;20.02452;-11.20673;,
 45.49538;20.02452;3.76985;,
 41.80624;20.02452;18.33792;,
 33.58676;20.02452;30.91878;,
 21.72762;20.02452;40.14912;,
 7.51396;20.02452;45.02867;,
 -7.51396;20.02452;45.02867;,
 -21.72762;20.02452;40.14912;,
 -33.58675;20.02452;30.91879;,
 -41.80625;20.02452;18.33791;,
 -45.49538;20.02452;3.76983;,
 -44.25437;20.02452;-11.20676;,
 -38.21772;20.02452;-24.96893;,
 -28.03957;20.02452;-36.02532;,
 -14.82289;20.02452;-43.17781;,
 0.00000;20.02452;-45.65130;,
 15.69097;12.23745;-45.70624;,
 0.00000;12.23745;-48.32460;,
 29.68159;12.23745;-38.13490;,
 40.45574;12.23745;-26.43105;,
 46.84588;12.23745;-11.86299;,
 48.15955;12.23745;3.99061;,
 44.25438;12.23745;19.41177;,
 35.55357;12.23745;32.72936;,
 22.99997;12.23745;42.50022;,
 7.95397;12.23745;47.66552;,
 -7.95397;12.23745;47.66552;,
 -22.99997;12.23745;42.50022;,
 -35.55356;12.23745;32.72936;,
 -44.25439;12.23745;19.41176;,
 -48.15955;12.23745;3.99059;,
 -46.84588;12.23745;-11.86302;,
 -40.45572;12.23745;-26.43109;,
 -29.68154;12.23745;-38.13494;,
 -15.69091;12.23745;-45.70627;,
 0.00000;12.23745;-48.32460;,
 16.13098;4.11658;-46.98795;,
 0.00000;4.11658;-49.67974;,
 30.51393;4.11658;-39.20429;,
 41.59021;4.11658;-27.17224;,
 48.15955;4.11658;-12.19566;,
 49.51006;4.11658;4.10252;,
 45.49538;4.11658;19.95612;,
 36.55057;4.11658;33.64717;,
 23.64494;4.11658;43.69202;,
 8.17702;4.11658;49.00217;,
 -8.17701;4.11658;49.00217;,
 -23.64494;4.11658;43.69203;,
 -36.55057;4.11658;33.64717;,
 -45.49538;4.11658;19.95611;,
 -49.51006;4.11658;4.10250;,
 -48.15954;4.11658;-12.19569;,
 -41.59018;4.11658;-27.17228;,
 -30.51388;4.11658;-39.20433;,
 -16.13092;4.11658;-46.98797;,
 0.00000;4.11658;-49.67974;,
 16.13098;-4.11658;-46.98795;,
 0.00000;-4.11658;-49.67974;,
 30.51393;-4.11658;-39.20429;,
 41.59021;-4.11658;-27.17224;,
 48.15955;-4.11658;-12.19566;,
 49.51006;-4.11658;4.10252;,
 45.49538;-4.11658;19.95612;,
 36.55057;-4.11658;33.64717;,
 23.64494;-4.11658;43.69202;,
 8.17702;-4.11658;49.00217;,
 -8.17701;-4.11658;49.00217;,
 -23.64494;-4.11658;43.69203;,
 -36.55057;-4.11658;33.64717;,
 -45.49538;-4.11658;19.95611;,
 -49.51006;-4.11658;4.10250;,
 -48.15954;-4.11658;-12.19569;,
 -41.59018;-4.11658;-27.17228;,
 -30.51388;-4.11658;-39.20433;,
 -16.13092;-4.11658;-46.98797;,
 0.00000;-4.11658;-49.67974;,
 15.69097;-12.23745;-45.70624;,
 0.00000;-12.23745;-48.32460;,
 29.68159;-12.23745;-38.13490;,
 40.45574;-12.23745;-26.43105;,
 46.84588;-12.23745;-11.86299;,
 48.15955;-12.23745;3.99061;,
 44.25438;-12.23745;19.41177;,
 35.55357;-12.23745;32.72936;,
 22.99997;-12.23745;42.50022;,
 7.95397;-12.23745;47.66552;,
 -7.95397;-12.23745;47.66552;,
 -22.99997;-12.23745;42.50022;,
 -35.55356;-12.23745;32.72936;,
 -44.25439;-12.23745;19.41176;,
 -48.15955;-12.23745;3.99059;,
 -46.84588;-12.23745;-11.86302;,
 -40.45572;-12.23745;-26.43109;,
 -29.68154;-12.23745;-38.13494;,
 -15.69091;-12.23745;-45.70627;,
 0.00000;-12.23745;-48.32460;,
 14.82295;-20.02452;-43.17779;,
 0.00000;-20.02452;-45.65130;,
 28.03961;-20.02452;-36.02529;,
 38.21774;-20.02452;-24.96889;,
 44.25438;-20.02452;-11.20673;,
 45.49538;-20.02452;3.76985;,
 41.80624;-20.02452;18.33792;,
 33.58676;-20.02452;30.91878;,
 21.72762;-20.02452;40.14912;,
 7.51396;-20.02452;45.02867;,
 -7.51396;-20.02452;45.02867;,
 -21.72762;-20.02452;40.14912;,
 -33.58675;-20.02452;30.91879;,
 -41.80625;-20.02452;18.33791;,
 -45.49538;-20.02452;3.76983;,
 -44.25437;-20.02452;-11.20676;,
 -38.21772;-20.02452;-24.96893;,
 -28.03957;-20.02452;-36.02532;,
 -14.82289;-20.02452;-43.17781;,
 0.00000;-20.02452;-45.65130;,
 13.55060;-27.26537;-39.47155;,
 0.00000;-27.26537;-41.73275;,
 25.63278;-27.26537;-32.93300;,
 34.93726;-27.26537;-22.82565;,
 40.45574;-27.26537;-10.24478;,
 41.59021;-27.26537;3.44626;,
 38.21774;-27.26537;16.76385;,
 30.70378;-27.26537;28.26482;,
 19.86259;-27.26537;36.70286;,
 6.86899;-27.26537;41.16357;,
 -6.86898;-27.26537;41.16357;,
 -19.86259;-27.26537;36.70286;,
 -30.70378;-27.26537;28.26482;,
 -38.21774;-27.26537;16.76385;,
 -41.59021;-27.26537;3.44625;,
 -40.45573;-27.26537;-10.24481;,
 -34.93724;-27.26537;-22.82568;,
 -25.63275;-27.26537;-32.93303;,
 -13.55055;-27.26537;-39.47157;,
 0.00000;-27.26537;-41.73275;,
 11.90862;-33.76249;-34.68864;,
 0.00000;-33.76249;-36.67583;,
 22.52676;-33.76249;-28.94239;,
 30.70378;-33.76249;-20.05978;,
 35.55356;-33.76249;-9.00339;,
 36.55056;-33.76249;3.02867;,
 33.58675;-33.76249;14.73251;,
 26.98329;-33.76249;24.83986;,
 17.45577;-33.76249;32.25543;,
 6.03664;-33.76249;36.17562;,
 -6.03664;-33.76249;36.17562;,
 -17.45576;-33.76249;32.25543;,
 -26.98329;-33.76249;24.83987;,
 -33.58675;-33.76249;14.73251;,
 -36.55056;-33.76249;3.02865;,
 -35.55355;-33.76249;-9.00341;,
 -30.70376;-33.76249;-20.05981;,
 -22.52673;-33.76249;-28.94241;,
 -11.90858;-33.76249;-34.68865;,
 0.00000;-33.76249;-36.67583;,
 9.94181;-39.33866;-28.95950;,
 0.00000;-39.33866;-30.61849;,
 18.80627;-39.33866;-24.16229;,
 25.63277;-39.33866;-16.74673;,
 29.68157;-39.33866;-7.51640;,
 30.51391;-39.33866;2.52845;,
 28.03960;-39.33866;12.29931;,
 22.52676;-39.33866;20.73734;,
 14.57279;-39.33866;26.92816;,
 5.03964;-39.33866;30.20089;,
 -5.03964;-39.33866;30.20089;,
 -14.57279;-39.33866;26.92816;,
 -22.52675;-39.33866;20.73734;,
 -28.03960;-39.33866;12.29930;,
 -30.51391;-39.33866;2.52844;,
 -29.68157;-39.33866;-7.51641;,
 -25.63276;-39.33866;-16.74675;,
 -18.80624;-39.33866;-24.16231;,
 -9.94177;-39.33866;-28.95951;,
 0.00000;-39.33866;-30.61849;,
 7.70381;-43.84178;-22.44042;,
 0.00000;-43.84178;-23.72596;,
 14.57278;-43.84178;-18.72311;,
 19.86258;-43.84178;-12.97687;,
 22.99995;-43.84178;-5.82438;,
 23.64492;-43.84178;1.95927;,
 21.72760;-43.84178;9.53061;,
 17.45575;-43.84178;16.06915;,
 11.29231;-43.84178;20.86636;,
 3.90517;-43.84178;23.40237;,
 -3.90516;-43.84178;23.40237;,
 -11.29231;-43.84178;20.86636;,
 -17.45575;-43.84178;16.06915;,
 -21.72760;-43.84178;9.53060;,
 -23.64492;-43.84178;1.95926;,
 -22.99995;-43.84178;-5.82439;,
 -19.86256;-43.84178;-12.97689;,
 -14.57276;-43.84178;-18.72313;,
 -7.70378;-43.84178;-22.44043;,
 0.00000;-43.84178;-23.72596;,
 5.25566;-47.14900;-15.30923;,
 0.00000;-47.14900;-16.18624;,
 9.94180;-47.14900;-12.77322;,
 13.55058;-47.14900;-8.85303;,
 15.69095;-47.14900;-3.97349;,
 16.13096;-47.14900;1.33665;,
 14.82293;-47.14900;6.50194;,
 11.90861;-47.14900;10.96264;,
 7.70380;-47.14900;14.23537;,
 2.66417;-47.14900;15.96548;,
 -2.66417;-47.14900;15.96548;,
 -7.70380;-47.14900;14.23537;,
 -11.90860;-47.14900;10.96264;,
 -14.82293;-47.14900;6.50194;,
 -16.13096;-47.14900;1.33664;,
 -15.69094;-47.14900;-3.97350;,
 -13.55057;-47.14900;-8.85305;,
 -9.94178;-47.14900;-12.77323;,
 -5.25564;-47.14900;-15.30923;,
 0.00000;-47.14900;-16.18624;,
 2.66416;-49.17012;-7.76044;,
 0.00000;-49.17012;-8.20501;,
 5.03962;-49.17012;-6.47490;,
 6.86896;-49.17012;-4.48771;,
 7.95394;-49.17012;-2.01421;,
 8.17698;-49.17012;0.67756;,
 7.51393;-49.17012;3.29591;,
 6.03662;-49.17012;5.55710;,
 3.90515;-49.17012;7.21609;,
 1.35050;-49.17012;8.09310;,
 -1.35050;-49.17012;8.09310;,
 -3.90515;-49.17012;7.21609;,
 -6.03662;-49.17012;5.55710;,
 -7.51393;-49.17012;3.29591;,
 -8.17698;-49.17012;0.67756;,
 -7.95393;-49.17012;-2.01422;,
 -6.86895;-49.17012;-4.48772;,
 -5.03961;-49.17012;-6.47491;,
 -2.66415;-49.17012;-7.76044;,
 0.00000;-49.17012;-8.20501;,
 0.00000;-49.85000;-0.00000;,
 0.00000;-49.85000;-0.00000;,
 0.00000;-49.85000;-0.00000;,
 0.00000;-49.85000;-0.00000;,
 0.00000;-49.85000;-0.00000;,
 0.00000;-49.85000;-0.00000;,
 0.00000;-49.85000;-0.00000;,
 0.00000;-49.85000;-0.00000;,
 0.00000;-49.85000;-0.00000;,
 0.00000;-49.85000;-0.00000;,
 0.00000;-49.85000;-0.00000;,
 0.00000;-49.85000;-0.00000;,
 0.00000;-49.85000;-0.00000;,
 0.00000;-49.85000;-0.00000;,
 0.00000;-49.85000;-0.00000;,
 0.00000;-49.85000;-0.00000;,
 0.00000;-49.85000;-0.00000;,
 0.00000;-49.85000;-0.00000;,
 0.00000;-49.85000;-0.00000;;
 
 361;
 3;0,1,2;,
 3;3,4,1;,
 3;5,6,4;,
 3;7,8,6;,
 3;9,10,8;,
 3;11,12,10;,
 3;13,14,12;,
 3;15,16,14;,
 3;17,18,16;,
 3;19,20,18;,
 3;21,22,20;,
 3;23,24,22;,
 3;25,26,24;,
 3;27,28,26;,
 3;29,30,28;,
 3;31,32,30;,
 3;33,34,32;,
 3;35,36,34;,
 3;37,38,36;,
 4;2,1,39,40;,
 4;1,4,41,39;,
 4;4,6,42,41;,
 4;6,8,43,42;,
 4;8,10,44,43;,
 4;10,12,45,44;,
 4;12,14,46,45;,
 4;14,16,47,46;,
 4;16,18,48,47;,
 4;18,20,49,48;,
 4;20,22,50,49;,
 4;22,24,51,50;,
 4;24,26,52,51;,
 4;26,28,53,52;,
 4;28,30,54,53;,
 4;30,32,55,54;,
 4;32,34,56,55;,
 4;34,36,57,56;,
 4;36,38,58,57;,
 4;40,39,59,60;,
 4;39,41,61,59;,
 4;41,42,62,61;,
 4;42,43,63,62;,
 4;43,44,64,63;,
 4;44,45,65,64;,
 4;45,46,66,65;,
 4;46,47,67,66;,
 4;47,48,68,67;,
 4;48,49,69,68;,
 4;49,50,70,69;,
 4;50,51,71,70;,
 4;51,52,72,71;,
 4;52,53,73,72;,
 4;53,54,74,73;,
 4;54,55,75,74;,
 4;55,56,76,75;,
 4;56,57,77,76;,
 4;57,58,78,77;,
 4;60,59,79,80;,
 4;59,61,81,79;,
 4;61,62,82,81;,
 4;62,63,83,82;,
 4;63,64,84,83;,
 4;64,65,85,84;,
 4;65,66,86,85;,
 4;66,67,87,86;,
 4;67,68,88,87;,
 4;68,69,89,88;,
 4;69,70,90,89;,
 4;70,71,91,90;,
 4;71,72,92,91;,
 4;72,73,93,92;,
 4;73,74,94,93;,
 4;74,75,95,94;,
 4;75,76,96,95;,
 4;76,77,97,96;,
 4;77,78,98,97;,
 4;80,79,99,100;,
 4;79,81,101,99;,
 4;81,82,102,101;,
 4;82,83,103,102;,
 4;83,84,104,103;,
 4;84,85,105,104;,
 4;85,86,106,105;,
 4;86,87,107,106;,
 4;87,88,108,107;,
 4;88,89,109,108;,
 4;89,90,110,109;,
 4;90,91,111,110;,
 4;91,92,112,111;,
 4;92,93,113,112;,
 4;93,94,114,113;,
 4;94,95,115,114;,
 4;95,96,116,115;,
 4;96,97,117,116;,
 4;97,98,118,117;,
 4;100,99,119,120;,
 4;99,101,121,119;,
 4;101,102,122,121;,
 4;102,103,123,122;,
 4;103,104,124,123;,
 4;104,105,125,124;,
 4;105,106,126,125;,
 4;106,107,127,126;,
 4;107,108,128,127;,
 4;108,109,129,128;,
 4;109,110,130,129;,
 4;110,111,131,130;,
 4;111,112,132,131;,
 4;112,113,133,132;,
 4;113,114,134,133;,
 4;114,115,135,134;,
 4;115,116,136,135;,
 4;116,117,137,136;,
 4;117,118,138,137;,
 4;120,119,139,140;,
 4;119,121,141,139;,
 4;121,122,142,141;,
 4;122,123,143,142;,
 4;123,124,144,143;,
 4;124,125,145,144;,
 4;125,126,146,145;,
 4;126,127,147,146;,
 4;127,128,148,147;,
 4;128,129,149,148;,
 4;129,130,150,149;,
 4;130,131,151,150;,
 4;131,132,152,151;,
 4;132,133,153,152;,
 4;133,134,154,153;,
 4;134,135,155,154;,
 4;135,136,156,155;,
 4;136,137,157,156;,
 4;137,138,158,157;,
 4;140,139,159,160;,
 4;139,141,161,159;,
 4;141,142,162,161;,
 4;142,143,163,162;,
 4;143,144,164,163;,
 4;144,145,165,164;,
 4;145,146,166,165;,
 4;146,147,167,166;,
 4;147,148,168,167;,
 4;148,149,169,168;,
 4;149,150,170,169;,
 4;150,151,171,170;,
 4;151,152,172,171;,
 4;152,153,173,172;,
 4;153,154,174,173;,
 4;154,155,175,174;,
 4;155,156,176,175;,
 4;156,157,177,176;,
 4;157,158,178,177;,
 4;160,159,179,180;,
 4;159,161,181,179;,
 4;161,162,182,181;,
 4;162,163,183,182;,
 4;163,164,184,183;,
 4;164,165,185,184;,
 4;165,166,186,185;,
 4;166,167,187,186;,
 4;167,168,188,187;,
 4;168,169,189,188;,
 4;169,170,190,189;,
 4;170,171,191,190;,
 4;171,172,192,191;,
 4;172,173,193,192;,
 4;173,174,194,193;,
 4;174,175,195,194;,
 4;175,176,196,195;,
 4;176,177,197,196;,
 4;177,178,198,197;,
 4;180,179,199,200;,
 4;179,181,201,199;,
 4;181,182,202,201;,
 4;182,183,203,202;,
 4;183,184,204,203;,
 4;184,185,205,204;,
 4;185,186,206,205;,
 4;186,187,207,206;,
 4;187,188,208,207;,
 4;188,189,209,208;,
 4;189,190,210,209;,
 4;190,191,211,210;,
 4;191,192,212,211;,
 4;192,193,213,212;,
 4;193,194,214,213;,
 4;194,195,215,214;,
 4;195,196,216,215;,
 4;196,197,217,216;,
 4;197,198,218,217;,
 4;200,199,219,220;,
 4;199,201,221,219;,
 4;201,202,222,221;,
 4;202,203,223,222;,
 4;203,204,224,223;,
 4;204,205,225,224;,
 4;205,206,226,225;,
 4;206,207,227,226;,
 4;207,208,228,227;,
 4;208,209,229,228;,
 4;209,210,230,229;,
 4;210,211,231,230;,
 4;211,212,232,231;,
 4;212,213,233,232;,
 4;213,214,234,233;,
 4;214,215,235,234;,
 4;215,216,236,235;,
 4;216,217,237,236;,
 4;217,218,238,237;,
 4;220,219,239,240;,
 4;219,221,241,239;,
 4;221,222,242,241;,
 4;222,223,243,242;,
 4;223,224,244,243;,
 4;224,225,245,244;,
 4;225,226,246,245;,
 4;226,227,247,246;,
 4;227,228,248,247;,
 4;228,229,249,248;,
 4;229,230,250,249;,
 4;230,231,251,250;,
 4;231,232,252,251;,
 4;232,233,253,252;,
 4;233,234,254,253;,
 4;234,235,255,254;,
 4;235,236,256,255;,
 4;236,237,257,256;,
 4;237,238,258,257;,
 4;240,239,259,260;,
 4;239,241,261,259;,
 4;241,242,262,261;,
 4;242,243,263,262;,
 4;243,244,264,263;,
 4;244,245,265,264;,
 4;245,246,266,265;,
 4;246,247,267,266;,
 4;247,248,268,267;,
 4;248,249,269,268;,
 4;249,250,270,269;,
 4;250,251,271,270;,
 4;251,252,272,271;,
 4;252,253,273,272;,
 4;253,254,274,273;,
 4;254,255,275,274;,
 4;255,256,276,275;,
 4;256,257,277,276;,
 4;257,258,278,277;,
 4;260,259,279,280;,
 4;259,261,281,279;,
 4;261,262,282,281;,
 4;262,263,283,282;,
 4;263,264,284,283;,
 4;264,265,285,284;,
 4;265,266,286,285;,
 4;266,267,287,286;,
 4;267,268,288,287;,
 4;268,269,289,288;,
 4;269,270,290,289;,
 4;270,271,291,290;,
 4;271,272,292,291;,
 4;272,273,293,292;,
 4;273,274,294,293;,
 4;274,275,295,294;,
 4;275,276,296,295;,
 4;276,277,297,296;,
 4;277,278,298,297;,
 4;280,279,299,300;,
 4;279,281,301,299;,
 4;281,282,302,301;,
 4;282,283,303,302;,
 4;283,284,304,303;,
 4;284,285,305,304;,
 4;285,286,306,305;,
 4;286,287,307,306;,
 4;287,288,308,307;,
 4;288,289,309,308;,
 4;289,290,310,309;,
 4;290,291,311,310;,
 4;291,292,312,311;,
 4;292,293,313,312;,
 4;293,294,314,313;,
 4;294,295,315,314;,
 4;295,296,316,315;,
 4;296,297,317,316;,
 4;297,298,318,317;,
 4;300,299,319,320;,
 4;299,301,321,319;,
 4;301,302,322,321;,
 4;302,303,323,322;,
 4;303,304,324,323;,
 4;304,305,325,324;,
 4;305,306,326,325;,
 4;306,307,327,326;,
 4;307,308,328,327;,
 4;308,309,329,328;,
 4;309,310,330,329;,
 4;310,311,331,330;,
 4;311,312,332,331;,
 4;312,313,333,332;,
 4;313,314,334,333;,
 4;314,315,335,334;,
 4;315,316,336,335;,
 4;316,317,337,336;,
 4;317,318,338,337;,
 4;320,319,339,340;,
 4;319,321,341,339;,
 4;321,322,342,341;,
 4;322,323,343,342;,
 4;323,324,344,343;,
 4;324,325,345,344;,
 4;325,326,346,345;,
 4;326,327,347,346;,
 4;327,328,348,347;,
 4;328,329,349,348;,
 4;329,330,350,349;,
 4;330,331,351,350;,
 4;331,332,352,351;,
 4;332,333,353,352;,
 4;333,334,354,353;,
 4;334,335,355,354;,
 4;335,336,356,355;,
 4;336,337,357,356;,
 4;337,338,358,357;,
 4;340,339,359,360;,
 4;339,341,361,359;,
 4;341,342,362,361;,
 4;342,343,363,362;,
 4;343,344,364,363;,
 4;344,345,365,364;,
 4;345,346,366,365;,
 4;346,347,367,366;,
 4;347,348,368,367;,
 4;348,349,369,368;,
 4;349,350,370,369;,
 4;350,351,371,370;,
 4;351,352,372,371;,
 4;352,353,373,372;,
 4;353,354,374,373;,
 4;354,355,375,374;,
 4;355,356,376,375;,
 4;356,357,377,376;,
 4;357,358,378,377;,
 3;360,359,379;,
 3;359,361,380;,
 3;361,362,381;,
 3;362,363,382;,
 3;363,364,383;,
 3;364,365,384;,
 3;365,366,385;,
 3;366,367,386;,
 3;367,368,387;,
 3;368,369,388;,
 3;369,370,389;,
 3;370,371,390;,
 3;371,372,391;,
 3;372,373,392;,
 3;373,374,393;,
 3;374,375,394;,
 3;375,376,395;,
 3;376,377,396;,
 3;377,378,397;;
 
 MeshMaterialList {
  1;
  361;
  0,
  0,
  0,
  0,
  0,
  0,
  0,
  0,
  0,
  0,
  0,
  0,
  0,
  0,
  0,
  0,
  0,
  0,
  0,
  0,
  0,
  0,
  0,
  0,
  0,
  0,
  0,
  0,
  0,
  0,
  0,
  0,
  0,
  0,
  0,
  0,
  0,
  0,
  0,
  0,
  0,
  0,
  0,
  0,
  0,
  0,
  0,
  0,
  0,
  0,
  0,
  0,
  0,
  0,
  0,
  0,
  0,
  0,
  0,
  0,
  0,
  0,
  0,
  0,
  0,
  0,
  0,
  0,
  0,
  0,
  0,
  0,
  0,
  0,
  0,
  0,
  0,
  0,
  0,
  0,
  0,
  0,
  0,
  0,
  0,
  0,
  0,
  0,
  0,
  0,
  0,
  0,
  0,
  0,
  0,
  0,
  0,
  0,
  0,
  0,
  0,
  0,
  0,
  0,
  0,
  0,
  0,
  0,
  0,
  0,
  0,
  0,
  0,
  0,
  0,
  0,
  0,
  0,
  0,
  0,
  0,
  0,
  0,
  0,
  0,
  0,
  0,
  0,
  0,
  0,
  0,
  0,
  0,
  0,
  0,
  0,
  0,
  0,
  0,
  0,
  0,
  0,
  0,
  0,
  0,
  0,
  0,
  0,
  0,
  0,
  0,
  0,
  0,
  0,
  0,
  0,
  0,
  0,
  0,
  0,
  0,
  0,
  0,
  0,
  0,
  0,
  0,
  0,
  0,
  0,
  0,
  0,
  0,
  0,
  0,
  0,
  0,
  0,
  0,
  0,
  0,
  0,
  0,
  0,
  0,
  0,
  0,
  0,
  0,
  0,
  0,
  0,
  0,
  0,
  0,
  0,
  0,
  0,
  0,
  0,
  0,
  0,
  0,
  0,
  0,
  0,
  0,
  0,
  0,
  0,
  0,
  0,
  0,
  0,
  0,
  0,
  0,
  0,
  0,
  0,
  0,
  0,
  0,
  0,
  0,
  0,
  0,
  0,
  0,
  0,
  0,
  0,
  0,
  0,
  0,
  0,
  0,
  0,
  0,
  0,
  0,
  0,
  0,
  0,
  0,
  0,
  0,
  0,
  0,
  0,
  0,
  0,
  0,
  0,
  0,
  0,
  0,
  0,
  0,
  0,
  0,
  0,
  0,
  0,
  0,
  0,
  0,
  0,
  0,
  0,
  0,
  0,
  0,
  0,
  0,
  0,
  0,
  0,
  0,
  0,
  0,
  0,
  0,
  0,
  0,
  0,
  0,
  0,
  0,
  0,
  0,
  0,
  0,
  0,
  0,
  0,
  0,
  0,
  0,
  0,
  0,
  0,
  0,
  0,
  0,
  0,
  0,
  0,
  0,
  0,
  0,
  0,
  0,
  0,
  0,
  0,
  0,
  0,
  0,
  0,
  0,
  0,
  0,
  0,
  0,
  0,
  0,
  0,
  0,
  0,
  0,
  0,
  0,
  0,
  0,
  0,
  0,
  0,
  0,
  0,
  0,
  0,
  0,
  0,
  0,
  0,
  0,
  0,
  0,
  0,
  0,
  0,
  0,
  0,
  0,
  0,
  0,
  0,
  0,
  0,
  0;;
  Material {
   0.800000;0.800000;0.800000;1.000000;;
   5.000000;
   0.000000;0.000000;0.000000;;
   0.000000;0.000000;0.000000;;
   TextureFilename {
    "data\\TEXTURE\\stone.png";
   }
  }
 }
 MeshNormals {
  344;
  0.000000;1.000000;-0.000000;,
  0.000000;0.986366;-0.164564;,
  0.053434;0.986366;-0.155648;,
  0.101077;0.986366;-0.129864;,
  0.137768;0.986366;-0.090008;,
  0.159529;0.986366;-0.040398;,
  0.164002;0.986366;0.013590;,
  0.150703;0.986366;0.066105;,
  0.121074;0.986366;0.111456;,
  0.078324;0.986366;0.144730;,
  0.027086;0.986366;0.162320;,
  -0.027086;0.986366;0.162320;,
  -0.078324;0.986366;0.144730;,
  -0.121074;0.986366;0.111456;,
  -0.150703;0.986366;0.066105;,
  -0.164002;0.986366;0.013590;,
  -0.159529;0.986366;-0.040398;,
  -0.137768;0.986366;-0.090008;,
  -0.101077;0.986366;-0.129864;,
  -0.053434;0.986366;-0.155648;,
  0.000000;0.945836;-0.324644;,
  0.105412;0.945836;-0.307054;,
  0.199401;0.945836;-0.256190;,
  0.271781;0.945836;-0.177564;,
  0.314710;0.945836;-0.079696;,
  0.323536;0.945836;0.026809;,
  0.297301;0.945836;0.130408;,
  0.238849;0.945836;0.219876;,
  0.154514;0.945836;0.285516;,
  0.053435;0.945836;0.320217;,
  -0.053435;0.945836;0.320217;,
  -0.154514;0.945836;0.285516;,
  -0.238849;0.945836;0.219876;,
  -0.297301;0.945836;0.130408;,
  -0.323536;0.945836;0.026809;,
  -0.314710;0.945836;-0.079696;,
  -0.271781;0.945836;-0.177564;,
  -0.199400;0.945836;-0.256190;,
  -0.105411;0.945836;-0.307054;,
  0.000000;0.879511;-0.475878;,
  0.154517;0.879511;-0.450094;,
  0.292291;0.879511;-0.375535;,
  0.398389;0.879511;-0.260281;,
  0.461316;0.879511;-0.116821;,
  0.474253;0.879511;0.039298;,
  0.435796;0.879511;0.191158;,
  0.350115;0.879511;0.322303;,
  0.226493;0.879511;0.418522;,
  0.078327;0.879511;0.469388;,
  -0.078327;0.879511;0.469388;,
  -0.226493;0.879511;0.418522;,
  -0.350115;0.879511;0.322303;,
  -0.435796;0.879511;0.191158;,
  -0.474253;0.879511;0.039297;,
  -0.461316;0.879511;-0.116821;,
  -0.398389;0.879511;-0.260281;,
  -0.292290;0.879511;-0.375535;,
  -0.154517;0.879511;-0.450094;,
  0.000000;0.789196;-0.614141;,
  0.199411;0.789196;-0.580865;,
  0.377213;0.789196;-0.484644;,
  0.514139;0.789196;-0.335903;,
  0.595349;0.789196;-0.150763;,
  0.612044;0.789196;0.050715;,
  0.562414;0.789196;0.246698;,
  0.451838;0.789196;0.415947;,
  0.292299;0.789196;0.540121;,
  0.101084;0.789196;0.605765;,
  -0.101084;0.789196;0.605765;,
  -0.292299;0.789196;0.540121;,
  -0.451838;0.789196;0.415947;,
  -0.562414;0.789196;0.246698;,
  -0.612044;0.789196;0.050715;,
  -0.595348;0.789196;-0.150763;,
  -0.514138;0.789196;-0.335904;,
  -0.377213;0.789196;-0.484644;,
  -0.199411;0.789196;-0.580866;,
  0.000000;0.677350;-0.735661;,
  0.238869;0.677350;-0.695800;,
  0.451852;0.677350;-0.580539;,
  0.615870;0.677351;-0.402368;,
  0.713149;0.677350;-0.180594;,
  0.733148;0.677350;0.060750;,
  0.673698;0.677350;0.295512;,
  0.541243;0.677350;0.498249;,
  0.350136;0.677350;0.646994;,
  0.121086;0.677350;0.725627;,
  -0.121086;0.677350;0.725627;,
  -0.350136;0.677350;0.646994;,
  -0.541243;0.677350;0.498249;,
  -0.673698;0.677350;0.295511;,
  -0.733148;0.677350;0.060750;,
  -0.713150;0.677350;-0.180595;,
  -0.615870;0.677350;-0.402369;,
  -0.451851;0.677350;-0.580540;,
  -0.238868;0.677350;-0.695801;,
  0.000000;0.547020;-0.837120;,
  0.271812;0.547020;-0.791762;,
  0.514170;0.547020;-0.660605;,
  0.700809;0.547020;-0.457861;,
  0.811504;0.547020;-0.205501;,
  0.834260;0.547020;0.069129;,
  0.766612;0.547020;0.336267;,
  0.615889;0.547020;0.566966;,
  0.398425;0.547020;0.736225;,
  0.137785;0.547020;0.825703;,
  -0.137785;0.547020;0.825703;,
  -0.398425;0.547020;0.736225;,
  -0.615889;0.547020;0.566966;,
  -0.766612;0.547020;0.336267;,
  -0.834260;0.547020;0.069128;,
  -0.811504;0.547020;-0.205501;,
  -0.700808;0.547020;-0.457862;,
  -0.514169;0.547020;-0.660606;,
  -0.271812;0.547020;-0.791762;,
  0.000000;0.401758;-0.915746;,
  0.297342;0.401758;-0.866128;,
  0.562463;0.401758;-0.722652;,
  0.766632;0.401758;-0.500865;,
  0.887724;0.401758;-0.224802;,
  0.912618;0.401758;0.075622;,
  0.838616;0.401758;0.367851;,
  0.673736;0.401758;0.620218;,
  0.435847;0.401758;0.805375;,
  0.150727;0.401758;0.903256;,
  -0.150727;0.401758;0.903256;,
  -0.435847;0.401758;0.805375;,
  -0.673736;0.401758;0.620218;,
  -0.838616;0.401758;0.367851;,
  -0.912618;0.401758;0.075621;,
  -0.887724;0.401758;-0.224803;,
  -0.766631;0.401758;-0.500866;,
  -0.562462;0.401758;-0.722653;,
  -0.297341;0.401758;-0.866129;,
  0.000000;0.245528;-0.969389;,
  0.314760;0.245528;-0.916865;,
  0.595411;0.245528;-0.764985;,
  0.811540;0.245528;-0.530206;,
  0.939726;0.245528;-0.237971;,
  0.966078;0.245528;0.080051;,
  0.887741;0.245528;0.389399;,
  0.713203;0.245528;0.656550;,
  0.461378;0.245528;0.852553;,
  0.159556;0.245528;0.956168;,
  -0.159556;0.245528;0.956168;,
  -0.461379;0.245528;0.852553;,
  -0.713203;0.245528;0.656550;,
  -0.887741;0.245528;0.389399;,
  -0.966079;0.245528;0.080051;,
  -0.939726;0.245528;-0.237972;,
  -0.811540;0.245528;-0.530207;,
  -0.595410;0.245528;-0.764985;,
  -0.314759;0.245528;-0.916866;,
  0.000000;0.082594;-0.996583;,
  0.323590;0.082595;-0.942586;,
  0.612114;0.082595;-0.786444;,
  0.834306;0.082595;-0.545079;,
  0.966088;0.082595;-0.244647;,
  0.993179;0.082595;0.082297;,
  0.912644;0.082595;0.400323;,
  0.733210;0.082594;0.674967;,
  0.474321;0.082594;0.876469;,
  0.164032;0.082594;0.982991;,
  -0.164032;0.082594;0.982991;,
  -0.474321;0.082595;0.876469;,
  -0.733210;0.082595;0.674967;,
  -0.912644;0.082594;0.400323;,
  -0.993179;0.082594;0.082297;,
  -0.966088;0.082594;-0.244647;,
  -0.834306;0.082594;-0.545080;,
  -0.612113;0.082594;-0.786445;,
  -0.323589;0.082594;-0.942586;,
  0.000000;-0.082594;-0.996583;,
  0.323590;-0.082595;-0.942586;,
  0.612114;-0.082595;-0.786444;,
  0.834306;-0.082595;-0.545079;,
  0.966088;-0.082595;-0.244647;,
  0.993179;-0.082595;0.082297;,
  0.912644;-0.082595;0.400323;,
  0.733210;-0.082594;0.674968;,
  0.474321;-0.082594;0.876469;,
  0.164032;-0.082594;0.982991;,
  -0.164032;-0.082594;0.982991;,
  -0.474321;-0.082595;0.876469;,
  -0.733210;-0.082595;0.674967;,
  -0.912644;-0.082594;0.400323;,
  -0.993179;-0.082594;0.082297;,
  -0.966088;-0.082594;-0.244647;,
  -0.834306;-0.082594;-0.545080;,
  -0.612113;-0.082594;-0.786445;,
  -0.323589;-0.082594;-0.942586;,
  0.000000;-0.245528;-0.969389;,
  0.314760;-0.245528;-0.916865;,
  0.595411;-0.245528;-0.764985;,
  0.811540;-0.245528;-0.530206;,
  0.939726;-0.245528;-0.237971;,
  0.966078;-0.245528;0.080051;,
  0.887741;-0.245528;0.389399;,
  0.713203;-0.245528;0.656550;,
  0.461378;-0.245528;0.852553;,
  0.159556;-0.245528;0.956168;,
  -0.159556;-0.245528;0.956168;,
  -0.461379;-0.245528;0.852553;,
  -0.713203;-0.245528;0.656550;,
  -0.887741;-0.245528;0.389399;,
  -0.966079;-0.245528;0.080051;,
  -0.939726;-0.245528;-0.237972;,
  -0.811540;-0.245528;-0.530207;,
  -0.595410;-0.245528;-0.764985;,
  -0.314759;-0.245528;-0.916866;,
  0.000000;-0.401758;-0.915746;,
  0.297342;-0.401758;-0.866128;,
  0.562463;-0.401758;-0.722652;,
  0.766632;-0.401758;-0.500865;,
  0.887724;-0.401758;-0.224802;,
  0.912618;-0.401758;0.075622;,
  0.838616;-0.401758;0.367851;,
  0.673736;-0.401758;0.620218;,
  0.435847;-0.401758;0.805375;,
  0.150727;-0.401758;0.903256;,
  -0.150727;-0.401758;0.903256;,
  -0.435847;-0.401758;0.805375;,
  -0.673736;-0.401758;0.620218;,
  -0.838616;-0.401758;0.367851;,
  -0.912618;-0.401758;0.075621;,
  -0.887724;-0.401758;-0.224803;,
  -0.766631;-0.401758;-0.500866;,
  -0.562462;-0.401758;-0.722653;,
  -0.297341;-0.401758;-0.866129;,
  0.000000;-0.547020;-0.837120;,
  0.271812;-0.547020;-0.791762;,
  0.514170;-0.547020;-0.660605;,
  0.700809;-0.547020;-0.457861;,
  0.811504;-0.547020;-0.205501;,
  0.834261;-0.547020;0.069129;,
  0.766612;-0.547020;0.336267;,
  0.615889;-0.547020;0.566966;,
  0.398425;-0.547020;0.736225;,
  0.137785;-0.547020;0.825703;,
  -0.137785;-0.547020;0.825703;,
  -0.398425;-0.547020;0.736225;,
  -0.615889;-0.547020;0.566966;,
  -0.766612;-0.547020;0.336267;,
  -0.834260;-0.547020;0.069128;,
  -0.811504;-0.547020;-0.205501;,
  -0.700808;-0.547020;-0.457862;,
  -0.514169;-0.547020;-0.660606;,
  -0.271812;-0.547020;-0.791763;,
  0.000000;-0.677350;-0.735660;,
  0.238869;-0.677350;-0.695800;,
  0.451852;-0.677350;-0.580540;,
  0.615870;-0.677350;-0.402368;,
  0.713149;-0.677351;-0.180594;,
  0.733148;-0.677351;0.060750;,
  0.673698;-0.677350;0.295511;,
  0.541243;-0.677350;0.498249;,
  0.350136;-0.677351;0.646994;,
  0.121086;-0.677351;0.725627;,
  -0.121086;-0.677351;0.725627;,
  -0.350136;-0.677351;0.646994;,
  -0.541243;-0.677351;0.498249;,
  -0.673698;-0.677351;0.295511;,
  -0.733148;-0.677351;0.060750;,
  -0.713149;-0.677351;-0.180594;,
  -0.615870;-0.677351;-0.402369;,
  -0.451851;-0.677351;-0.580540;,
  -0.238868;-0.677351;-0.695801;,
  0.000000;-0.789197;-0.614141;,
  0.199411;-0.789197;-0.580865;,
  0.377213;-0.789197;-0.484643;,
  0.514138;-0.789197;-0.335903;,
  0.595348;-0.789197;-0.150763;,
  0.612043;-0.789197;0.050715;,
  0.562414;-0.789197;0.246697;,
  0.451838;-0.789197;0.415946;,
  0.292299;-0.789196;0.540121;,
  0.101084;-0.789196;0.605765;,
  -0.101084;-0.789196;0.605765;,
  -0.292299;-0.789197;0.540121;,
  -0.451838;-0.789197;0.415946;,
  -0.562414;-0.789197;0.246697;,
  -0.612043;-0.789196;0.050715;,
  -0.595348;-0.789197;-0.150763;,
  -0.514138;-0.789197;-0.335904;,
  -0.377212;-0.789197;-0.484644;,
  -0.199411;-0.789197;-0.580865;,
  0.000000;-0.879511;-0.475878;,
  0.154517;-0.879511;-0.450093;,
  0.292290;-0.879511;-0.375534;,
  0.398389;-0.879511;-0.260281;,
  0.461316;-0.879511;-0.116821;,
  0.474253;-0.879511;0.039298;,
  0.435796;-0.879512;0.191158;,
  0.350115;-0.879512;0.322303;,
  0.226493;-0.879511;0.418522;,
  0.078327;-0.879511;0.469387;,
  -0.078327;-0.879511;0.469387;,
  -0.226493;-0.879511;0.418522;,
  -0.350115;-0.879511;0.322303;,
  -0.435796;-0.879511;0.191158;,
  -0.474252;-0.879511;0.039297;,
  -0.461316;-0.879511;-0.116821;,
  -0.398389;-0.879511;-0.260281;,
  -0.292290;-0.879511;-0.375535;,
  -0.154517;-0.879511;-0.450093;,
  -0.000000;-0.945836;-0.324644;,
  0.105412;-0.945836;-0.307054;,
  0.199401;-0.945836;-0.256190;,
  0.271781;-0.945836;-0.177564;,
  0.314710;-0.945836;-0.079695;,
  0.323535;-0.945836;0.026809;,
  0.297300;-0.945836;0.130408;,
  0.238848;-0.945836;0.219875;,
  0.154513;-0.945836;0.285516;,
  0.053435;-0.945836;0.320216;,
  -0.053435;-0.945836;0.320216;,
  -0.154514;-0.945836;0.285516;,
  -0.238848;-0.945836;0.219876;,
  -0.297300;-0.945836;0.130408;,
  -0.323535;-0.945836;0.026809;,
  -0.314710;-0.945836;-0.079696;,
  -0.271781;-0.945836;-0.177564;,
  -0.199400;-0.945836;-0.256190;,
  -0.105412;-0.945836;-0.307054;,
  -0.000000;-0.986367;-0.164564;,
  0.053434;-0.986367;-0.155647;,
  0.101077;-0.986367;-0.129864;,
  0.137767;-0.986367;-0.090008;,
  0.159528;-0.986367;-0.040398;,
  0.164002;-0.986367;0.013590;,
  0.150703;-0.986367;0.066104;,
  0.121073;-0.986366;0.111456;,
  0.078324;-0.986366;0.144730;,
  0.027086;-0.986366;0.162319;,
  -0.027086;-0.986366;0.162319;,
  -0.078324;-0.986366;0.144730;,
  -0.121073;-0.986366;0.111456;,
  -0.150703;-0.986367;0.066104;,
  -0.164002;-0.986367;0.013589;,
  -0.159528;-0.986366;-0.040398;,
  -0.137767;-0.986366;-0.090008;,
  -0.101077;-0.986367;-0.129864;,
  -0.053434;-0.986366;-0.155647;,
  0.000000;-1.000000;-0.000000;;
  361;
  3;0,2,1;,
  3;0,3,2;,
  3;0,4,3;,
  3;0,5,4;,
  3;0,6,5;,
  3;0,7,6;,
  3;0,8,7;,
  3;0,9,8;,
  3;0,10,9;,
  3;0,11,10;,
  3;0,12,11;,
  3;0,13,12;,
  3;0,14,13;,
  3;0,15,14;,
  3;0,16,15;,
  3;0,17,16;,
  3;0,18,17;,
  3;0,19,18;,
  3;0,1,19;,
  4;1,2,21,20;,
  4;2,3,22,21;,
  4;3,4,23,22;,
  4;4,5,24,23;,
  4;5,6,25,24;,
  4;6,7,26,25;,
  4;7,8,27,26;,
  4;8,9,28,27;,
  4;9,10,29,28;,
  4;10,11,30,29;,
  4;11,12,31,30;,
  4;12,13,32,31;,
  4;13,14,33,32;,
  4;14,15,34,33;,
  4;15,16,35,34;,
  4;16,17,36,35;,
  4;17,18,37,36;,
  4;18,19,38,37;,
  4;19,1,20,38;,
  4;20,21,40,39;,
  4;21,22,41,40;,
  4;22,23,42,41;,
  4;23,24,43,42;,
  4;24,25,44,43;,
  4;25,26,45,44;,
  4;26,27,46,45;,
  4;27,28,47,46;,
  4;28,29,48,47;,
  4;29,30,49,48;,
  4;30,31,50,49;,
  4;31,32,51,50;,
  4;32,33,52,51;,
  4;33,34,53,52;,
  4;34,35,54,53;,
  4;35,36,55,54;,
  4;36,37,56,55;,
  4;37,38,57,56;,
  4;38,20,39,57;,
  4;39,40,59,58;,
  4;40,41,60,59;,
  4;41,42,61,60;,
  4;42,43,62,61;,
  4;43,44,63,62;,
  4;44,45,64,63;,
  4;45,46,65,64;,
  4;46,47,66,65;,
  4;47,48,67,66;,
  4;48,49,68,67;,
  4;49,50,69,68;,
  4;50,51,70,69;,
  4;51,52,71,70;,
  4;52,53,72,71;,
  4;53,54,73,72;,
  4;54,55,74,73;,
  4;55,56,75,74;,
  4;56,57,76,75;,
  4;57,39,58,76;,
  4;58,59,78,77;,
  4;59,60,79,78;,
  4;60,61,80,79;,
  4;61,62,81,80;,
  4;62,63,82,81;,
  4;63,64,83,82;,
  4;64,65,84,83;,
  4;65,66,85,84;,
  4;66,67,86,85;,
  4;67,68,87,86;,
  4;68,69,88,87;,
  4;69,70,89,88;,
  4;70,71,90,89;,
  4;71,72,91,90;,
  4;72,73,92,91;,
  4;73,74,93,92;,
  4;74,75,94,93;,
  4;75,76,95,94;,
  4;76,58,77,95;,
  4;77,78,97,96;,
  4;78,79,98,97;,
  4;79,80,99,98;,
  4;80,81,100,99;,
  4;81,82,101,100;,
  4;82,83,102,101;,
  4;83,84,103,102;,
  4;84,85,104,103;,
  4;85,86,105,104;,
  4;86,87,106,105;,
  4;87,88,107,106;,
  4;88,89,108,107;,
  4;89,90,109,108;,
  4;90,91,110,109;,
  4;91,92,111,110;,
  4;92,93,112,111;,
  4;93,94,113,112;,
  4;94,95,114,113;,
  4;95,77,96,114;,
  4;96,97,116,115;,
  4;97,98,117,116;,
  4;98,99,118,117;,
  4;99,100,119,118;,
  4;100,101,120,119;,
  4;101,102,121,120;,
  4;102,103,122,121;,
  4;103,104,123,122;,
  4;104,105,124,123;,
  4;105,106,125,124;,
  4;106,107,126,125;,
  4;107,108,127,126;,
  4;108,109,128,127;,
  4;109,110,129,128;,
  4;110,111,130,129;,
  4;111,112,131,130;,
  4;112,113,132,131;,
  4;113,114,133,132;,
  4;114,96,115,133;,
  4;115,116,135,134;,
  4;116,117,136,135;,
  4;117,118,137,136;,
  4;118,119,138,137;,
  4;119,120,139,138;,
  4;120,121,140,139;,
  4;121,122,141,140;,
  4;122,123,142,141;,
  4;123,124,143,142;,
  4;124,125,144,143;,
  4;125,126,145,144;,
  4;126,127,146,145;,
  4;127,128,147,146;,
  4;128,129,148,147;,
  4;129,130,149,148;,
  4;130,131,150,149;,
  4;131,132,151,150;,
  4;132,133,152,151;,
  4;133,115,134,152;,
  4;134,135,154,153;,
  4;135,136,155,154;,
  4;136,137,156,155;,
  4;137,138,157,156;,
  4;138,139,158,157;,
  4;139,140,159,158;,
  4;140,141,160,159;,
  4;141,142,161,160;,
  4;142,143,162,161;,
  4;143,144,163,162;,
  4;144,145,164,163;,
  4;145,146,165,164;,
  4;146,147,166,165;,
  4;147,148,167,166;,
  4;148,149,168,167;,
  4;149,150,169,168;,
  4;150,151,170,169;,
  4;151,152,171,170;,
  4;152,134,153,171;,
  4;153,154,173,172;,
  4;154,155,174,173;,
  4;155,156,175,174;,
  4;156,157,176,175;,
  4;157,158,177,176;,
  4;158,159,178,177;,
  4;159,160,179,178;,
  4;160,161,180,179;,
  4;161,162,181,180;,
  4;162,163,182,181;,
  4;163,164,183,182;,
  4;164,165,184,183;,
  4;165,166,185,184;,
  4;166,167,186,185;,
  4;167,168,187,186;,
  4;168,169,188,187;,
  4;169,170,189,188;,
  4;170,171,190,189;,
  4;171,153,172,190;,
  4;172,173,192,191;,
  4;173,174,193,192;,
  4;174,175,194,193;,
  4;175,176,195,194;,
  4;176,177,196,195;,
  4;177,178,197,196;,
  4;178,179,198,197;,
  4;179,180,199,198;,
  4;180,181,200,199;,
  4;181,182,201,200;,
  4;182,183,202,201;,
  4;183,184,203,202;,
  4;184,185,204,203;,
  4;185,186,205,204;,
  4;186,187,206,205;,
  4;187,188,207,206;,
  4;188,189,208,207;,
  4;189,190,209,208;,
  4;190,172,191,209;,
  4;191,192,211,210;,
  4;192,193,212,211;,
  4;193,194,213,212;,
  4;194,195,214,213;,
  4;195,196,215,214;,
  4;196,197,216,215;,
  4;197,198,217,216;,
  4;198,199,218,217;,
  4;199,200,219,218;,
  4;200,201,220,219;,
  4;201,202,221,220;,
  4;202,203,222,221;,
  4;203,204,223,222;,
  4;204,205,224,223;,
  4;205,206,225,224;,
  4;206,207,226,225;,
  4;207,208,227,226;,
  4;208,209,228,227;,
  4;209,191,210,228;,
  4;210,211,230,229;,
  4;211,212,231,230;,
  4;212,213,232,231;,
  4;213,214,233,232;,
  4;214,215,234,233;,
  4;215,216,235,234;,
  4;216,217,236,235;,
  4;217,218,237,236;,
  4;218,219,238,237;,
  4;219,220,239,238;,
  4;220,221,240,239;,
  4;221,222,241,240;,
  4;222,223,242,241;,
  4;223,224,243,242;,
  4;224,225,244,243;,
  4;225,226,245,244;,
  4;226,227,246,245;,
  4;227,228,247,246;,
  4;228,210,229,247;,
  4;229,230,249,248;,
  4;230,231,250,249;,
  4;231,232,251,250;,
  4;232,233,252,251;,
  4;233,234,253,252;,
  4;234,235,254,253;,
  4;235,236,255,254;,
  4;236,237,256,255;,
  4;237,238,257,256;,
  4;238,239,258,257;,
  4;239,240,259,258;,
  4;240,241,260,259;,
  4;241,242,261,260;,
  4;242,243,262,261;,
  4;243,244,263,262;,
  4;244,245,264,263;,
  4;245,246,265,264;,
  4;246,247,266,265;,
  4;247,229,248,266;,
  4;248,249,268,267;,
  4;249,250,269,268;,
  4;250,251,270,269;,
  4;251,252,271,270;,
  4;252,253,272,271;,
  4;253,254,273,272;,
  4;254,255,274,273;,
  4;255,256,275,274;,
  4;256,257,276,275;,
  4;257,258,277,276;,
  4;258,259,278,277;,
  4;259,260,279,278;,
  4;260,261,280,279;,
  4;261,262,281,280;,
  4;262,263,282,281;,
  4;263,264,283,282;,
  4;264,265,284,283;,
  4;265,266,285,284;,
  4;266,248,267,285;,
  4;267,268,287,286;,
  4;268,269,288,287;,
  4;269,270,289,288;,
  4;270,271,290,289;,
  4;271,272,291,290;,
  4;272,273,292,291;,
  4;273,274,293,292;,
  4;274,275,294,293;,
  4;275,276,295,294;,
  4;276,277,296,295;,
  4;277,278,297,296;,
  4;278,279,298,297;,
  4;279,280,299,298;,
  4;280,281,300,299;,
  4;281,282,301,300;,
  4;282,283,302,301;,
  4;283,284,303,302;,
  4;284,285,304,303;,
  4;285,267,286,304;,
  4;286,287,306,305;,
  4;287,288,307,306;,
  4;288,289,308,307;,
  4;289,290,309,308;,
  4;290,291,310,309;,
  4;291,292,311,310;,
  4;292,293,312,311;,
  4;293,294,313,312;,
  4;294,295,314,313;,
  4;295,296,315,314;,
  4;296,297,316,315;,
  4;297,298,317,316;,
  4;298,299,318,317;,
  4;299,300,319,318;,
  4;300,301,320,319;,
  4;301,302,321,320;,
  4;302,303,322,321;,
  4;303,304,323,322;,
  4;304,286,305,323;,
  4;305,306,325,324;,
  4;306,307,326,325;,
  4;307,308,327,326;,
  4;308,309,328,327;,
  4;309,310,329,328;,
  4;310,311,330,329;,
  4;311,312,331,330;,
  4;312,313,332,331;,
  4;313,314,333,332;,
  4;314,315,334,333;,
  4;315,316,335,334;,
  4;316,317,336,335;,
  4;317,318,337,336;,
  4;318,319,338,337;,
  4;319,320,339,338;,
  4;320,321,340,339;,
  4;321,322,341,340;,
  4;322,323,342,341;,
  4;323,305,324,342;,
  3;324,325,343;,
  3;325,326,343;,
  3;326,327,343;,
  3;327,328,343;,
  3;328,329,343;,
  3;329,330,343;,
  3;330,331,343;,
  3;331,332,343;,
  3;332,333,343;,
  3;333,334,343;,
  3;334,335,343;,
  3;335,336,343;,
  3;336,337,343;,
  3;337,338,343;,
  3;338,339,343;,
  3;339,340,343;,
  3;340,341,343;,
  3;341,342,343;,
  3;342,324,343;;
 }
 MeshTextureCoords {
  398;
  0.026320;0.000000;,
  0.052630;0.052630;,
  0.000000;0.052630;,
  0.078950;0.000000;,
  0.105260;0.052630;,
  0.131580;0.000000;,
  0.157890;0.052630;,
  0.184210;0.000000;,
  0.210530;0.052630;,
  0.236840;0.000000;,
  0.263160;0.052630;,
  0.289470;0.000000;,
  0.315790;0.052630;,
  0.342110;0.000000;,
  0.368420;0.052630;,
  0.394740;0.000000;,
  0.421050;0.052630;,
  0.447370;0.000000;,
  0.473680;0.052630;,
  0.500000;0.000000;,
  0.526320;0.052630;,
  0.552630;0.000000;,
  0.578950;0.052630;,
  0.605260;0.000000;,
  0.631580;0.052630;,
  0.657890;0.000000;,
  0.684210;0.052630;,
  0.710530;0.000000;,
  0.736840;0.052630;,
  0.763160;0.000000;,
  0.789470;0.052630;,
  0.815790;0.000000;,
  0.842110;0.052630;,
  0.868420;0.000000;,
  0.894740;0.052630;,
  0.921050;0.000000;,
  0.947370;0.052630;,
  0.973680;0.000000;,
  1.000000;0.052630;,
  0.052630;0.105260;,
  0.000000;0.105260;,
  0.105260;0.105260;,
  0.157890;0.105260;,
  0.210530;0.105260;,
  0.263160;0.105260;,
  0.315790;0.105260;,
  0.368420;0.105260;,
  0.421050;0.105260;,
  0.473680;0.105260;,
  0.526320;0.105260;,
  0.578950;0.105260;,
  0.631580;0.105260;,
  0.684210;0.105260;,
  0.736840;0.105260;,
  0.789470;0.105260;,
  0.842110;0.105260;,
  0.894740;0.105260;,
  0.947370;0.105260;,
  1.000000;0.105260;,
  0.052630;0.157890;,
  0.000000;0.157890;,
  0.105260;0.157890;,
  0.157890;0.157890;,
  0.210530;0.157890;,
  0.263160;0.157890;,
  0.315790;0.157890;,
  0.368420;0.157890;,
  0.421050;0.157890;,
  0.473680;0.157890;,
  0.526320;0.157890;,
  0.578950;0.157890;,
  0.631580;0.157890;,
  0.684210;0.157890;,
  0.736840;0.157890;,
  0.789470;0.157890;,
  0.842110;0.157890;,
  0.894740;0.157890;,
  0.947370;0.157890;,
  1.000000;0.157890;,
  0.052630;0.210530;,
  0.000000;0.210530;,
  0.105260;0.210530;,
  0.157890;0.210530;,
  0.210530;0.210530;,
  0.263160;0.210530;,
  0.315790;0.210530;,
  0.368420;0.210530;,
  0.421050;0.210530;,
  0.473680;0.210530;,
  0.526320;0.210530;,
  0.578950;0.210530;,
  0.631580;0.210530;,
  0.684210;0.210530;,
  0.736840;0.210530;,
  0.789470;0.210530;,
  0.842110;0.210530;,
  0.894740;0.210530;,
  0.947370;0.210530;,
  1.000000;0.210530;,
  0.052630;0.263160;,
  0.000000;0.263160;,
  0.105260;0.263160;,
  0.157890;0.263160;,
  0.210530;0.263160;,
  0.263160;0.263160;,
  0.315790;0.263160;,
  0.368420;0.263160;,
  0.421050;0.263160;,
  0.473680;0.263160;,
  0.526320;0.263160;,
  0.578950;0.263160;,
  0.631580;0.263160;,
  0.684210;0.263160;,
  0.736840;0.263160;,
  0.789470;0.263160;,
  0.842110;0.263160;,
  0.894740;0.263160;,
  0.947370;0.263160;,
  1.000000;0.263160;,
  0.052630;0.315790;,
  0.000000;0.315790;,
  0.105260;0.315790;,
  0.157890;0.315790;,
  0.210530;0.315790;,
  0.263160;0.315790;,
  0.315790;0.315790;,
  0.368420;0.315790;,
  0.421050;0.315790;,
  0.473680;0.315790;,
  0.526320;0.315790;,
  0.578950;0.315790;,
  0.631580;0.315790;,
  0.684210;0.315790;,
  0.736840;0.315790;,
  0.789470;0.315790;,
  0.842110;0.315790;,
  0.894740;0.315790;,
  0.947370;0.315790;,
  1.000000;0.315790;,
  0.052630;0.368420;,
  0.000000;0.368420;,
  0.105260;0.368420;,
  0.157890;0.368420;,
  0.210530;0.368420;,
  0.263160;0.368420;,
  0.315790;0.368420;,
  0.368420;0.368420;,
  0.421050;0.368420;,
  0.473680;0.368420;,
  0.526320;0.368420;,
  0.578950;0.368420;,
  0.631580;0.368420;,
  0.684210;0.368420;,
  0.736840;0.368420;,
  0.789470;0.368420;,
  0.842110;0.368420;,
  0.894740;0.368420;,
  0.947370;0.368420;,
  1.000000;0.368420;,
  0.052630;0.421050;,
  0.000000;0.421050;,
  0.105260;0.421050;,
  0.157890;0.421050;,
  0.210530;0.421050;,
  0.263160;0.421050;,
  0.315790;0.421050;,
  0.368420;0.421050;,
  0.421050;0.421050;,
  0.473680;0.421050;,
  0.526320;0.421050;,
  0.578950;0.421050;,
  0.631580;0.421050;,
  0.684210;0.421050;,
  0.736840;0.421050;,
  0.789470;0.421050;,
  0.842110;0.421050;,
  0.894740;0.421050;,
  0.947370;0.421050;,
  1.000000;0.421050;,
  0.052630;0.473680;,
  0.000000;0.473680;,
  0.105260;0.473680;,
  0.157890;0.473680;,
  0.210530;0.473680;,
  0.263160;0.473680;,
  0.315790;0.473680;,
  0.368420;0.473680;,
  0.421050;0.473680;,
  0.473680;0.473680;,
  0.526320;0.473680;,
  0.578950;0.473680;,
  0.631580;0.473680;,
  0.684210;0.473680;,
  0.736840;0.473680;,
  0.789470;0.473680;,
  0.842110;0.473680;,
  0.894740;0.473680;,
  0.947370;0.473680;,
  1.000000;0.473680;,
  0.052630;0.526320;,
  0.000000;0.526320;,
  0.105260;0.526320;,
  0.157890;0.526320;,
  0.210530;0.526320;,
  0.263160;0.526320;,
  0.315790;0.526320;,
  0.368420;0.526320;,
  0.421050;0.526320;,
  0.473680;0.526320;,
  0.526320;0.526320;,
  0.578950;0.526320;,
  0.631580;0.526320;,
  0.684210;0.526320;,
  0.736840;0.526320;,
  0.789470;0.526320;,
  0.842110;0.526320;,
  0.894740;0.526320;,
  0.947370;0.526320;,
  1.000000;0.526320;,
  0.052630;0.578950;,
  0.000000;0.578950;,
  0.105260;0.578950;,
  0.157890;0.578950;,
  0.210530;0.578950;,
  0.263160;0.578950;,
  0.315790;0.578950;,
  0.368420;0.578950;,
  0.421050;0.578950;,
  0.473680;0.578950;,
  0.526320;0.578950;,
  0.578950;0.578950;,
  0.631580;0.578950;,
  0.684210;0.578950;,
  0.736840;0.578950;,
  0.789470;0.578950;,
  0.842110;0.578950;,
  0.894740;0.578950;,
  0.947370;0.578950;,
  1.000000;0.578950;,
  0.052630;0.631580;,
  0.000000;0.631580;,
  0.105260;0.631580;,
  0.157890;0.631580;,
  0.210530;0.631580;,
  0.263160;0.631580;,
  0.315790;0.631580;,
  0.368420;0.631580;,
  0.421050;0.631580;,
  0.473680;0.631580;,
  0.526320;0.631580;,
  0.578950;0.631580;,
  0.631580;0.631580;,
  0.684210;0.631580;,
  0.736840;0.631580;,
  0.789470;0.631580;,
  0.842110;0.631580;,
  0.894740;0.631580;,
  0.947370;0.631580;,
  1.000000;0.631580;,
  0.052630;0.684210;,
  0.000000;0.684210;,
  0.105260;0.684210;,
  0.157890;0.684210;,
  0.210530;0.684210;,
  0.263160;0.684210;,
  0.315790;0.684210;,
  0.368420;0.684210;,
  0.421050;0.684210;,
  0.473680;0.684210;,
  0.526320;0.684210;,
  0.578950;0.684210;,
  0.631580;0.684210;,
  0.684210;0.684210;,
  0.736840;0.684210;,
  0.789470;0.684210;,
  0.842110;0.684210;,
  0.894740;0.684210;,
  0.947370;0.684210;,
  1.000000;0.684210;,
  0.052630;0.736840;,
  0.000000;0.736840;,
  0.105260;0.736840;,
  0.157890;0.736840;,
  0.210530;0.736840;,
  0.263160;0.736840;,
  0.315790;0.736840;,
  0.368420;0.736840;,
  0.421050;0.736840;,
  0.473680;0.736840;,
  0.526320;0.736840;,
  0.578950;0.736840;,
  0.631580;0.736840;,
  0.684210;0.736840;,
  0.736840;0.736840;,
  0.789470;0.736840;,
  0.842110;0.736840;,
  0.894740;0.736840;,
  0.947370;0.736840;,
  1.000000;0.736840;,
  0.052630;0.789470;,
  0.000000;0.789470;,
  0.105260;0.789470;,
  0.157890;0.789470;,
  0.210530;0.789470;,
  0.263160;0.789470;,
  0.315790;0.789470;,
  0.368420;0.789470;,
  0.421050;0.789470;,
  0.473680;0.789470;,
  0.526320;0.789470;,
  0.578950;0.789470;,
  0.631580;0.789470;,
  0.684210;0.789470;,
  0.736840;0.789470;,
  0.789470;0.789470;,
  0.842110;0.789470;,
  0.894740;0.789470;,
  0.947370;0.789470;,
  1.000000;0.789470;,
  0.052630;0.842110;,
  0.000000;0.842110;,
  0.105260;0.842110;,
  0.157890;0.842110;,
  0.210530;0.842110;,
  0.263160;0.842110;,
  0.315790;0.842110;,
  0.368420;0.842110;,
  0.421050;0.842110;,
  0.473680;0.842110;,
  0.526320;0.842110;,
  0.578950;0.842110;,
  0.631580;0.842110;,
  0.684210;0.842110;,
  0.736840;0.842110;,
  0.789470;0.842110;,
  0.842110;0.842110;,
  0.894740;0.842110;,
  0.947370;0.842110;,
  1.000000;0.842110;,
  0.052630;0.894740;,
  0.000000;0.894740;,
  0.105260;0.894740;,
  0.157890;0.894740;,
  0.210530;0.894740;,
  0.263160;0.894740;,
  0.315790;0.894740;,
  0.368420;0.894740;,
  0.421050;0.894740;,
  0.473680;0.894740;,
  0.526320;0.894740;,
  0.578950;0.894740;,
  0.631580;0.894740;,
  0.684210;0.894740;,
  0.736840;0.894740;,
  0.789470;0.894740;,
  0.842110;0.894740;,
  0.894740;0.894740;,
  0.947370;0.894740;,
  1.000000;0.894740;,
  0.052630;0.947370;,
  0.000000;0.947370;,
  0.105260;0.947370;,
  0.157890;0.947370;,
  0.210530;0.947370;,
  0.263160;0.947370;,
  0.315790;0.947370;,
  0.368420;0.947370;,
  0.421050;0.947370;,
  0.473680;0.947370;,
  0.526320;0.947370;,
  0.578950;0.947370;,
  0.631580;0.947370;,
  0.684210;0.947370;,
  0.736840;0.947370;,
  0.789470;0.947370;,
  0.842110;0.947370;,
  0.894740;0.947370;,
  0.947370;0.947370;,
  1.000000;0.947370;,
  0.026320;1.000000;,
  0.078950;1.000000;,
  0.131580;1.000000;,
  0.184210;1.000000;,
  0.236840;1.000000;,
  0.289470;1.000000;,
  0.342110;1.000000;,
  0.394740;1.000000;,
  0.447370;1.000000;,
  0.500000;1.000000;,
  0.552630;1.000000;,
  0.605260;1.000000;,
  0.657890;1.000000;,
  0.710530;1.000000;,
  0.763160;1.000000;,
  0.815790;1.000000;,
  0.868420;1.000000;,
  0.921050;1.000000;,
  0.973680;1.000000;;
 }
}
