0,0,0,0,-1 = 2000,0
0,0,0,0,-1 = 1900,1
0,0,0,0,-1 = 1800,2
0,0,0,0,-1 = 1700,0
0,0,0,0,-1 = 1600,1
0,0,0,0,-1 = 1500,2
0,0,0,0,-1 = 1400,0
0,0,0,0,-1 = 1300,1
0,0,0,0,-1 = 1200,2
0,0,0,0,-1 = 1100,0
