//0
GROUP_START
ENEMY_NUM_MAX = 5

ENEMY_TYPE = 4

MOVE_INDEX = 0

INIT_POS = 171.000000 200.000000 0.000000

ENEMY_TYPE = 4

MOVE_INDEX = 0

INIT_POS = 171.000000 250.000000 0.000000

ENEMY_TYPE = 4

MOVE_INDEX = 0

INIT_POS = 171.000000 300.000000 0.000000

ENEMY_TYPE = 4

MOVE_INDEX = 0

INIT_POS = 171.000000 350.000000 0.000000

ENEMY_TYPE = 4

MOVE_INDEX = 0

INIT_POS = 171.000000 400.000000 0.000000
GROUP_END

//1
GROUP_START
ENEMY_NUM_MAX = 5

ENEMY_TYPE = 4

MOVE_INDEX = 1

INIT_POS = 1451.000000 200.000000 0.000000

ENEMY_TYPE = 4

MOVE_INDEX = 1

INIT_POS = 1451.000000 250.000000 0.000000

ENEMY_TYPE = 4

MOVE_INDEX = 1

INIT_POS = 1451.000000 300.000000 0.000000

ENEMY_TYPE = 4

MOVE_INDEX = 1

INIT_POS = 1451.000000 350.000000 0.000000

ENEMY_TYPE = 4

MOVE_INDEX = 1

INIT_POS = 1451.000000 400.000000 0.000000
GROUP_END

//2
GROUP_START
ENEMY_NUM_MAX = 4

ENEMY_TYPE = 4

MOVE_INDEX = 2

INIT_POS = 500.000000 -100.000000 0.000000

ENEMY_TYPE = 4

MOVE_INDEX = 2

INIT_POS = 550.000000 -100.000000 0.000000

ENEMY_TYPE = 4

MOVE_INDEX = 3

INIT_POS = 1000.000000 900.000000 0.000000

ENEMY_TYPE = 4

MOVE_INDEX = 3

INIT_POS = 1050.000000 900.000000 0.000000
GROUP_END

//3
GROUP_START
ENEMY_NUM_MAX = 4

ENEMY_TYPE = 4

MOVE_INDEX = 3

INIT_POS = 500.000000 900.000000 0.000000

ENEMY_TYPE = 4

MOVE_INDEX = 3

INIT_POS = 550.000000 900.000000 0.000000

ENEMY_TYPE = 4

MOVE_INDEX = 0

INIT_POS = 171.000000 400.000000 0.000000

ENEMY_TYPE = 4

MOVE_INDEX = 0

INIT_POS = 171.000000 600.000000 0.000000
GROUP_END

//4
GROUP_START
ENEMY_NUM_MAX = 5

ENEMY_TYPE = 4

MOVE_INDEX = 4

INIT_POS = 1300.000000 -100.000000 0.000000

ENEMY_TYPE = 4

MOVE_INDEX = 4

INIT_POS = 1300.000000 -150.000000 0.000000

ENEMY_TYPE = 4

MOVE_INDEX = 4

INIT_POS = 1300.000000 -200.000000 0.000000

ENEMY_TYPE = 4

MOVE_INDEX = 4

INIT_POS = 1300.000000 -250.000000 0.000000

ENEMY_TYPE = 4

MOVE_INDEX = 4

INIT_POS = 1300.000000 -300.000000 0.000000
GROUP_END


//5
GROUP_START
ENEMY_NUM_MAX = 5

ENEMY_TYPE = 4

MOVE_INDEX = 5

INIT_POS = 400.000000 -100.000000 0.000000

ENEMY_TYPE = 4

MOVE_INDEX = 5

INIT_POS = 450.000000 -150.000000 0.000000

ENEMY_TYPE = 4

MOVE_INDEX = 5

INIT_POS = 500.000000 -200.000000 0.000000

ENEMY_TYPE = 4

MOVE_INDEX = 5

INIT_POS = 550.000000 -250.000000 0.000000

ENEMY_TYPE = 4

MOVE_INDEX = 5

INIT_POS = 600.000000 -300.000000 0.000000

GROUP_END


//6
GROUP_START
ENEMY_NUM_MAX = 6

ENEMY_TYPE = 4

MOVE_INDEX = 6

INIT_POS = 350.000000 0.000000 0.000000

ENEMY_TYPE = 4

MOVE_INDEX = 6

INIT_POS = 350.000000 50.000000 0.000000

ENEMY_TYPE = 4

MOVE_INDEX = 6

INIT_POS = 350.000000 100.000000 0.000000

ENEMY_TYPE = 4

MOVE_INDEX = 7

INIT_POS = 350.000000 900.000000 0.000000

ENEMY_TYPE = 4

MOVE_INDEX = 7

INIT_POS = 350.000000 850.000000 0.000000

ENEMY_TYPE = 4

MOVE_INDEX = 7

INIT_POS = 350.000000 800.000000 0.000000

GROUP_END

//7
GROUP_START
ENEMY_NUM_MAX = 5

ENEMY_TYPE = 4

MOVE_INDEX = 8

INIT_POS = 374.000000 0.000000 0.000000

ENEMY_TYPE = 4

MOVE_INDEX = 8

INIT_POS = 374.000000 50.000000 0.000000

ENEMY_TYPE = 4

MOVE_INDEX = 8

INIT_POS = 374.000000 100.000000 0.000000

ENEMY_TYPE = 4

MOVE_INDEX = 8

INIT_POS = 374.000000 150.000000 0.000000

ENEMY_TYPE = 4

MOVE_INDEX = 8

INIT_POS = 374.000000 200.000000 0.000000

GROUP_END

//8
GROUP_START
ENEMY_NUM_MAX = 4

ENEMY_TYPE = 4

MOVE_INDEX = 9

INIT_POS = 180.000000 -50.000000 0.000000

ENEMY_TYPE = 4

MOVE_INDEX = 9

INIT_POS = 180.000000 0.000000 0.000000

ENEMY_TYPE = 4

MOVE_INDEX = 9

INIT_POS = 180.000000 50.000000 0.000000

ENEMY_TYPE = 4

MOVE_INDEX = 9

INIT_POS = 180.000000 100.000000 0.000000

GROUP_END

//9
GROUP_START
ENEMY_NUM_MAX = 6

ENEMY_TYPE = 4

MOVE_INDEX = 10

INIT_POS = 1438.000000 800.000000 0.000000

ENEMY_TYPE = 4

MOVE_INDEX = 10

INIT_POS = 1438.000000 750.000000 0.000000

ENEMY_TYPE = 4

MOVE_INDEX = 2

INIT_POS = 500.000000 -100.000000 0.000000

ENEMY_TYPE = 4

MOVE_INDEX = 2

INIT_POS = 550.000000 -100.000000 0.000000

ENEMY_TYPE = 4

MOVE_INDEX = 3

INIT_POS = 1000.000000 900.000000 0.000000

ENEMY_TYPE = 4

MOVE_INDEX = 3

INIT_POS = 1050.000000 900.000000 0.000000

GROUP_END

//10
GROUP_START
ENEMY_NUM_MAX = 2

ENEMY_TYPE = 10

MOVE_INDEX = 12

INIT_POS = 132.000000 123.000000 0.000000

ENEMY_TYPE = 10

MOVE_INDEX = 13

INIT_POS = 257.000000 160.000000 0.000000

GROUP_END

END_SCRIPT
