//=============================================================================
//
// モデルのパス一覧
// Author : koduna hirohito
//
//=============================================================================

//*****************************************************************************
// 使用するモデルのパス
//*****************************************************************************

MODEL = data/MODEL/stage05.x
