xof 0302txt 0064
template Header {
 <3D82AB43-62DA-11cf-AB39-0020AF71E433>
 WORD major;
 WORD minor;
 DWORD flags;
}

template Vector {
 <3D82AB5E-62DA-11cf-AB39-0020AF71E433>
 FLOAT x;
 FLOAT y;
 FLOAT z;
}

template Coords2d {
 <F6F23F44-7686-11cf-8F52-0040333594A3>
 FLOAT u;
 FLOAT v;
}

template Matrix4x4 {
 <F6F23F45-7686-11cf-8F52-0040333594A3>
 array FLOAT matrix[16];
}

template ColorRGBA {
 <35FF44E0-6C7C-11cf-8F52-0040333594A3>
 FLOAT red;
 FLOAT green;
 FLOAT blue;
 FLOAT alpha;
}

template ColorRGB {
 <D3E16E81-7835-11cf-8F52-0040333594A3>
 FLOAT red;
 FLOAT green;
 FLOAT blue;
}

template IndexedColor {
 <1630B820-7842-11cf-8F52-0040333594A3>
 DWORD index;
 ColorRGBA indexColor;
}

template Boolean {
 <4885AE61-78E8-11cf-8F52-0040333594A3>
 WORD truefalse;
}

template Boolean2d {
 <4885AE63-78E8-11cf-8F52-0040333594A3>
 Boolean u;
 Boolean v;
}

template MaterialWrap {
 <4885AE60-78E8-11cf-8F52-0040333594A3>
 Boolean u;
 Boolean v;
}

template TextureFilename {
 <A42790E1-7810-11cf-8F52-0040333594A3>
 STRING filename;
}

template Material {
 <3D82AB4D-62DA-11cf-AB39-0020AF71E433>
 ColorRGBA faceColor;
 FLOAT power;
 ColorRGB specularColor;
 ColorRGB emissiveColor;
 [...]
}

template MeshFace {
 <3D82AB5F-62DA-11cf-AB39-0020AF71E433>
 DWORD nFaceVertexIndices;
 array DWORD faceVertexIndices[nFaceVertexIndices];
}

template MeshFaceWraps {
 <4885AE62-78E8-11cf-8F52-0040333594A3>
 DWORD nFaceWrapValues;
 Boolean2d faceWrapValues;
}

template MeshTextureCoords {
 <F6F23F40-7686-11cf-8F52-0040333594A3>
 DWORD nTextureCoords;
 array Coords2d textureCoords[nTextureCoords];
}

template MeshMaterialList {
 <F6F23F42-7686-11cf-8F52-0040333594A3>
 DWORD nMaterials;
 DWORD nFaceIndexes;
 array DWORD faceIndexes[nFaceIndexes];
 [Material]
}

template MeshNormals {
 <F6F23F43-7686-11cf-8F52-0040333594A3>
 DWORD nNormals;
 array Vector normals[nNormals];
 DWORD nFaceNormals;
 array MeshFace faceNormals[nFaceNormals];
}

template MeshVertexColors {
 <1630B821-7842-11cf-8F52-0040333594A3>
 DWORD nVertexColors;
 array IndexedColor vertexColors[nVertexColors];
}

template Mesh {
 <3D82AB44-62DA-11cf-AB39-0020AF71E433>
 DWORD nVertices;
 array Vector vertices[nVertices];
 DWORD nFaces;
 array MeshFace faces[nFaces];
 [...]
}

Header{
1;
0;
1;
}

Mesh {
 748;
 -49.84500;0.00000;49.84500;,
 49.84500;0.00000;49.84500;,
 49.84500;0.00000;-49.84500;,
 -49.84500;0.00000;-49.84500;,
 -25.01392;14.21584;20.49800;,
 -22.97283;9.69675;17.78836;,
 -25.01392;12.04964;16.15207;,
 -25.01392;14.21584;20.49800;,
 -22.13365;13.22394;21.46506;,
 -25.01392;14.21584;20.49800;,
 -24.48499;13.22394;24.41355;,
 -25.01392;14.21584;20.49800;,
 -26.89956;13.22394;24.41355;,
 -25.01392;14.21584;20.49800;,
 -29.25091;13.22394;21.46506;,
 -25.01392;14.21584;20.49800;,
 -28.41172;12.04964;17.78835;,
 -25.01392;14.21584;20.49800;,
 -25.01392;12.04964;16.15207;,
 -18.81297;6.91742;15.61539;,
 -23.57888;9.27035;12.66689;,
 -17.37915;10.44458;22.24059;,
 -22.97284;12.79756;27.55357;,
 -28.11628;10.44458;27.55357;,
 -30.99655;10.44458;22.24059;,
 -28.58688;9.27035;15.61539;,
 -23.57888;9.27035;12.66689;,
 -15.94410;2.90115;18.21200;,
 -23.57888;5.25406;10.73278;,
 -15.49352;8.78130;26.47347;,
 -20.77695;5.25406;33.09868;,
 -25.04909;5.25406;33.09867;,
 -30.33252;6.42838;18.84026;,
 -28.44688;5.25406;14.40948;,
 -23.57888;5.25406;10.73278;,
 -15.94410;0.79641;15.53730;,
 -26.51262;0.79641;10.73278;,
 -15.49352;0.79641;23.79879;,
 -20.77695;0.79641;30.42398;,
 -25.04909;0.79641;30.42398;,
 -33.26626;4.32357;18.84026;,
 -31.38062;0.79641;10.57877;,
 -26.51262;0.79641;10.73278;,
 -17.45626;-3.21989;11.78468;,
 -27.94767;-3.21989;8.83619;,
 -15.94410;-3.21989;19.56589;,
 -21.61613;-3.21989;28.68139;,
 -25.86206;-3.21989;28.68139;,
 -31.38062;-6.46233;18.40988;,
 -32.41812;-3.21989;11.78467;,
 -27.94767;-3.21989;8.83619;,
 -20.18109;-5.99918;13.95765;,
 -27.94767;-5.99918;12.32135;,
 -19.34190;-5.99918;18.79037;,
 -23.12829;-5.99918;21.73886;,
 -29.83330;-9.24165;20.58285;,
 -32.18464;-9.24165;17.63435;,
 -31.34546;-9.24165;13.95765;,
 -27.94767;-5.99918;12.32135;,
 -27.94767;-10.23357;16.66729;,
 -27.94767;-10.23357;16.66729;,
 -27.94767;-10.23357;16.66729;,
 -27.94767;-10.23357;16.66729;,
 -27.94767;-10.23357;16.66729;,
 -27.94767;-10.23357;16.66729;,
 -27.94767;-10.23357;16.66729;,
 -2.73009;5.00090;15.56880;,
 0.56452;5.58633;7.08374;,
 -2.73009;9.66387;9.26860;,
 -2.73009;5.00090;15.56880;,
 1.91908;2.88320;14.85089;,
 -2.73009;5.00090;15.56880;,
 -1.87632;-1.35735;17.01156;,
 -2.73009;5.00090;15.56880;,
 -5.77377;-1.35735;17.01156;,
 -2.73009;5.00090;15.56880;,
 -9.56918;2.88320;14.85089;,
 -2.73009;5.00090;15.56880;,
 -8.21462;7.31054;10.46768;,
 -2.73009;5.00090;15.56880;,
 -2.73009;9.66387;9.26860;,
 7.27913;6.67483;1.49411;,
 -0.41372;12.63962;2.71745;,
 9.59352;-0.26890;11.42190;,
 0.56452;-6.18582;18.69934;,
 -7.73773;-7.91009;15.31528;,
 -12.38690;-0.26889;11.42190;,
 -8.49735;8.39907;4.87812;,
 -0.41372;12.63962;2.71745;,
 11.90989;-0.00280;-2.37933;,
 -0.41372;12.47813;-4.47616;,
 12.63721;-7.57554;12.13162;,
 4.10899;-19.68878;11.91369;,
 -2.78686;-19.68875;11.91368;,
 -11.31505;1.67840;3.15397;,
 -8.27138;7.19025;-1.78185;,
 -0.41372;12.47813;-4.47616;,
 11.90989;2.30162;-7.36642;,
 -5.14920;9.21153;-10.88720;,
 12.63721;-9.58015;-1.31236;,
 4.10899;-19.10858;3.54262;,
 -2.78686;-19.10857;3.54261;,
 -16.05055;0.13598;0.12680;,
 -13.00686;9.43303;-11.00006;,
 -5.14920;9.21153;-10.88720;,
 9.46905;4.75551;-15.89265;,
 -7.46557;8.99606;-18.05332;,
 11.90989;-6.43552;-10.19053;,
 2.75443;-19.54554;-3.51065;,
 -4.09910;-19.54554;-3.51065;,
 -13.00686;-7.14901;-15.70100;,
 -14.68152;4.75552;-15.89265;,
 -7.46557;8.99606;-18.05332;,
 5.07080;-0.40635;-18.29750;,
 -7.46557;1.94697;-19.49658;,
 6.42536;-7.35683;-14.75606;,
 0.31359;-11.59738;-12.59539;,
 -10.50926;-12.31089;-18.10587;,
 -14.30466;-8.07034;-20.26654;,
 -12.95009;-2.78245;-22.96085;,
 -7.46557;1.94697;-19.49658;,
 -7.46557;-7.40638;-22.40180;,
 -7.46557;-7.40638;-22.40180;,
 -7.46557;-7.40638;-22.40180;,
 -7.46557;-7.40638;-22.40180;,
 -7.46557;-7.40638;-22.40180;,
 -7.46557;-7.40638;-22.40180;,
 -7.46557;-7.40638;-22.40180;,
 31.54285;-4.22942;31.71547;,
 32.96106;-2.15850;28.69627;,
 31.54285;-1.12349;30.39748;,
 31.54285;-4.22942;31.71547;,
 33.54415;-4.85803;30.98653;,
 31.54285;-4.22942;31.71547;,
 31.91037;-6.90290;30.86148;,
 31.54285;-4.22942;31.71547;,
 30.23266;-6.90290;30.86148;,
 31.54285;-4.22942;31.71547;,
 28.59888;-4.85803;30.98653;,
 31.54285;-4.22942;31.71547;,
 29.18196;-2.25829;30.32808;,
 31.54285;-4.22942;31.71547;,
 31.54285;-1.12349;30.39748;,
 35.85145;-0.53358;26.86090;,
 32.53997;1.41149;28.61780;,
 36.84771;-5.27798;29.02605;,
 32.96106;-9.06251;30.43255;,
 29.38725;-8.96271;28.80068;,
 27.38596;-5.27798;29.02606;,
 29.06026;-0.63338;28.49273;,
 32.53997;1.41149;28.61780;,
 37.84482;-2.16405;23.96532;,
 32.53997;2.92323;25.91440;,
 38.15790;-8.14307;27.69296;,
 34.48682;-12.58825;24.96567;,
 31.51842;-12.58823;24.96567;,
 27.84735;-2.74939;26.38492;,
 29.15754;0.37332;25.75844;,
 32.53997;2.92323;25.91440;,
 37.84482;-0.21978;22.61908;,
 30.50152;3.11231;22.82288;,
 38.15790;-5.94939;22.26864;,
 34.48682;-10.54418;21.98761;,
 31.51842;-10.54417;21.98761;,
 25.80889;-2.66010;24.92517;,
 27.11908;3.21912;22.82941;,
 30.50152;3.11231;22.82288;,
 36.79413;2.55315;19.99282;,
 29.50441;4.59802;20.11790;,
 37.84482;-2.84337;19.66276;,
 33.90373;-9.16527;19.27610;,
 30.95355;-9.16527;19.27610;,
 27.11908;-1.90410;17.46305;,
 26.39821;2.55315;19.99282;,
 29.50441;4.59802;20.11790;,
 34.90085;1.16402;17.97312;,
 29.50441;2.29884;18.04252;,
 35.48394;-2.18763;17.76812;,
 32.85305;-4.23250;17.64306;,
 28.19421;-3.29323;15.44333;,
 26.56043;-1.24836;15.56841;,
 27.14352;1.30156;15.72436;,
 29.50441;2.29884;18.04252;,
 29.50441;-0.53559;14.92149;,
 29.50441;-0.53559;14.92149;,
 29.50441;-0.53559;14.92149;,
 29.50441;-0.53559;14.92149;,
 29.50441;-0.53559;14.92149;,
 29.50441;-0.53559;14.92149;,
 29.50441;-0.53559;14.92149;,
 23.90762;5.51448;-2.01966;,
 24.22790;5.63425;-6.99620;,
 22.24730;3.73097;-5.54638;,
 23.90762;5.51448;-2.01966;,
 24.52838;8.03231;-3.13131;,
 23.90762;5.51448;-2.01966;,
 26.93133;7.16949;-0.99480;,
 23.90762;5.51448;-2.01966;,
 27.40559;5.23368;-0.23913;,
 23.90762;5.51448;-2.01966;,
 25.92636;2.32625;-0.90383;,
 23.90762;5.51448;-2.01966;,
 23.99192;1.57424;-3.70571;,
 23.90762;5.51448;-2.01966;,
 22.24730;3.73097;-5.54638;,
 23.52092;7.86091;-11.20650;,
 21.21162;3.31814;-9.52719;,
 25.64574;11.75801;-6.12712;,
 28.93788;9.41611;-0.26432;,
 31.25251;4.99202;-0.24296;,
 28.32050;0.84069;-1.86531;,
 24.13642;0.32546;-6.55926;,
 21.21162;3.31814;-9.52719;,
 26.89326;10.54836;-13.58210;,
 22.16469;2.13463;-13.15714;,
 28.98409;14.52503;-5.82932;,
 36.33879;12.13589;-3.40972;,
 37.17794;8.71083;-2.07270;,
 28.17780;-0.31882;-6.39949;,
 25.54140;-0.49333;-9.88709;,
 22.16469;2.13463;-13.15714;,
 26.29911;9.35218;-16.27345;,
 25.21195;-0.78666;-15.24811;,
 31.64952;12.57791;-12.49006;,
 37.04895;10.63922;-7.68939;,
 37.88808;7.21418;-6.35235;,
 29.92083;-2.93969;-6.90219;,
 26.06675;-4.74287;-13.79774;,
 25.21195;-0.78666;-15.24811;,
 26.35201;6.32580;-20.29397;,
 26.47161;-3.10770;-18.41112;,
 31.17769;10.23610;-17.07096;,
 38.29292;8.84932;-10.96571;,
 39.12693;5.44528;-9.63688;,
 35.24611;-2.95459;-14.97778;,
 29.29084;-5.66943;-15.61142;,
 26.47161;-3.10770;-18.41112;,
 29.85843;4.53978;-20.28512;,
 30.30671;-2.25421;-18.63173;,
 32.87519;6.88820;-18.25211;,
 35.56004;4.87489;-15.66649;,
 37.91342;-1.31555;-16.30600;,
 36.43415;-4.22300;-16.97072;,
 33.84877;-4.82502;-18.97987;,
 30.30671;-2.25421;-18.63173;,
 35.51511;-1.28813;-19.42572;,
 35.51511;-1.28813;-19.42572;,
 35.51511;-1.28813;-19.42572;,
 35.51511;-1.28813;-19.42572;,
 35.51511;-1.28813;-19.42572;,
 35.51511;-1.28813;-19.42572;,
 35.51511;-1.28813;-19.42572;,
 -35.32111;-6.40182;-28.14475;,
 -35.28538;-6.06174;-33.12129;,
 -34.46580;-8.68349;-31.67147;,
 -35.32111;-6.40182;-28.14475;,
 -37.29741;-4.72282;-29.25640;,
 -35.32111;-6.40182;-28.14475;,
 -35.45306;-2.95733;-27.11989;,
 -35.32111;-6.40182;-28.14475;,
 -33.50903;-3.39665;-26.36422;,
 -35.32111;-6.40182;-28.14475;,
 -31.56708;-6.01776;-27.02892;,
 -35.32111;-6.40182;-28.14475;,
 -31.75722;-8.08449;-29.83080;,
 -35.32111;-6.40182;-28.14475;,
 -34.46580;-8.68349;-31.67147;,
 -37.59355;-5.70091;-37.33159;,
 -34.55846;-9.79455;-35.65228;,
 -40.13311;-2.06046;-32.25221;,
 -36.56832;-0.15915;-26.38941;,
 -31.57627;-0.06174;-26.36805;,
 -29.16934;-4.53801;-27.99040;,
 -30.57518;-8.51238;-32.68435;,
 -34.55846;-9.79455;-35.65228;,
 -38.49391;-1.48375;-39.70719;,
 -33.07402;-9.46971;-39.28223;,
 -41.11985;2.16179;-31.95441;,
 -35.70007;7.67773;-29.53481;,
 -32.26045;6.90046;-28.19778;,
 -28.19534;-5.18309;-32.52458;,
 -29.21552;-7.62036;-36.01218;,
 -33.07402;-9.46971;-39.28223;,
 -37.68851;-2.54921;-42.39853;,
 -29.10001;-8.04607;-41.37320;,
 -38.18799;3.67837;-38.61515;,
 -34.04378;7.64547;-33.81448;,
 -30.60418;6.86819;-32.47744;,
 -25.07208;-4.79262;-33.02728;,
 -25.17805;-9.04634;-39.92282;,
 -29.10001;-8.04607;-41.37320;,
 -34.95651;-3.85224;-46.41906;,
 -26.46077;-7.95441;-44.53621;,
 -36.30275;2.21120;-43.19604;,
 -31.88688;7.96009;-37.09080;,
 -28.46836;7.18760;-35.76196;,
 -22.68262;-0.03349;-41.10287;,
 -22.91026;-6.57442;-41.73650;,
 -26.46077;-7.95441;-44.53621;,
 -31.79357;-1.51114;-46.41021;,
 -25.51337;-4.14142;-44.75682;,
 -32.54918;2.23654;-44.37719;,
 -29.54943;3.74096;-41.79157;,
 -22.95932;3.08492;-42.43108;,
 -21.01737;0.46377;-43.09580;,
 -21.63220;-2.11860;-45.10495;,
 -25.51337;-4.14142;-44.75682;,
 -24.05398;0.95082;-45.55080;,
 -24.05398;0.95082;-45.55080;,
 -24.05398;0.95082;-45.55080;,
 -24.05398;0.95082;-45.55080;,
 -24.05398;0.95082;-45.55080;,
 -24.05398;0.95082;-45.55080;,
 -24.05398;0.95082;-45.55080;,
 14.00982;-4.12455;-32.30130;,
 14.71293;-3.68117;-34.42403;,
 15.57429;-4.28304;-33.46971;,
 14.00982;-4.12455;-32.30130;,
 13.10446;-4.21936;-33.21452;,
 14.00982;-4.12455;-32.30130;,
 12.65221;-3.20733;-32.17235;,
 14.00982;-4.12455;-32.30130;,
 13.19064;-2.72925;-31.51628;,
 14.00982;-4.12455;-32.30130;,
 14.69157;-2.81014;-31.28060;,
 14.00982;-4.12455;-32.30130;,
 15.79000;-3.30701;-32.32266;,
 14.00982;-4.12455;-32.30130;,
 15.57429;-4.28304;-33.46971;,
 14.66546;-4.07744;-36.58807;,
 16.56903;-4.38302;-35.07281;,
 11.94779;-4.18689;-35.13689;,
 11.29959;-2.79742;-32.26681;,
 12.58232;-1.07624;-31.49274;,
 14.98435;-1.49063;-31.43674;,
 16.70918;-2.84497;-33.30877;,
 16.56903;-4.38302;-35.07281;,
 13.39744;-2.96466;-38.07680;,
 17.44142;-3.54192;-36.40163;,
 10.22126;-3.27894;-35.51111;,
 9.40858;0.04860;-34.10409;,
 10.36124;0.89448;-32.94330;,
 16.19429;-1.05280;-33.14650;,
 17.30914;-1.89662;-34.57606;,
 17.44142;-3.54192;-36.40163;,
 14.40481;-2.83175;-39.00035;,
 18.35284;-1.62966;-36.78578;,
 11.56797;-1.38978;-37.99292;,
 10.55174;0.88426;-35.65119;,
 11.50438;1.73013;-34.49037;,
 16.96996;0.15675;-32.90714;,
 19.48940;-0.69433;-35.48409;,
 18.35284;-1.62966;-36.78578;,
 16.21672;-2.02827;-40.16702;,
 19.53281;-0.49746;-37.71954;,
 13.30223;-0.88553;-39.51370;,
 11.54781;1.92701;-36.72582;,
 12.49461;2.76771;-35.57210;,
 17.31447;2.92510;-36.33664;,
 19.55309;0.93417;-36.10157;,
 19.53281;-0.49746;-37.71954;,
 16.26498;-0.25593;-39.86595;,
 18.53884;0.97859;-37.97940;,
 14.47716;0.47362;-39.43304;,
 14.34491;1.76980;-38.00094;,
 16.41006;3.85158;-37.19640;,
 17.91101;3.77068;-36.96074;,
 18.94167;2.92307;-37.69162;,
 18.53884;0.97859;-37.97940;,
 17.34374;3.04877;-38.50714;,
 17.34374;3.04877;-38.50714;,
 17.34374;3.04877;-38.50714;,
 17.34374;3.04877;-38.50714;,
 17.34374;3.04877;-38.50714;,
 17.34374;3.04877;-38.50714;,
 17.34374;3.04877;-38.50714;,
 14.00982;-4.12455;41.09454;,
 14.71293;-3.68117;38.97180;,
 15.57429;-4.28304;39.92612;,
 14.00982;-4.12455;41.09454;,
 13.10446;-4.21936;40.18131;,
 14.00982;-4.12455;41.09454;,
 12.65221;-3.20733;41.22348;,
 14.00982;-4.12455;41.09454;,
 13.19064;-2.72925;41.87955;,
 14.00982;-4.12455;41.09454;,
 14.69157;-2.81014;42.11523;,
 14.00982;-4.12455;41.09454;,
 15.79000;-3.30701;41.07317;,
 14.00982;-4.12455;41.09454;,
 15.57429;-4.28304;39.92612;,
 14.66546;-4.07744;36.80777;,
 16.56903;-4.38302;38.32302;,
 11.94779;-4.18689;38.25894;,
 11.29959;-2.79742;41.12903;,
 12.58232;-1.07624;41.90310;,
 14.98435;-1.49063;41.95909;,
 16.70918;-2.84497;40.08706;,
 16.56903;-4.38302;38.32302;,
 13.39744;-2.96466;35.31904;,
 17.44142;-3.54192;36.99420;,
 10.22126;-3.27894;37.88472;,
 9.40858;0.04860;39.29174;,
 10.36124;0.89448;40.45253;,
 16.19429;-1.05280;40.24933;,
 17.30914;-1.89662;38.81978;,
 17.44142;-3.54192;36.99420;,
 14.40481;-2.83175;34.39549;,
 18.35284;-1.62966;36.61005;,
 11.56797;-1.38978;35.40291;,
 10.55174;0.88426;37.74464;,
 11.50438;1.73013;38.90547;,
 16.96996;0.15675;40.48869;,
 19.48940;-0.69433;37.91174;,
 18.35284;-1.62966;36.61005;,
 16.21672;-2.02827;33.22882;,
 19.53281;-0.49746;35.67629;,
 13.30223;-0.88553;33.88214;,
 11.54781;1.92701;36.67001;,
 12.49461;2.76771;37.82374;,
 17.31447;2.92510;37.05919;,
 19.55309;0.93417;37.29427;,
 19.53281;-0.49746;35.67629;,
 16.26498;-0.25593;33.52988;,
 18.53884;0.97859;35.41644;,
 14.47716;0.47362;33.96279;,
 14.34491;1.76980;35.39489;,
 16.41006;3.85158;36.19943;,
 17.91101;3.77068;36.43509;,
 18.94167;2.92307;35.70422;,
 18.53884;0.97859;35.41644;,
 17.34374;3.04877;34.88869;,
 17.34374;3.04877;34.88869;,
 17.34374;3.04877;34.88869;,
 17.34374;3.04877;34.88869;,
 17.34374;3.04877;34.88869;,
 17.34374;3.04877;34.88869;,
 17.34374;3.04877;34.88869;,
 13.83363;26.60583;40.11704;,
 13.44723;26.73107;38.93172;,
 13.59990;26.02986;39.23782;,
 13.83363;26.60583;40.11704;,
 13.38769;27.14368;39.99812;,
 13.83363;26.60583;40.11704;,
 14.09395;27.44415;40.33016;,
 13.83363;26.60583;40.11704;,
 14.57663;27.21359;40.35287;,
 13.83363;26.60583;40.11704;,
 14.81049;26.46404;40.06511;,
 13.83363;26.60583;40.11704;,
 14.41022;25.99677;39.44177;,
 13.83363;26.60583;40.11704;,
 13.59990;26.02986;39.23782;,
 12.58837;26.99525;38.12214;,
 13.18063;25.80021;38.31597;,
 12.64617;27.98967;39.49283;,
 14.06571;28.18662;40.56276;,
 15.21820;27.91041;40.15229;,
 15.36838;26.68935;39.62100;,
 14.41796;25.84701;38.67301;,
 13.18063;25.80021;38.31597;,
 12.43500;28.09846;37.58476;,
 13.23783;25.82269;37.32943;,
 12.69616;29.07540;39.59558;,
 14.46940;30.07279;39.65374;,
 15.32341;29.66485;39.69391;,
 15.17537;26.51415;38.47412;,
 14.50551;26.01254;37.76167;,
 13.23783;25.82269;37.32943;,
 12.33190;27.81446;36.89316;,
 14.05973;25.94978;36.48767;,
 12.90364;29.32856;37.75720;,
 14.49058;30.00374;38.50324;,
 15.34459;29.59579;38.54345;,
 15.87302;26.42630;38.09122;,
 15.02054;25.45749;36.51730;,
 14.05973;25.94978;36.48767;,
 12.54572;27.36876;35.72972;,
 14.40681;25.84192;35.51857;,
 12.86677;28.89870;36.53330;,
 14.73085;29.98021;37.54472;,
 15.57965;29.57477;37.58470;,
 16.03127;27.51502;35.92471;,
 15.53669;25.94005;35.87053;,
 14.40681;25.84192;35.51857;,
 13.41128;27.74937;35.44171;,
 14.83280;26.71639;35.34283;,
 13.63067;28.69005;35.94173;,
 14.62379;28.85349;36.28724;,
 16.04282;28.30360;35.59650;,
 16.27668;27.55404;35.30875;,
 15.81438;26.97950;34.91441;,
 14.83280;26.71639;35.34283;,
 15.40459;27.87704;34.97377;,
 15.40459;27.87704;34.97377;,
 15.40459;27.87704;34.97377;,
 15.40459;27.87704;34.97377;,
 15.40459;27.87704;34.97377;,
 15.40459;27.87704;34.97377;,
 15.40459;27.87704;34.97377;,
 -29.43492;22.75391;-0.74514;,
 -30.39268;19.83613;-1.20892;,
 -30.01425;20.50286;0.56651;,
 -29.43492;22.75391;-0.74514;,
 -30.54027;22.52932;-2.09189;,
 -29.43492;22.75391;-0.74514;,
 -28.78968;23.39020;-2.79259;,
 -29.43492;22.75391;-0.74514;,
 -27.59325;23.41650;-2.21892;,
 -29.43492;22.75391;-0.74514;,
 -27.01357;22.60698;-0.40090;,
 -29.43492;22.75391;-0.74514;,
 -28.00572;21.00341;0.67489;,
 -29.43492;22.75391;-0.74514;,
 -30.01425;20.50286;0.56651;,
 -32.52156;17.86645;-1.96785;,
 -31.05349;18.19121;1.01538;,
 -32.37828;21.38833;-4.25151;,
 -28.85968;24.06227;-4.60021;,
 -26.00299;23.01040;-3.96978;,
 -25.63075;21.53689;-1.01621;,
 -27.98652;19.08105;0.94586;,
 -31.05349;18.19121;1.01538;,
 -32.90171;16.67940;-4.76833;,
 -30.91172;15.75214;0.83174;,
 -32.25437;21.78351;-6.92570;,
 -27.85904;22.05685;-9.38699;,
 -25.74223;22.10337;-8.37200;,
 -26.10916;18.67530;-0.73134;,
 -27.76954;16.84669;0.41789;,
 -30.91172;15.75214;0.83174;,
 -33.15723;14.93065;-4.15507;,
 -28.87451;13.68503;0.40797;,
 -31.74008;17.26582;-7.79083;,
 -27.80656;19.20007;-9.36532;,
 -25.68972;19.24669;-8.35029;,
 -24.37990;17.71610;-0.56354;,
 -26.49296;13.69451;1.63039;,
 -28.87451;13.68503;0.40797;,
 -32.62727;11.99294;-3.20275;,
 -28.01420;11.27224;0.54925;,
 -31.83149;14.18052;-6.88558;,
 -27.21099;16.82439;-9.43142;,
 -25.10705;16.87075;-8.42263;,
 -23.98764;12.49459;-3.53949;,
 -25.21356;12.15617;0.35199;,
 -28.01420;11.27224;0.54925;,
 -30.48181;11.32941;-4.18225;,
 -26.95828;10.95066;-1.63812;,
 -29.93800;12.68914;-6.44585;,
 -27.47635;13.56561;-6.80557;,
 -23.95902;11.78447;-5.53403;,
 -23.37934;10.97496;-3.71597;,
 -24.52525;9.92432;-2.34498;,
 -26.95828;10.95066;-1.63812;,
 -25.54098;10.18768;-4.55896;,
 -25.54098;10.18768;-4.55896;,
 -25.54098;10.18768;-4.55896;,
 -25.54098;10.18768;-4.55896;,
 -25.54098;10.18768;-4.55896;,
 -25.54098;10.18768;-4.55896;,
 -25.54098;10.18768;-4.55896;,
 37.74608;19.68558;13.99625;,
 35.07167;18.86299;15.34408;,
 36.76950;18.18810;15.97794;,
 37.74608;19.68558;13.99625;,
 36.49274;20.91647;13.99559;,
 37.74608;19.68558;13.99625;,
 37.06812;20.53884;12.04034;,
 37.74608;19.68558;13.99625;,
 37.70562;19.48086;11.55508;,
 37.74608;19.68558;13.99625;,
 38.37198;17.79793;12.56516;,
 37.74608;19.68558;13.99625;,
 37.64138;17.06150;14.47224;,
 37.74608;19.68558;13.99625;,
 36.76950;18.18810;15.97794;,
 32.66775;19.51761;17.01154;,
 35.10526;17.35836;17.75757;,
 33.88630;22.48427;14.29983;,
 36.41490;21.79102;10.72526;,
 36.63929;18.95567;9.47026;,
 37.48178;16.51763;11.56302;,
 36.38207;15.81669;15.26840;,
 35.10526;17.35836;17.75757;,
 29.93508;20.35655;15.90476;,
 33.20008;15.93738;18.35251;,
 32.52167;23.83626;12.39386;,
 32.11501;22.11574;7.66882;,
 33.24293;20.24385;6.81028;,
 35.42392;15.06309;13.02872;,
 34.42863;14.61825;15.52530;,
 33.20008;15.93738;18.35251;,
 28.96228;19.24417;17.05184;,
 31.82687;13.55000;17.34379;,
 28.71574;21.27026;12.98806;,
 30.00851;20.42170;8.59469;,
 31.13651;18.54983;7.73612;,
 35.18435;13.25728;12.24118;,
 33.11462;11.38291;16.44291;,
 31.82687;13.55000;17.34379;,
 27.48438;16.75810;18.25730;,
 30.30000;11.50854;17.63144;,
 26.96499;19.14303;14.64839;,
 28.32188;18.67547;8.92470;,
 29.44300;16.81504;8.07132;,
 29.49637;11.32185;11.82244;,
 31.43483;10.20237;15.25029;,
 30.30000;11.50854;17.63144;,
 26.83118;15.35812;16.35570;,
 28.90710;11.59288;15.61757;,
 26.53497;16.79553;14.09416;,
 27.48923;15.78907;11.85055;,
 27.71519;11.79377;10.77940;,
 28.38159;10.11083;11.78949;,
 28.21669;9.66471;13.80701;,
 28.90710;11.59288;15.61757;,
 26.79984;11.50804;13.03408;,
 26.79984;11.50804;13.03408;,
 26.79984;11.50804;13.03408;,
 26.79984;11.50804;13.03408;,
 26.79984;11.50804;13.03408;,
 26.79984;11.50804;13.03408;,
 26.79984;11.50804;13.03408;,
 -32.13400;25.65545;24.88436;,
 -33.50480;25.57641;24.07887;,
 -32.63455;25.65716;23.61122;,
 -32.13400;25.65545;24.88436;,
 -32.77642;25.15179;25.26432;,
 -32.13400;25.65545;24.88436;,
 -32.48149;25.90950;25.94823;,
 -32.13400;25.65545;24.88436;,
 -32.15473;26.49228;25.82051;,
 -32.13400;25.65545;24.88436;,
 -31.81318;26.86962;24.88789;,
 -32.13400;25.65545;24.88436;,
 -32.18767;26.58280;23.88007;,
 -32.13400;25.65545;24.88436;,
 -32.63455;25.65716;23.61122;,
 -34.73696;24.79410;23.59824;,
 -33.48759;25.44786;22.62679;,
 -34.11239;24.41616;25.62340;,
 -32.81632;25.80258;26.87282;,
 -32.70130;27.35037;26.51193;,
 -32.26947;27.70284;24.90320;,
 -32.83314;26.84677;23.17017;,
 -33.48759;25.44786;22.62679;,
 -36.13763;24.79209;24.31008;,
 -34.46411;25.84600;21.94491;,
 -34.81184;24.45065;26.82067;,
 -35.02028;26.61249;28.22413;,
 -34.44214;27.64358;27.99815;,
 -33.32426;27.84613;23.85453;,
 -33.83441;27.25812;22.69534;,
 -34.46411;25.84600;21.94491;,
 -36.63626;24.89359;23.49740;,
 -35.16798;27.13446;21.62142;,
 -36.76262;25.31775;25.78589;,
 -36.09999;27.02034;27.32258;,
 -35.52183;28.05142;27.09663;,
 -33.44705;28.82827;23.61989;,
 -34.50792;28.29946;21.32172;,
 -35.16798;27.13446;21.62142;,
 -37.39378;25.53943;22.23705;,
 -35.95058;27.88139;20.87393;,
 -37.65999;25.67638;24.45006;,
 -36.96450;27.63336;26.64883;,
 -36.38985;28.65816;26.42428;,
 -36.36249;29.74972;23.19427;,
 -35.36891;29.15059;21.44574;,
 -35.95058;27.88139;20.87393;,
 -37.72858;26.69909;22.58364;,
 -36.66453;28.46809;21.72432;,
 -37.88041;26.80830;23.95279;,
 -37.39129;27.91238;24.56075;,
 -37.27547;29.87827;23.76681;,
 -36.93389;30.25560;22.83420;,
 -37.01842;29.81589;21.87070;,
 -36.66453;28.46809;21.72432;,
 -37.74464;29.29974;22.75571;,
 -37.74464;29.29974;22.75571;,
 -37.74464;29.29974;22.75571;,
 -37.74464;29.29974;22.75571;,
 -37.74464;29.29974;22.75571;,
 -37.74464;29.29974;22.75571;,
 -37.74464;29.29974;22.75571;,
 22.51834;25.61455;-30.33221;,
 19.31794;27.13144;-31.45895;,
 21.34972;28.16443;-31.85971;,
 22.51834;25.61455;-30.33221;,
 21.01851;24.24850;-30.88324;,
 22.51834;25.61455;-30.33221;,
 21.70707;23.79098;-28.54455;,
 22.51834;25.61455;-30.33221;,
 22.46995;24.74735;-27.53181;,
 22.51834;25.61455;-30.33221;,
 23.26737;27.06748;-27.89813;,
 22.51834;25.61455;-30.33221;,
 22.39306;28.73948;-29.68399;,
 22.51834;25.61455;-30.33221;,
 21.34972;28.16443;-31.85971;,
 16.44124;27.15262;-33.60246;,
 19.35812;29.88282;-33.46227;,
 17.89942;22.64535;-31.92366;,
 20.92536;21.81210;-27.64675;,
 21.19388;24.39547;-24.98321;,
 22.20206;28.03872;-26.21227;,
 20.88607;30.47755;-30.00933;,
 19.35812;29.88282;-33.46227;,
 13.17108;25.72562;-32.75054;,
 17.07826;31.72616;-33.48543;,
 16.26642;20.29081;-30.41495;,
 15.77977;20.08170;-24.40103;,
 17.12954;21.77376;-22.60933;,
 19.73946;30.30967;-27.18649;,
 18.54842;31.92239;-29.75712;,
 17.07826;31.72616;-33.48543;,
 12.00695;27.47404;-33.52463;,
 15.43494;33.92287;-31.29593;,
 11.71192;23.40431;-29.92397;,
 13.25896;22.37633;-24.66891;,
 14.60880;24.06834;-22.87718;,
 19.45278;31.96020;-25.50316;,
 16.97596;35.92351;-29.32486;,
 15.43494;33.92287;-31.29593;,
 10.23836;30.77291;-33.74769;,
 13.60780;36.31692;-30.69997;,
 9.61685;26.50884;-30.81256;,
 11.24060;24.46178;-24.25227;,
 12.58223;26.14343;-22.47142;,
 12.64610;33.91998;-24.17093;,
 14.96582;36.69874;-27.47244;,
 13.60780;36.31692;-30.69997;,
 9.45672;31.47373;-31.01018;,
 11.94094;35.32056;-28.50328;,
 9.10225;28.86510;-29.14525;,
 10.24418;28.97603;-26.20471;,
 10.51459;32.92877;-23.22519;,
 11.31206;35.24887;-23.59149;,
 11.11472;36.64829;-25.63004;,
 11.94094;35.32056;-28.50328;,
 9.41920;34.25654;-25.59876;,
 9.41920;34.25654;-25.59876;,
 9.41920;34.25654;-25.59876;,
 9.41920;34.25654;-25.59876;,
 9.41920;34.25654;-25.59876;,
 9.41920;34.25654;-25.59876;,
 9.41920;34.25654;-25.59876;;
 
 589;
 4;0,1,2,3;,
 3;4,5,6;,
 3;7,8,5;,
 3;9,10,8;,
 3;11,12,10;,
 3;13,14,12;,
 3;15,16,14;,
 3;17,18,16;,
 4;6,5,19,20;,
 4;5,8,21,19;,
 4;8,10,22,21;,
 4;10,12,23,22;,
 4;12,14,24,23;,
 4;14,16,25,24;,
 4;16,18,26,25;,
 4;20,19,27,28;,
 4;19,21,29,27;,
 4;21,22,30,29;,
 4;22,23,31,30;,
 4;23,24,32,31;,
 4;24,25,33,32;,
 4;25,26,34,33;,
 4;28,27,35,36;,
 4;27,29,37,35;,
 4;29,30,38,37;,
 4;30,31,39,38;,
 4;31,32,40,39;,
 4;32,33,41,40;,
 4;33,34,42,41;,
 4;36,35,43,44;,
 4;35,37,45,43;,
 4;37,38,46,45;,
 4;38,39,47,46;,
 4;39,40,48,47;,
 4;40,41,49,48;,
 4;41,42,50,49;,
 4;44,43,51,52;,
 4;43,45,53,51;,
 4;45,46,54,53;,
 4;46,47,55,54;,
 4;47,48,56,55;,
 4;48,49,57,56;,
 4;49,50,58,57;,
 3;52,51,59;,
 3;51,53,60;,
 3;53,54,61;,
 3;54,55,62;,
 3;55,56,63;,
 3;56,57,64;,
 3;57,58,65;,
 3;66,67,68;,
 3;69,70,67;,
 3;71,72,70;,
 3;73,74,72;,
 3;75,76,74;,
 3;77,78,76;,
 3;79,80,78;,
 4;68,67,81,82;,
 4;67,70,83,81;,
 4;70,72,84,83;,
 4;72,74,85,84;,
 4;74,76,86,85;,
 4;76,78,87,86;,
 4;78,80,88,87;,
 4;82,81,89,90;,
 4;81,83,91,89;,
 4;83,84,92,91;,
 4;84,85,93,92;,
 4;85,86,94,93;,
 4;86,87,95,94;,
 4;87,88,96,95;,
 4;90,89,97,98;,
 4;89,91,99,97;,
 4;91,92,100,99;,
 4;92,93,101,100;,
 4;93,94,102,101;,
 4;94,95,103,102;,
 4;95,96,104,103;,
 4;98,97,105,106;,
 4;97,99,107,105;,
 4;99,100,108,107;,
 4;100,101,109,108;,
 4;101,102,110,109;,
 4;102,103,111,110;,
 4;103,104,112,111;,
 4;106,105,113,114;,
 4;105,107,115,113;,
 4;107,108,116,115;,
 4;108,109,117,116;,
 4;109,110,118,117;,
 4;110,111,119,118;,
 4;111,112,120,119;,
 3;114,113,121;,
 3;113,115,122;,
 3;115,116,123;,
 3;116,117,124;,
 3;117,118,125;,
 3;118,119,126;,
 3;119,120,127;,
 3;128,129,130;,
 3;131,132,129;,
 3;133,134,132;,
 3;135,136,134;,
 3;137,138,136;,
 3;139,140,138;,
 3;141,142,140;,
 4;130,129,143,144;,
 4;129,132,145,143;,
 4;132,134,146,145;,
 4;134,136,147,146;,
 4;136,138,148,147;,
 4;138,140,149,148;,
 4;140,142,150,149;,
 4;144,143,151,152;,
 4;143,145,153,151;,
 4;145,146,154,153;,
 4;146,147,155,154;,
 4;147,148,156,155;,
 4;148,149,157,156;,
 4;149,150,158,157;,
 4;152,151,159,160;,
 4;151,153,161,159;,
 4;153,154,162,161;,
 4;154,155,163,162;,
 4;155,156,164,163;,
 4;156,157,165,164;,
 4;157,158,166,165;,
 4;160,159,167,168;,
 4;159,161,169,167;,
 4;161,162,170,169;,
 4;162,163,171,170;,
 4;163,164,172,171;,
 4;164,165,173,172;,
 4;165,166,174,173;,
 4;168,167,175,176;,
 4;167,169,177,175;,
 4;169,170,178,177;,
 4;170,171,179,178;,
 4;171,172,180,179;,
 4;172,173,181,180;,
 4;173,174,182,181;,
 3;176,175,183;,
 3;175,177,184;,
 3;177,178,185;,
 3;178,179,186;,
 3;179,180,187;,
 3;180,181,188;,
 3;181,182,189;,
 3;190,191,192;,
 3;193,194,191;,
 3;195,196,194;,
 3;197,198,196;,
 3;199,200,198;,
 3;201,202,200;,
 3;203,204,202;,
 4;192,191,205,206;,
 4;191,194,207,205;,
 4;194,196,208,207;,
 4;196,198,209,208;,
 4;198,200,210,209;,
 4;200,202,211,210;,
 4;202,204,212,211;,
 4;206,205,213,214;,
 4;205,207,215,213;,
 4;207,208,216,215;,
 4;208,209,217,216;,
 4;209,210,218,217;,
 4;210,211,219,218;,
 4;211,212,220,219;,
 4;214,213,221,222;,
 4;213,215,223,221;,
 4;215,216,224,223;,
 4;216,217,225,224;,
 4;217,218,226,225;,
 4;218,219,227,226;,
 4;219,220,228,227;,
 4;222,221,229,230;,
 4;221,223,231,229;,
 4;223,224,232,231;,
 4;224,225,233,232;,
 4;225,226,234,233;,
 4;226,227,235,234;,
 4;227,228,236,235;,
 4;230,229,237,238;,
 4;229,231,239,237;,
 4;231,232,240,239;,
 4;232,233,241,240;,
 4;233,234,242,241;,
 4;234,235,243,242;,
 4;235,236,244,243;,
 3;238,237,245;,
 3;237,239,246;,
 3;239,240,247;,
 3;240,241,248;,
 3;241,242,249;,
 3;242,243,250;,
 3;243,244,251;,
 3;252,253,254;,
 3;255,256,253;,
 3;257,258,256;,
 3;259,260,258;,
 3;261,262,260;,
 3;263,264,262;,
 3;265,266,264;,
 4;254,253,267,268;,
 4;253,256,269,267;,
 4;256,258,270,269;,
 4;258,260,271,270;,
 4;260,262,272,271;,
 4;262,264,273,272;,
 4;264,266,274,273;,
 4;268,267,275,276;,
 4;267,269,277,275;,
 4;269,270,278,277;,
 4;270,271,279,278;,
 4;271,272,280,279;,
 4;272,273,281,280;,
 4;273,274,282,281;,
 4;276,275,283,284;,
 4;275,277,285,283;,
 4;277,278,286,285;,
 4;278,279,287,286;,
 4;279,280,288,287;,
 4;280,281,289,288;,
 4;281,282,290,289;,
 4;284,283,291,292;,
 4;283,285,293,291;,
 4;285,286,294,293;,
 4;286,287,295,294;,
 4;287,288,296,295;,
 4;288,289,297,296;,
 4;289,290,298,297;,
 4;292,291,299,300;,
 4;291,293,301,299;,
 4;293,294,302,301;,
 4;294,295,303,302;,
 4;295,296,304,303;,
 4;296,297,305,304;,
 4;297,298,306,305;,
 3;300,299,307;,
 3;299,301,308;,
 3;301,302,309;,
 3;302,303,310;,
 3;303,304,311;,
 3;304,305,312;,
 3;305,306,313;,
 3;314,315,316;,
 3;317,318,315;,
 3;319,320,318;,
 3;321,322,320;,
 3;323,324,322;,
 3;325,326,324;,
 3;327,328,326;,
 4;316,315,329,330;,
 4;315,318,331,329;,
 4;318,320,332,331;,
 4;320,322,333,332;,
 4;322,324,334,333;,
 4;324,326,335,334;,
 4;326,328,336,335;,
 4;330,329,337,338;,
 4;329,331,339,337;,
 4;331,332,340,339;,
 4;332,333,341,340;,
 4;333,334,342,341;,
 4;334,335,343,342;,
 4;335,336,344,343;,
 4;338,337,345,346;,
 4;337,339,347,345;,
 4;339,340,348,347;,
 4;340,341,349,348;,
 4;341,342,350,349;,
 4;342,343,351,350;,
 4;343,344,352,351;,
 4;346,345,353,354;,
 4;345,347,355,353;,
 4;347,348,356,355;,
 4;348,349,357,356;,
 4;349,350,358,357;,
 4;350,351,359,358;,
 4;351,352,360,359;,
 4;354,353,361,362;,
 4;353,355,363,361;,
 4;355,356,364,363;,
 4;356,357,365,364;,
 4;357,358,366,365;,
 4;358,359,367,366;,
 4;359,360,368,367;,
 3;362,361,369;,
 3;361,363,370;,
 3;363,364,371;,
 3;364,365,372;,
 3;365,366,373;,
 3;366,367,374;,
 3;367,368,375;,
 3;376,377,378;,
 3;379,380,377;,
 3;381,382,380;,
 3;383,384,382;,
 3;385,386,384;,
 3;387,388,386;,
 3;389,390,388;,
 4;378,377,391,392;,
 4;377,380,393,391;,
 4;380,382,394,393;,
 4;382,384,395,394;,
 4;384,386,396,395;,
 4;386,388,397,396;,
 4;388,390,398,397;,
 4;392,391,399,400;,
 4;391,393,401,399;,
 4;393,394,402,401;,
 4;394,395,403,402;,
 4;395,396,404,403;,
 4;396,397,405,404;,
 4;397,398,406,405;,
 4;400,399,407,408;,
 4;399,401,409,407;,
 4;401,402,410,409;,
 4;402,403,411,410;,
 4;403,404,412,411;,
 4;404,405,413,412;,
 4;405,406,414,413;,
 4;408,407,415,416;,
 4;407,409,417,415;,
 4;409,410,418,417;,
 4;410,411,419,418;,
 4;411,412,420,419;,
 4;412,413,421,420;,
 4;413,414,422,421;,
 4;416,415,423,424;,
 4;415,417,425,423;,
 4;417,418,426,425;,
 4;418,419,427,426;,
 4;419,420,428,427;,
 4;420,421,429,428;,
 4;421,422,430,429;,
 3;424,423,431;,
 3;423,425,432;,
 3;425,426,433;,
 3;426,427,434;,
 3;427,428,435;,
 3;428,429,436;,
 3;429,430,437;,
 3;438,439,440;,
 3;441,442,439;,
 3;443,444,442;,
 3;445,446,444;,
 3;447,448,446;,
 3;449,450,448;,
 3;451,452,450;,
 4;440,439,453,454;,
 4;439,442,455,453;,
 4;442,444,456,455;,
 4;444,446,457,456;,
 4;446,448,458,457;,
 4;448,450,459,458;,
 4;450,452,460,459;,
 4;454,453,461,462;,
 4;453,455,463,461;,
 4;455,456,464,463;,
 4;456,457,465,464;,
 4;457,458,466,465;,
 4;458,459,467,466;,
 4;459,460,468,467;,
 4;462,461,469,470;,
 4;461,463,471,469;,
 4;463,464,472,471;,
 4;464,465,473,472;,
 4;465,466,474,473;,
 4;466,467,475,474;,
 4;467,468,476,475;,
 4;470,469,477,478;,
 4;469,471,479,477;,
 4;471,472,480,479;,
 4;472,473,481,480;,
 4;473,474,482,481;,
 4;474,475,483,482;,
 4;475,476,484,483;,
 4;478,477,485,486;,
 4;477,479,487,485;,
 4;479,480,488,487;,
 4;480,481,489,488;,
 4;481,482,490,489;,
 4;482,483,491,490;,
 4;483,484,492,491;,
 3;486,485,493;,
 3;485,487,494;,
 3;487,488,495;,
 3;488,489,496;,
 3;489,490,497;,
 3;490,491,498;,
 3;491,492,499;,
 3;500,501,502;,
 3;503,504,501;,
 3;505,506,504;,
 3;507,508,506;,
 3;509,510,508;,
 3;511,512,510;,
 3;513,514,512;,
 4;502,501,515,516;,
 4;501,504,517,515;,
 4;504,506,518,517;,
 4;506,508,519,518;,
 4;508,510,520,519;,
 4;510,512,521,520;,
 4;512,514,522,521;,
 4;516,515,523,524;,
 4;515,517,525,523;,
 4;517,518,526,525;,
 4;518,519,527,526;,
 4;519,520,528,527;,
 4;520,521,529,528;,
 4;521,522,530,529;,
 4;524,523,531,532;,
 4;523,525,533,531;,
 4;525,526,534,533;,
 4;526,527,535,534;,
 4;527,528,536,535;,
 4;528,529,537,536;,
 4;529,530,538,537;,
 4;532,531,539,540;,
 4;531,533,541,539;,
 4;533,534,542,541;,
 4;534,535,543,542;,
 4;535,536,544,543;,
 4;536,537,545,544;,
 4;537,538,546,545;,
 4;540,539,547,548;,
 4;539,541,549,547;,
 4;541,542,550,549;,
 4;542,543,551,550;,
 4;543,544,552,551;,
 4;544,545,553,552;,
 4;545,546,554,553;,
 3;548,547,555;,
 3;547,549,556;,
 3;549,550,557;,
 3;550,551,558;,
 3;551,552,559;,
 3;552,553,560;,
 3;553,554,561;,
 3;562,563,564;,
 3;565,566,563;,
 3;567,568,566;,
 3;569,570,568;,
 3;571,572,570;,
 3;573,574,572;,
 3;575,576,574;,
 4;564,563,577,578;,
 4;563,566,579,577;,
 4;566,568,580,579;,
 4;568,570,581,580;,
 4;570,572,582,581;,
 4;572,574,583,582;,
 4;574,576,584,583;,
 4;578,577,585,586;,
 4;577,579,587,585;,
 4;579,580,588,587;,
 4;580,581,589,588;,
 4;581,582,590,589;,
 4;582,583,591,590;,
 4;583,584,592,591;,
 4;586,585,593,594;,
 4;585,587,595,593;,
 4;587,588,596,595;,
 4;588,589,597,596;,
 4;589,590,598,597;,
 4;590,591,599,598;,
 4;591,592,600,599;,
 4;594,593,601,602;,
 4;593,595,603,601;,
 4;595,596,604,603;,
 4;596,597,605,604;,
 4;597,598,606,605;,
 4;598,599,607,606;,
 4;599,600,608,607;,
 4;602,601,609,610;,
 4;601,603,611,609;,
 4;603,604,612,611;,
 4;604,605,613,612;,
 4;605,606,614,613;,
 4;606,607,615,614;,
 4;607,608,616,615;,
 3;610,609,617;,
 3;609,611,618;,
 3;611,612,619;,
 3;612,613,620;,
 3;613,614,621;,
 3;614,615,622;,
 3;615,616,623;,
 3;624,625,626;,
 3;627,628,625;,
 3;629,630,628;,
 3;631,632,630;,
 3;633,634,632;,
 3;635,636,634;,
 3;637,638,636;,
 4;626,625,639,640;,
 4;625,628,641,639;,
 4;628,630,642,641;,
 4;630,632,643,642;,
 4;632,634,644,643;,
 4;634,636,645,644;,
 4;636,638,646,645;,
 4;640,639,647,648;,
 4;639,641,649,647;,
 4;641,642,650,649;,
 4;642,643,651,650;,
 4;643,644,652,651;,
 4;644,645,653,652;,
 4;645,646,654,653;,
 4;648,647,655,656;,
 4;647,649,657,655;,
 4;649,650,658,657;,
 4;650,651,659,658;,
 4;651,652,660,659;,
 4;652,653,661,660;,
 4;653,654,662,661;,
 4;656,655,663,664;,
 4;655,657,665,663;,
 4;657,658,666,665;,
 4;658,659,667,666;,
 4;659,660,668,667;,
 4;660,661,669,668;,
 4;661,662,670,669;,
 4;664,663,671,672;,
 4;663,665,673,671;,
 4;665,666,674,673;,
 4;666,667,675,674;,
 4;667,668,676,675;,
 4;668,669,677,676;,
 4;669,670,678,677;,
 3;672,671,679;,
 3;671,673,680;,
 3;673,674,681;,
 3;674,675,682;,
 3;675,676,683;,
 3;676,677,684;,
 3;677,678,685;,
 3;686,687,688;,
 3;689,690,687;,
 3;691,692,690;,
 3;693,694,692;,
 3;695,696,694;,
 3;697,698,696;,
 3;699,700,698;,
 4;688,687,701,702;,
 4;687,690,703,701;,
 4;690,692,704,703;,
 4;692,694,705,704;,
 4;694,696,706,705;,
 4;696,698,707,706;,
 4;698,700,708,707;,
 4;702,701,709,710;,
 4;701,703,711,709;,
 4;703,704,712,711;,
 4;704,705,713,712;,
 4;705,706,714,713;,
 4;706,707,715,714;,
 4;707,708,716,715;,
 4;710,709,717,718;,
 4;709,711,719,717;,
 4;711,712,720,719;,
 4;712,713,721,720;,
 4;713,714,722,721;,
 4;714,715,723,722;,
 4;715,716,724,723;,
 4;718,717,725,726;,
 4;717,719,727,725;,
 4;719,720,728,727;,
 4;720,721,729,728;,
 4;721,722,730,729;,
 4;722,723,731,730;,
 4;723,724,732,731;,
 4;726,725,733,734;,
 4;725,727,735,733;,
 4;727,728,736,735;,
 4;728,729,737,736;,
 4;729,730,738,737;,
 4;730,731,739,738;,
 4;731,732,740,739;,
 3;734,733,741;,
 3;733,735,742;,
 3;735,736,743;,
 3;736,737,744;,
 3;737,738,745;,
 3;738,739,746;,
 3;739,740,747;;
 
 MeshMaterialList {
  1;
  589;
  0,
  0,
  0,
  0,
  0,
  0,
  0,
  0,
  0,
  0,
  0,
  0,
  0,
  0,
  0,
  0,
  0,
  0,
  0,
  0,
  0,
  0,
  0,
  0,
  0,
  0,
  0,
  0,
  0,
  0,
  0,
  0,
  0,
  0,
  0,
  0,
  0,
  0,
  0,
  0,
  0,
  0,
  0,
  0,
  0,
  0,
  0,
  0,
  0,
  0,
  0,
  0,
  0,
  0,
  0,
  0,
  0,
  0,
  0,
  0,
  0,
  0,
  0,
  0,
  0,
  0,
  0,
  0,
  0,
  0,
  0,
  0,
  0,
  0,
  0,
  0,
  0,
  0,
  0,
  0,
  0,
  0,
  0,
  0,
  0,
  0,
  0,
  0,
  0,
  0,
  0,
  0,
  0,
  0,
  0,
  0,
  0,
  0,
  0,
  0,
  0,
  0,
  0,
  0,
  0,
  0,
  0,
  0,
  0,
  0,
  0,
  0,
  0,
  0,
  0,
  0,
  0,
  0,
  0,
  0,
  0,
  0,
  0,
  0,
  0,
  0,
  0,
  0,
  0,
  0,
  0,
  0,
  0,
  0,
  0,
  0,
  0,
  0,
  0,
  0,
  0,
  0,
  0,
  0,
  0,
  0,
  0,
  0,
  0,
  0,
  0,
  0,
  0,
  0,
  0,
  0,
  0,
  0,
  0,
  0,
  0,
  0,
  0,
  0,
  0,
  0,
  0,
  0,
  0,
  0,
  0,
  0,
  0,
  0,
  0,
  0,
  0,
  0,
  0,
  0,
  0,
  0,
  0,
  0,
  0,
  0,
  0,
  0,
  0,
  0,
  0,
  0,
  0,
  0,
  0,
  0,
  0,
  0,
  0,
  0,
  0,
  0,
  0,
  0,
  0,
  0,
  0,
  0,
  0,
  0,
  0,
  0,
  0,
  0,
  0,
  0,
  0,
  0,
  0,
  0,
  0,
  0,
  0,
  0,
  0,
  0,
  0,
  0,
  0,
  0,
  0,
  0,
  0,
  0,
  0,
  0,
  0,
  0,
  0,
  0,
  0,
  0,
  0,
  0,
  0,
  0,
  0,
  0,
  0,
  0,
  0,
  0,
  0,
  0,
  0,
  0,
  0,
  0,
  0,
  0,
  0,
  0,
  0,
  0,
  0,
  0,
  0,
  0,
  0,
  0,
  0,
  0,
  0,
  0,
  0,
  0,
  0,
  0,
  0,
  0,
  0,
  0,
  0,
  0,
  0,
  0,
  0,
  0,
  0,
  0,
  0,
  0,
  0,
  0,
  0,
  0,
  0,
  0,
  0,
  0,
  0,
  0,
  0,
  0,
  0,
  0,
  0,
  0,
  0,
  0,
  0,
  0,
  0,
  0,
  0,
  0,
  0,
  0,
  0,
  0,
  0,
  0,
  0,
  0,
  0,
  0,
  0,
  0,
  0,
  0,
  0,
  0,
  0,
  0,
  0,
  0,
  0,
  0,
  0,
  0,
  0,
  0,
  0,
  0,
  0,
  0,
  0,
  0,
  0,
  0,
  0,
  0,
  0,
  0,
  0,
  0,
  0,
  0,
  0,
  0,
  0,
  0,
  0,
  0,
  0,
  0,
  0,
  0,
  0,
  0,
  0,
  0,
  0,
  0,
  0,
  0,
  0,
  0,
  0,
  0,
  0,
  0,
  0,
  0,
  0,
  0,
  0,
  0,
  0,
  0,
  0,
  0,
  0,
  0,
  0,
  0,
  0,
  0,
  0,
  0,
  0,
  0,
  0,
  0,
  0,
  0,
  0,
  0,
  0,
  0,
  0,
  0,
  0,
  0,
  0,
  0,
  0,
  0,
  0,
  0,
  0,
  0,
  0,
  0,
  0,
  0,
  0,
  0,
  0,
  0,
  0,
  0,
  0,
  0,
  0,
  0,
  0,
  0,
  0,
  0,
  0,
  0,
  0,
  0,
  0,
  0,
  0,
  0,
  0,
  0,
  0,
  0,
  0,
  0,
  0,
  0,
  0,
  0,
  0,
  0,
  0,
  0,
  0,
  0,
  0,
  0,
  0,
  0,
  0,
  0,
  0,
  0,
  0,
  0,
  0,
  0,
  0,
  0,
  0,
  0,
  0,
  0,
  0,
  0,
  0,
  0,
  0,
  0,
  0,
  0,
  0,
  0,
  0,
  0,
  0,
  0,
  0,
  0,
  0,
  0,
  0,
  0,
  0,
  0,
  0,
  0,
  0,
  0,
  0,
  0,
  0,
  0,
  0,
  0,
  0,
  0,
  0,
  0,
  0,
  0,
  0,
  0,
  0,
  0,
  0,
  0,
  0,
  0,
  0,
  0,
  0,
  0,
  0,
  0,
  0,
  0,
  0,
  0,
  0,
  0,
  0,
  0,
  0,
  0,
  0,
  0,
  0,
  0,
  0,
  0,
  0,
  0,
  0,
  0,
  0,
  0,
  0,
  0,
  0,
  0,
  0,
  0,
  0,
  0,
  0,
  0,
  0,
  0,
  0,
  0,
  0,
  0,
  0,
  0,
  0,
  0,
  0,
  0,
  0,
  0,
  0,
  0,
  0,
  0,
  0,
  0,
  0,
  0,
  0;;
  Material {
   0.800000;0.800000;0.800000;1.000000;;
   5.000000;
   0.000000;0.000000;0.000000;;
   0.000000;0.000000;0.000000;;
   TextureFilename {
    "data\\TEXTURE\\stone.png";
   }
  }
 }
 MeshNormals {
  709;
  0.000000;1.000000;0.000000;,
  0.136522;0.972573;-0.188317;,
  0.744408;0.636367;-0.202224;,
  0.597130;0.673364;-0.435910;,
  0.378139;0.887385;-0.263742;,
  0.091113;0.957156;0.274865;,
  -0.276271;0.894011;0.352731;,
  -0.567985;0.822404;-0.032325;,
  -0.459737;0.740097;-0.490814;,
  0.723122;0.508889;-0.467040;,
  0.695507;0.536000;-0.478512;,
  0.586492;0.801800;-0.114648;,
  0.116749;0.863238;0.491111;,
  -0.348496;0.720870;0.599080;,
  -0.971939;0.234167;0.022391;,
  -0.709650;0.379146;-0.593840;,
  0.370211;0.348096;-0.861262;,
  0.838887;0.208305;-0.502870;,
  0.945802;0.274547;0.173443;,
  0.179362;0.745873;0.641485;,
  -0.522510;0.485278;0.701063;,
  -0.981746;0.021712;0.188951;,
  -0.610036;0.455005;-0.648712;,
  0.092645;0.373124;-0.923144;,
  0.836840;0.167410;-0.521222;,
  0.946642;-0.217028;0.238263;,
  0.418809;-0.453907;0.786491;,
  -0.313593;-0.388305;0.866533;,
  -0.941926;0.052725;0.331655;,
  -0.389219;0.508274;-0.768222;,
  -0.091839;0.025158;-0.995456;,
  0.300589;0.458805;-0.836149;,
  0.770393;-0.615043;0.167978;,
  0.352376;-0.719056;0.598990;,
  -0.468746;-0.448205;0.761176;,
  -0.969603;-0.015478;0.244194;,
  -0.995127;0.042909;-0.088772;,
  0.097214;-0.692120;-0.715205;,
  0.378611;-0.828768;-0.412065;,
  0.474695;-0.868762;0.141126;,
  0.309415;-0.867849;0.388716;,
  0.109979;-0.937305;0.330702;,
  -0.964221;0.038237;0.262329;,
  -0.993399;0.093616;-0.066287;,
  0.192273;-0.977340;-0.088531;,
  -0.296998;0.759456;-0.578808;,
  -0.458480;0.462868;-0.758650;,
  -0.859686;-0.344297;0.377358;,
  -0.529822;0.297601;-0.794180;,
  0.443164;-0.427490;0.787945;,
  -0.000002;-0.514511;0.857484;,
  -0.815475;0.278533;0.507366;,
  -0.532979;0.730936;-0.426222;,
  0.875085;-0.466450;-0.129036;,
  -0.993790;-0.007929;-0.110985;,
  -0.289786;-0.212427;-0.933220;,
  0.160133;-0.745252;-0.647268;,
  -0.827140;-0.021421;0.561588;,
  -0.062326;-0.825656;-0.560720;,
  -0.216941;-0.974928;0.049515;,
  0.136522;0.609331;0.781075;,
  0.744408;0.469087;0.475200;,
  0.597129;0.694100;0.402072;,
  0.378139;0.637860;0.670929;,
  0.091113;0.189632;0.977618;,
  -0.276271;0.091587;0.956706;,
  -0.567985;0.402165;0.718092;,
  -0.459737;0.773315;0.436607;,
  0.723122;0.647166;0.241392;,
  0.695507;0.669696;0.260340;,
  0.586492;0.466162;0.662360;,
  0.116749;-0.045682;0.992110;,
  -0.348496;-0.206517;0.914276;,
  -0.971939;0.086359;0.218809;,
  -0.709650;0.701244;0.068224;,
  0.370211;0.925423;-0.080849;,
  0.838887;0.542629;-0.042697;,
  0.945802;-0.029897;0.323365;,
  0.179362;-0.232948;0.955806;,
  -0.522510;-0.404340;0.750662;,
  -0.981746;-0.158500;0.105127;,
  -0.610036;0.784574;0.110903;,
  0.092644;0.991922;-0.086643;,
  0.836840;0.540415;-0.087467;,
  0.946642;-0.310822;-0.085204;,
  0.418809;-0.906838;-0.047374;,
  -0.313594;-0.948373;0.047416;,
  -0.941926;-0.271570;0.197547;,
  -0.389219;0.915243;0.104110;,
  -0.091839;0.898379;-0.429512;,
  0.300589;0.953307;0.029194;,
  0.770393;-0.428893;-0.471747;,
  0.352376;-0.860149;-0.368748;,
  -0.468746;-0.881694;-0.053786;,
  -0.969603;-0.224606;0.097071;,
  -0.995127;0.098578;-0.002069;,
  0.097214;0.323037;-0.941380;,
  0.378611;-0.009100;-0.925511;,
  0.474695;-0.520154;-0.710003;,
  0.309415;-0.740344;-0.596786;,
  0.109980;-0.720185;-0.685010;,
  -0.964221;-0.216378;0.153164;,
  -0.993399;0.101563;0.053319;,
  0.192273;-0.364821;-0.911009;,
  -0.296998;0.860507;0.413908;,
  -0.458480;0.886100;0.067999;,
  -0.859686;-0.492536;-0.135454;,
  -0.529823;0.842727;-0.095386;,
  0.443164;-0.896141;-0.023176;,
  -0.000003;-0.997607;-0.069143;,
  -0.815474;-0.325615;0.478515;,
  -0.532978;0.711605;0.457769;,
  0.875085;-0.096792;-0.474191;,
  -0.993790;0.095289;-0.057451;,
  -0.289785;0.735065;-0.612946;,
  0.160133;0.238384;-0.957878;,
  -0.827139;-0.510105;0.235869;,
  -0.062325;0.124766;-0.990227;,
  -0.216939;-0.486726;-0.846189;,
  0.136522;0.128593;0.982255;,
  0.744406;0.162997;0.647527;,
  0.597129;0.393989;0.698720;,
  0.378140;0.209076;0.901830;,
  0.091115;-0.332785;0.938590;,
  -0.276273;-0.406650;0.870809;,
  -0.567986;-0.017942;0.822842;,
  -0.459736;0.444715;0.768681;,
  0.723122;0.435101;0.536453;,
  0.695507;0.444897;0.564213;,
  0.586493;0.065485;0.807303;,
  0.116750;-0.542896;0.831645;,
  -0.348498;-0.641973;0.682949;,
  -0.971939;-0.036646;0.232361;,
  -0.709650;0.569586;0.414692;,
  0.370211;0.838405;0.400026;,
  0.838887;0.489215;0.238616;,
  0.945802;-0.189880;0.263446;,
  0.179361;-0.685823;0.705320;,
  -0.522510;-0.729381;0.441573;,
  -0.981746;-0.189925;0.010135;,
  -0.610036;0.619724;0.493758;,
  0.092644;0.898644;0.428784;,
  0.836840;0.510030;0.198917;,
  0.946641;-0.224569;-0.231169;,
  0.418809;-0.757313;-0.501074;,
  -0.313594;-0.841211;-0.440480;,
  -0.941926;-0.334256;0.032380;,
  -0.389220;0.735760;0.554225;,
  -0.091839;0.992063;0.085882;,
  0.300589;0.806580;0.508994;,
  0.770393;-0.130117;-0.624151;,
  0.352376;-0.553975;-0.754283;,
  -0.468746;-0.732395;-0.493837;,
  -0.969603;-0.242794;-0.030357;,
  -0.995127;0.085988;0.048249;,
  0.097214;0.756125;-0.647167;,
  0.378611;0.461892;-0.802066;,
  0.474696;-0.087826;-0.875757;,
  0.309416;-0.335011;-0.889960;,
  0.109979;-0.272864;-0.955746;,
  -0.964221;-0.264174;0.022150;,
  -0.993399;0.060450;0.097489;,
  0.192273;0.148031;-0.970112;,
  -0.296996;0.531365;0.793376;,
  -0.458479;0.728978;0.508319;,
  -0.859686;-0.355635;-0.366693;,
  -0.529822;0.774531;0.345528;,
  0.443164;-0.760379;-0.474795;,
  -0.000003;-0.824474;-0.565899;,
  -0.815474;-0.523425;0.247039;,
  -0.532978;0.380804;0.755594;,
  0.875086;0.157271;-0.457702;,
  -0.993790;0.111262;-0.001140;,
  -0.289785;0.944448;-0.155058;,
  0.160133;0.691558;-0.704347;,
  -0.827138;-0.559234;-0.055667;,
  -0.062326;0.610080;-0.789885;,
  -0.216941;0.010095;-0.976133;,
  -0.781544;0.190718;0.593983;,
  -0.716057;0.688687;0.113896;,
  -0.880792;0.468500;0.068654;,
  -0.838059;0.368205;0.402594;,
  -0.416332;0.329174;0.847533;,
  -0.236864;0.016968;0.971395;,
  -0.414152;-0.409560;0.812859;,
  -0.728482;-0.503239;0.464828;,
  -0.828761;0.546903;-0.118541;,
  -0.848195;0.521243;-0.094191;,
  -0.719486;0.603607;0.343509;,
  -0.201790;0.423806;0.882989;,
  0.071651;0.023088;0.997162;,
  0.085919;-0.840030;0.535693;,
  -0.523049;-0.822890;0.221972;,
  -0.943264;0.048296;-0.328513;,
  -0.692486;0.594486;-0.408716;,
  -0.253497;0.966805;-0.032039;,
  -0.029879;0.522754;0.851960;,
  0.334365;-0.128976;0.933577;,
  0.345726;-0.814252;0.466334;,
  -0.633772;-0.743000;0.215138;,
  -0.943369;-0.224470;-0.244270;,
  -0.680037;0.579504;-0.449139;,
  0.103340;0.921913;-0.373360;,
  0.778383;0.623605;-0.072365;,
  0.959845;-0.000623;0.280529;,
  0.423814;-0.717551;0.552722;,
  -0.805483;-0.581692;0.113278;,
  -0.737742;-0.470755;-0.483866;,
  -0.978562;0.010948;-0.205664;,
  0.340072;0.676662;-0.653054;,
  0.819833;0.451269;-0.352463;,
  0.953411;-0.191576;0.233037;,
  0.407576;-0.786906;0.463315;,
  0.128273;-0.932421;0.337841;,
  -0.120392;-0.292750;-0.948579;,
  0.128875;0.062109;-0.989714;,
  0.545164;0.360864;-0.756686;,
  0.766010;0.308139;-0.564162;,
  0.810736;0.094179;-0.577787;,
  0.386173;-0.767125;0.512240;,
  0.112817;-0.914685;0.388101;,
  0.504913;-0.001540;-0.863169;,
  -0.842474;-0.387201;0.374585;,
  -0.754421;-0.647402;0.108260;,
  0.688909;-0.682345;0.244559;,
  -0.661264;-0.750058;-0.011944;,
  0.757461;0.650116;-0.060016;,
  0.962572;0.262364;0.067973;,
  0.384925;-0.501030;0.775114;,
  -0.658263;-0.545711;0.518546;,
  0.001965;0.676580;-0.736367;,
  0.143334;-0.947286;0.286540;,
  -0.498093;-0.660453;-0.561877;,
  -0.050360;-0.216609;-0.974959;,
  0.616313;-0.533717;0.579054;,
  0.114169;-0.396283;-0.911002;,
  0.697401;-0.318613;-0.641964;,
  -0.519403;-0.614333;0.593982;,
  -0.935832;-0.333535;0.113895;,
  -0.812284;-0.579207;0.068653;,
  -0.703460;-0.585716;0.402593;,
  -0.480357;-0.225713;0.847532;,
  -0.120874;-0.204407;0.971395;,
  0.181735;-0.553384;0.812858;,
  0.125319;-0.876488;0.464827;,
  -0.859233;-0.497661;-0.118541;,
  -0.844940;-0.526502;-0.094191;,
  -0.861222;-0.374566;0.343509;,
  -0.469317;0.008513;0.882989;,
  0.011308;0.074425;0.997162;,
  0.790109;-0.297928;0.535693;,
  0.503049;-0.835266;0.221972;,
  -0.464103;-0.822610;-0.328513;,
  -0.841012;-0.354473;-0.408716;,
  -0.978337;0.204522;-0.032039;,
  -0.481162;0.206511;0.851960;,
  0.264617;0.241686;0.933577;,
  0.882965;-0.053914;0.466333;,
  0.382149;-0.898709;0.215138;,
  -0.220043;-0.944412;-0.244269;,
  -0.822048;-0.350016;-0.449139;,
  -0.778942;0.503838;-0.373360;,
  -0.210772;0.974853;-0.072365;,
  0.428838;0.858721;0.280529;,
  0.831266;0.059116;0.552722;,
  0.161171;-0.980404;0.113278;,
  0.092116;-0.870281;-0.483864;,
  -0.446429;-0.870864;-0.205663;,
  -0.453829;0.606267;-0.653054;,
  -0.038049;0.935052;-0.352464;,
  0.596858;0.767759;0.233037;,
  0.886088;0.013637;0.463316;,
  0.891691;-0.301249;0.337840;,
  0.208274;-0.238367;-0.948580;,
  0.001921;0.143048;-0.989714;,
  -0.079699;0.648902;-0.756687;,
  0.066028;0.823019;-0.564163;,
  0.277463;0.767577;-0.577788;,
  0.858836;0.003309;0.512241;,
  0.868922;-0.307168;0.388102;,
  0.226669;0.451177;-0.863169;,
  -0.029390;-0.926727;0.374585;,
  0.242762;-0.964026;0.108261;,
  0.918044;0.312069;0.244558;,
  0.376199;-0.926462;-0.011943;,
  -0.243834;0.967958;-0.060015;,
  0.194699;0.978505;0.067974;,
  0.620141;0.120923;0.775114;,
  0.194660;-0.832597;0.518547;,
  -0.604618;0.303647;-0.736367;,
  0.911714;-0.294402;0.286539;,
  0.368815;-0.740454;-0.561875;,
  0.171380;-0.141720;-0.974959;,
  0.752639;0.313417;0.579055;,
  0.405590;-0.074647;-0.911002;,
  0.596314;0.481964;-0.641965;,
  -0.059968;-0.873537;0.483050;,
  -0.336452;-0.929366;-0.151919;,
  -0.068488;-0.991828;-0.107644;,
  -0.119411;-0.963701;0.238792;,
  -0.412932;-0.627051;0.660526;,
  -0.264764;-0.364227;0.892882;,
  0.222842;-0.344942;0.911788;,
  0.551201;-0.547764;0.629390;,
  -0.089041;-0.946199;-0.311092;,
  -0.068240;-0.957987;-0.278574;,
  -0.344736;-0.934102;0.092789;,
  -0.591207;-0.470759;0.654875;,
  -0.402330;-0.087425;0.911311;,
  0.485341;0.313939;0.816019;,
  0.825550;-0.205219;0.525692;,
  0.452674;-0.835063;-0.312661;,
  -0.080620;-0.796945;-0.598648;,
  -0.704439;-0.587758;-0.397876;,
  -0.732480;-0.345518;0.586592;,
  -0.356173;0.219251;0.908334;,
  0.384407;0.552560;0.739533;,
  0.804691;-0.335473;0.489827;,
  0.653317;-0.745795;-0.130256;,
  -0.058573;-0.774094;-0.630355;,
  -0.687805;-0.194466;-0.699362;,
  -0.812266;0.491809;-0.313605;,
  -0.482544;0.839464;0.249904;,
  0.240802;0.575613;0.781463;,
  0.773139;-0.538185;0.335579;,
  0.864425;-0.430865;-0.259083;,
  0.454702;-0.871315;-0.184542;,
  -0.475754;0.154402;-0.865921;,
  -0.583685;0.634571;-0.506588;,
  -0.301722;0.911555;0.279343;,
  0.337661;0.599504;0.725658;,
  0.616782;0.415840;0.668324;,
  0.632446;0.136115;-0.762551;,
  0.247580;0.238436;-0.939070;,
  -0.253975;0.475026;-0.842524;,
  -0.366021;0.669211;-0.646672;,
  -0.198223;0.791858;-0.577640;,
  0.312116;0.565425;0.763465;,
  0.590114;0.387780;0.708090;,
  0.106208;0.588511;-0.801483;,
  0.530723;-0.682391;0.502669;,
  0.810053;-0.466185;0.355648;,
  0.214610;0.850175;0.480776;,
  0.902295;-0.325143;0.283100;,
  -0.830700;0.460969;-0.312163;,
  -0.630391;0.774837;-0.047273;,
  -0.005646;0.427110;0.904182;,
  0.539972;-0.475354;0.694599;,
  -0.311027;-0.143435;-0.939515;,
  0.641550;0.442619;0.626500;,
  0.956724;-0.129236;-0.260723;,
  0.549491;0.175786;-0.816798;,
  -0.000811;0.679795;0.733402;,
  0.612898;0.384243;-0.690445;,
  0.218710;0.850980;-0.477493;,
  -0.059968;-0.873537;0.483050;,
  -0.336453;-0.929365;-0.151919;,
  -0.068488;-0.991828;-0.107644;,
  -0.119411;-0.963701;0.238791;,
  -0.412932;-0.627051;0.660526;,
  -0.264764;-0.364226;0.892883;,
  0.222842;-0.344941;0.911788;,
  0.551202;-0.547764;0.629390;,
  -0.089041;-0.946199;-0.311092;,
  -0.068240;-0.957987;-0.278574;,
  -0.344736;-0.934102;0.092789;,
  -0.591206;-0.470759;0.654875;,
  -0.402329;-0.087424;0.911311;,
  0.485341;0.313939;0.816018;,
  0.825550;-0.205218;0.525692;,
  0.452674;-0.835063;-0.312661;,
  -0.080620;-0.796945;-0.598648;,
  -0.704439;-0.587758;-0.397876;,
  -0.732480;-0.345518;0.586592;,
  -0.356173;0.219251;0.908334;,
  0.384407;0.552559;0.739533;,
  0.804691;-0.335474;0.489827;,
  0.653317;-0.745795;-0.130257;,
  -0.058572;-0.774094;-0.630355;,
  -0.687805;-0.194466;-0.699362;,
  -0.812266;0.491809;-0.313605;,
  -0.482544;0.839464;0.249904;,
  0.240802;0.575612;0.781463;,
  0.773139;-0.538185;0.335579;,
  0.864425;-0.430865;-0.259084;,
  0.454702;-0.871315;-0.184543;,
  -0.475753;0.154402;-0.865921;,
  -0.583685;0.634571;-0.506589;,
  -0.301721;0.911555;0.279343;,
  0.337661;0.599504;0.725658;,
  0.616781;0.415840;0.668325;,
  0.632446;0.136115;-0.762552;,
  0.247580;0.238436;-0.939070;,
  -0.253975;0.475026;-0.842524;,
  -0.366021;0.669211;-0.646673;,
  -0.198223;0.791858;-0.577640;,
  0.312115;0.565425;0.763465;,
  0.590113;0.387781;0.708091;,
  0.106208;0.588511;-0.801483;,
  0.530723;-0.682391;0.502668;,
  0.810053;-0.466185;0.355648;,
  0.214610;0.850175;0.480776;,
  0.902295;-0.325142;0.283100;,
  -0.830700;0.460969;-0.312163;,
  -0.630391;0.774837;-0.047273;,
  -0.005646;0.427109;0.904182;,
  0.539972;-0.475355;0.694599;,
  -0.311027;-0.143436;-0.939515;,
  0.641549;0.442619;0.626500;,
  0.956724;-0.129236;-0.260723;,
  0.549491;0.175785;-0.816798;,
  -0.000810;0.679794;0.733403;,
  0.612898;0.384243;-0.690445;,
  0.218709;0.850979;-0.477494;,
  -0.422774;-0.493105;0.760335;,
  -0.895739;-0.103985;0.432248;,
  -0.856198;-0.370306;0.360276;,
  -0.647558;-0.414524;0.639405;,
  -0.210834;-0.134363;0.968244;,
  0.163550;-0.204031;0.965206;,
  0.304483;-0.609357;0.732102;,
  0.060863;-0.897008;0.437805;,
  -0.941853;-0.273289;0.195513;,
  -0.927560;-0.305560;0.215094;,
  -0.761143;-0.169812;0.625960;,
  -0.133449;0.089026;0.987049;,
  0.358905;0.034025;0.932754;,
  0.828543;-0.497039;0.257816;,
  0.334926;-0.938659;0.082118;,
  -0.727813;-0.675586;-0.117779;,
  -0.987565;-0.128373;-0.090748;,
  -0.855402;0.433471;0.283534;,
  -0.107611;0.285079;0.952444;,
  0.608742;0.138031;0.781268;,
  0.948161;-0.279988;0.150323;,
  0.207229;-0.971077;0.118602;,
  -0.505900;-0.855117;-0.113314;,
  -0.982609;-0.127142;-0.135329;,
  -0.715649;0.688398;-0.118131;,
  0.014686;0.998914;-0.044216;,
  0.688255;0.720761;0.082508;,
  0.956429;-0.161022;0.243547;,
  -0.047708;-0.993900;0.099428;,
  -0.282826;-0.849279;-0.445797;,
  -0.682346;-0.731009;-0.005544;,
  -0.487348;0.720025;-0.494020;,
  0.069994;0.928973;-0.363468;,
  0.804335;0.594022;-0.013522;,
  0.966027;-0.215081;0.143288;,
  0.854840;-0.517505;0.037904;,
  -0.181165;-0.247331;-0.951844;,
  -0.292789;0.173570;-0.940291;,
  -0.170036;0.675650;-0.717346;,
  0.068201;0.802917;-0.592176;,
  0.243586;0.699059;-0.672297;,
  0.954930;-0.220334;0.198901;,
  0.849323;-0.519600;0.093089;,
  0.027475;0.414339;-0.909708;,
  -0.122250;-0.905561;0.406219;,
  0.029008;-0.997333;0.066978;,
  0.993366;0.074658;-0.087467;,
  0.119856;-0.988502;-0.092181;,
  -0.013034;0.999688;-0.021326;,
  0.432341;0.900531;-0.046096;,
  0.852126;-0.058493;0.520058;,
  0.152422;-0.872908;0.463464;,
  -0.724424;0.465387;-0.508551;,
  0.857724;-0.513816;-0.017397;,
  -0.025299;-0.786668;-0.616857;,
  -0.200686;-0.143791;-0.969045;,
  0.953671;0.103589;0.282454;,
  0.050284;-0.136963;-0.989299;,
  0.445694;0.347982;-0.824782;,
  -0.422772;0.733486;0.532223;,
  -0.895739;0.426212;0.126468;,
  -0.856197;0.340400;0.388658;,
  -0.647556;0.616832;0.447425;,
  -0.210833;0.959884;0.184856;,
  0.163552;0.953204;0.254268;,
  0.304484;0.699209;0.646836;,
  0.060864;0.390261;0.918690;,
  -0.941852;0.180944;0.283151;,
  -0.927559;0.198808;0.316401;,
  -0.761143;0.616213;0.202341;,
  -0.133450;0.990355;-0.037244;,
  0.358906;0.933256;0.014840;,
  0.828544;0.231450;0.509848;,
  0.334927;0.032880;0.941670;,
  -0.727813;-0.152974;0.668497;,
  -0.987565;-0.097343;0.123448;,
  -0.855402;0.305829;-0.418040;,
  -0.107613;0.966058;-0.234844;,
  0.608741;0.787422;-0.096955;,
  0.948162;0.135462;0.287469;,
  0.207230;0.067616;0.975953;,
  -0.505901;-0.157914;0.848014;,
  -0.982609;-0.141798;0.119885;,
  -0.715650;-0.081939;-0.693636;,
  0.014686;0.008126;-0.999859;,
  0.688256;0.120118;-0.715455;,
  0.956429;0.234787;0.173550;,
  -0.047709;0.047275;0.997742;,
  -0.282827;-0.489635;0.824782;,
  -0.682347;-0.043797;0.729715;,
  -0.487349;-0.455658;-0.744894;,
  0.069994;-0.314351;-0.946723;,
  0.804335;0.017585;-0.593916;,
  0.966027;0.131835;0.222288;,
  0.854838;0.010768;0.518784;,
  -0.181165;-0.963484;0.197176;,
  -0.292788;-0.929919;-0.222543;,
  -0.170032;-0.681002;-0.712267;,
  0.068204;-0.549342;-0.832809;,
  0.243586;-0.634789;-0.733286;,
  0.954930;0.187097;0.230443;,
  0.849320;0.065767;0.523765;,
  0.027477;-0.886775;-0.461383;,
  -0.122251;0.358269;0.925580;,
  0.029007;0.014688;0.999471;,
  0.993366;-0.083442;-0.079133;,
  0.119855;-0.143791;0.982323;,
  -0.013034;0.031023;-0.999434;,
  0.432341;0.001097;-0.901709;,
  0.852125;0.516284;0.085630;,
  0.152424;0.417144;0.895968;,
  -0.724428;-0.483494;-0.491363;,
  0.857722;-0.044264;0.512204;,
  -0.025300;-0.657184;0.753305;,
  -0.200686;-0.975243;0.092878;,
  0.953671;0.287489;-0.088668;,
  0.050285;-0.995111;0.084998;,
  0.445698;-0.805437;-0.390671;,
  0.792270;0.470427;0.388595;,
  0.205919;0.798216;0.566082;,
  0.315667;0.603333;0.732355;,
  0.603638;0.594354;0.531380;,
  0.787561;0.613830;-0.054408;,
  0.906509;0.323905;-0.270791;,
  0.994686;-0.095916;-0.037425;,
  0.883413;-0.231283;0.407542;,
  0.111837;0.617260;0.778770;,
  0.149190;0.602822;0.783803;,
  0.424335;0.782008;0.456513;,
  0.686837;0.679116;-0.258951;,
  0.782504;0.287666;-0.552210;,
  0.671547;-0.660488;-0.335829;,
  0.689948;-0.634353;0.348667;,
  0.151488;0.104844;0.982883;,
  -0.206266;0.559930;0.802454;,
  -0.218556;0.947322;0.234124;,
  0.549660;0.736797;-0.393706;,
  0.656714;0.084048;-0.749442;,
  0.485339;-0.696786;-0.528144;,
  0.710133;-0.542922;0.448271;,
  0.308501;-0.130091;0.942286;,
  -0.240618;0.532515;0.811499;,
  -0.651696;0.752998;0.091034;,
  -0.621176;0.446452;-0.644066;,
  -0.214077;-0.075676;-0.973881;,
  0.489394;-0.593621;-0.638833;,
  0.654104;-0.391060;0.647473;,
  0.094127;-0.462784;0.881460;,
  0.281275;0.109255;0.953387;,
  -0.913954;0.405176;0.022806;,
  -0.816428;0.198727;-0.542174;,
  -0.189093;-0.268730;-0.944472;,
  0.445365;-0.681582;-0.580600;,
  0.518161;-0.809761;-0.275310;,
  -0.633326;-0.521823;0.571488;,
  -0.896807;-0.236877;0.373667;,
  -0.993564;0.044514;-0.104158;,
  -0.920318;0.012872;-0.390960;,
  -0.883767;-0.200723;-0.422688;,
  0.489360;-0.645828;-0.586031;,
  0.561154;-0.776521;-0.286567;,
  -0.946621;-0.321958;-0.015894;,
  0.824677;-0.128278;0.550865;,
  0.647310;-0.462837;0.605617;,
  0.100564;-0.688223;-0.718496;,
  0.537711;-0.608349;0.583761;,
  -0.609760;0.478331;-0.631975;,
  -0.475105;0.113903;-0.872526;,
  0.621651;-0.320495;-0.714726;,
  0.908749;-0.267796;0.320094;,
  -0.825644;0.435857;0.358247;,
  0.473571;-0.840508;-0.263206;,
  -0.020799;-0.702381;0.711498;,
  -0.712036;-0.468205;0.523248;,
  0.362799;-0.442858;-0.819911;,
  -0.678088;-0.646855;0.348963;,
  -0.751798;-0.591501;-0.291421;,
  0.792270;-0.609562;-0.027239;,
  0.205920;-0.978160;0.028282;,
  0.315667;-0.922586;-0.221789;,
  0.603634;-0.794467;-0.066687;,
  0.787561;-0.457486;0.412861;,
  0.906510;-0.095715;0.411192;,
  0.994685;0.099125;-0.027840;,
  0.883412;-0.060550;-0.464669;,
  0.111840;-0.961642;-0.250473;,
  0.149190;-0.953140;-0.263184;,
  0.424333;-0.899277;0.106036;,
  0.686836;-0.386526;0.615511;,
  0.782503;0.102592;0.614137;,
  0.671544;0.729598;-0.129287;,
  0.689945;0.296787;-0.660222;,
  0.151490;-0.675249;-0.721865;,
  -0.206262;-0.930111;-0.303892;,
  -0.218553;-0.897466;0.383132;,
  0.549661;-0.351491;0.757843;,
  0.656713;0.383903;0.649112;,
  0.485338;0.874323;0.002459;,
  0.710132;0.163823;-0.684744;,
  0.308504;-0.463188;-0.830832;,
  -0.240616;-0.913658;-0.327616;,
  -0.651695;-0.656157;0.380462;,
  -0.621175;0.031059;0.783056;,
  -0.214075;0.646534;0.732233;,
  0.489396;0.858545;0.152946;,
  0.654106;-0.077344;-0.752438;,
  0.094134;-0.160883;-0.982474;,
  0.281281;-0.661017;-0.695656;,
  -0.913954;-0.337313;0.225628;,
  -0.816429;0.167579;0.552595;,
  -0.189099;0.783014;0.592562;,
  0.445361;0.893751;0.053503;,
  0.518160;0.812390;-0.267455;,
  -0.633326;0.072817;-0.770452;,
  -0.896807;-0.035701;-0.440980;,
  -0.993564;0.027133;0.109974;,
  -0.920317;0.225007;0.319983;,
  -0.883766;0.414688;0.216778;,
  0.489350;0.868469;0.079358;,
  0.561149;0.792621;-0.238461;,
  -0.946620;0.266695;-0.181064;,
  0.824681;-0.229062;-0.517138;,
  0.647309;0.005171;-0.762210;,
  0.100566;0.982040;0.159634;,
  0.537710;0.134532;-0.832328;,
  -0.609756;-0.001678;0.792588;,
  -0.475096;0.434135;0.765383;,
  0.621651;0.686091;0.377927;,
  0.908749;0.021234;-0.416803;,
  -0.825645;-0.563688;-0.023803;,
  0.473576;0.829658;-0.295624;,
  -0.020792;0.132753;-0.990931;,
  -0.712036;0.059029;-0.699658;,
  0.362784;0.847122;0.388295;,
  -0.678087;0.306595;-0.667980;,
  -0.751793;0.647783;-0.123230;,
  0.792272;-0.290599;-0.536524;,
  0.205920;-0.528032;-0.823881;,
  0.315666;-0.285059;-0.905039;,
  0.603635;-0.352019;-0.715337;,
  0.787565;-0.589508;-0.179502;,
  0.906512;-0.401752;0.129738;,
  0.994685;0.074918;0.070631;,
  0.883412;0.367115;-0.291222;,
  0.111839;-0.280582;-0.953292;,
  0.149191;-0.265310;-0.952551;,
  0.424334;-0.554052;-0.716218;,
  0.686837;-0.726670;-0.014306;,
  0.782504;-0.473578;0.404242;,
  0.671542;0.486593;0.558802;,
  0.689943;0.718780;-0.085641;,
  0.151492;0.270981;-0.950589;,
  -0.206262;-0.218557;-0.953776;,
  -0.218554;-0.790638;-0.571949;,
  0.549660;-0.830630;0.089031;,
  0.656714;-0.358675;0.663385;,
  0.485339;0.448201;0.750708;,
  0.710131;0.671317;-0.212244;,
  0.308507;0.473604;-0.824938;,
  -0.240615;-0.189748;-0.951893;,
  -0.651695;-0.664066;-0.366483;,
  -0.621175;-0.655215;0.429925;,
  -0.214076;-0.294658;0.931315;,
  0.489396;0.311082;0.814690;,
  0.654106;0.605133;-0.453827;,
  0.094136;0.759285;-0.643913;,
  0.281283;0.255843;-0.924891;,
  -0.913955;-0.367129;-0.172926;,
  -0.816429;-0.387358;0.428250;,
  -0.189096;-0.104644;0.976367;,
  0.445362;0.414455;0.793649;,
  0.518159;0.647666;0.558605;,
  -0.633327;0.697909;-0.334395;,
  -0.896808;0.359606;-0.257721;,
  -0.993564;-0.080291;0.079899;,
  -0.920317;-0.158392;0.357671;,
  -0.883766;0.027764;0.467105;,
  0.489353;0.379274;0.785293;,
  0.561148;0.612635;0.556590;,
  -0.946621;0.292559;0.135345;,
  0.824680;0.325300;-0.462692;,
  0.647306;0.656008;-0.388135;,
  0.100565;0.368955;0.923991;,
  0.537709;0.782734;-0.313363;,
  -0.609756;-0.680244;0.406774;,
  -0.475098;-0.432467;0.766325;,
  0.621653;0.029415;0.782740;,
  0.908748;0.368211;-0.196466;,
  -0.825647;-0.269917;-0.495431;,
  0.473575;0.680703;0.558901;,
  -0.020790;0.917768;-0.396573;,
  -0.712039;0.630125;-0.309748;,
  0.362793;0.103466;0.926108;,
  -0.678087;0.730479;-0.081235;,
  -0.751794;0.439263;0.491787;;
  589;
  4;0,0,0,0;,
  3;1,3,2;,
  3;1,4,3;,
  3;1,5,4;,
  3;1,6,5;,
  3;1,7,6;,
  3;1,8,7;,
  3;1,45,8;,
  4;2,3,10,9;,
  4;3,4,11,10;,
  4;4,5,12,11;,
  4;5,6,13,12;,
  4;6,7,14,13;,
  4;7,8,15,14;,
  4;8,45,46,15;,
  4;9,10,17,16;,
  4;10,11,18,17;,
  4;11,12,19,18;,
  4;12,13,20,19;,
  4;47,14,21,47;,
  4;14,15,22,21;,
  4;15,46,48,22;,
  4;16,17,24,23;,
  4;17,18,25,24;,
  4;18,49,26,25;,
  4;49,50,27,26;,
  4;20,21,28,51;,
  4;52,22,29,52;,
  4;22,16,23,29;,
  4;23,24,31,30;,
  4;24,25,32,53;,
  4;25,26,33,32;,
  4;26,27,34,33;,
  4;27,28,35,34;,
  4;28,54,36,35;,
  4;29,23,30,55;,
  4;56,56,38,37;,
  4;53,32,39,38;,
  4;32,33,40,39;,
  4;33,34,41,40;,
  4;34,35,42,57;,
  4;35,36,43,42;,
  4;55,30,37,58;,
  3;37,38,44;,
  3;38,39,44;,
  3;39,40,44;,
  3;40,41,44;,
  3;41,59,44;,
  3;59,58,44;,
  3;58,37,44;,
  3;60,62,61;,
  3;60,63,62;,
  3;60,64,63;,
  3;60,65,64;,
  3;60,66,65;,
  3;60,67,66;,
  3;60,104,67;,
  4;61,62,69,68;,
  4;62,63,70,69;,
  4;63,64,71,70;,
  4;64,65,72,71;,
  4;65,66,73,72;,
  4;66,67,74,73;,
  4;67,104,105,74;,
  4;68,69,76,75;,
  4;69,70,77,76;,
  4;70,71,78,77;,
  4;71,72,79,78;,
  4;106,73,80,106;,
  4;73,74,81,80;,
  4;74,105,107,81;,
  4;75,76,83,82;,
  4;76,77,84,83;,
  4;77,108,85,84;,
  4;108,109,86,85;,
  4;79,80,87,110;,
  4;111,81,88,111;,
  4;81,75,82,88;,
  4;82,83,90,89;,
  4;83,84,91,112;,
  4;84,85,92,91;,
  4;85,86,93,92;,
  4;86,87,94,93;,
  4;87,113,95,94;,
  4;88,82,89,114;,
  4;115,115,97,96;,
  4;112,91,98,97;,
  4;91,92,99,98;,
  4;92,93,100,99;,
  4;93,94,101,116;,
  4;94,95,102,101;,
  4;114,89,96,117;,
  3;96,97,103;,
  3;97,98,103;,
  3;98,99,103;,
  3;99,100,103;,
  3;100,118,103;,
  3;118,117,103;,
  3;117,96,103;,
  3;119,121,120;,
  3;119,122,121;,
  3;119,123,122;,
  3;119,124,123;,
  3;119,125,124;,
  3;119,126,125;,
  3;119,163,126;,
  4;120,121,128,127;,
  4;121,122,129,128;,
  4;122,123,130,129;,
  4;123,124,131,130;,
  4;124,125,132,131;,
  4;125,126,133,132;,
  4;126,163,164,133;,
  4;127,128,135,134;,
  4;128,129,136,135;,
  4;129,130,137,136;,
  4;130,131,138,137;,
  4;165,132,139,165;,
  4;132,133,140,139;,
  4;133,164,166,140;,
  4;134,135,142,141;,
  4;135,136,143,142;,
  4;136,167,144,143;,
  4;167,168,145,144;,
  4;138,139,146,169;,
  4;170,140,147,170;,
  4;140,134,141,147;,
  4;141,142,149,148;,
  4;142,143,150,171;,
  4;143,144,151,150;,
  4;144,145,152,151;,
  4;145,146,153,152;,
  4;146,172,154,153;,
  4;147,141,148,173;,
  4;174,174,156,155;,
  4;171,150,157,156;,
  4;150,151,158,157;,
  4;151,152,159,158;,
  4;152,153,160,175;,
  4;153,154,161,160;,
  4;173,148,155,176;,
  3;155,156,162;,
  3;156,157,162;,
  3;157,158,162;,
  3;158,159,162;,
  3;159,177,162;,
  3;177,176,162;,
  3;176,155,162;,
  3;178,180,179;,
  3;178,181,180;,
  3;178,182,181;,
  3;178,183,182;,
  3;178,184,183;,
  3;178,185,184;,
  3;178,222,185;,
  4;179,180,187,186;,
  4;180,181,188,187;,
  4;181,182,189,188;,
  4;182,183,190,189;,
  4;183,184,191,190;,
  4;184,185,192,191;,
  4;185,222,223,192;,
  4;186,187,194,193;,
  4;187,188,195,194;,
  4;188,189,196,195;,
  4;189,190,197,196;,
  4;224,191,198,224;,
  4;191,192,199,198;,
  4;192,223,225,199;,
  4;193,194,201,200;,
  4;194,195,202,201;,
  4;195,226,203,202;,
  4;226,227,204,203;,
  4;197,198,205,228;,
  4;229,199,206,229;,
  4;199,193,200,206;,
  4;200,201,208,207;,
  4;201,202,209,230;,
  4;202,203,210,209;,
  4;203,204,211,210;,
  4;204,205,212,211;,
  4;205,231,213,212;,
  4;206,200,207,232;,
  4;233,233,215,214;,
  4;230,209,216,215;,
  4;209,210,217,216;,
  4;210,211,218,217;,
  4;211,212,219,234;,
  4;212,213,220,219;,
  4;232,207,214,235;,
  3;214,215,221;,
  3;215,216,221;,
  3;216,217,221;,
  3;217,218,221;,
  3;218,236,221;,
  3;236,235,221;,
  3;235,214,221;,
  3;237,239,238;,
  3;237,240,239;,
  3;237,241,240;,
  3;237,242,241;,
  3;237,243,242;,
  3;237,244,243;,
  3;237,281,244;,
  4;238,239,246,245;,
  4;239,240,247,246;,
  4;240,241,248,247;,
  4;241,242,249,248;,
  4;242,243,250,249;,
  4;243,244,251,250;,
  4;244,281,282,251;,
  4;245,246,253,252;,
  4;246,247,254,253;,
  4;247,248,255,254;,
  4;248,249,256,255;,
  4;283,250,257,283;,
  4;250,251,258,257;,
  4;251,282,284,258;,
  4;252,253,260,259;,
  4;253,254,261,260;,
  4;254,285,262,261;,
  4;285,286,263,262;,
  4;256,257,264,287;,
  4;288,258,265,288;,
  4;258,252,259,265;,
  4;259,260,267,266;,
  4;260,261,268,289;,
  4;261,262,269,268;,
  4;262,263,270,269;,
  4;263,264,271,270;,
  4;264,290,272,271;,
  4;265,259,266,291;,
  4;292,292,274,273;,
  4;289,268,275,274;,
  4;268,269,276,275;,
  4;269,270,277,276;,
  4;270,271,278,293;,
  4;271,272,279,278;,
  4;291,266,273,294;,
  3;273,274,280;,
  3;274,275,280;,
  3;275,276,280;,
  3;276,277,280;,
  3;277,295,280;,
  3;295,294,280;,
  3;294,273,280;,
  3;296,298,297;,
  3;296,299,298;,
  3;296,300,299;,
  3;296,301,300;,
  3;296,302,301;,
  3;296,303,302;,
  3;296,340,303;,
  4;297,298,305,304;,
  4;298,299,306,305;,
  4;299,300,307,306;,
  4;300,301,308,307;,
  4;301,302,309,308;,
  4;302,303,310,309;,
  4;303,340,341,310;,
  4;304,305,312,311;,
  4;305,306,313,312;,
  4;306,307,314,313;,
  4;307,308,315,314;,
  4;342,309,316,342;,
  4;309,310,317,316;,
  4;310,341,343,317;,
  4;311,312,319,318;,
  4;312,313,320,319;,
  4;313,344,321,320;,
  4;344,345,322,321;,
  4;315,316,323,346;,
  4;347,317,324,347;,
  4;317,311,318,324;,
  4;318,319,326,325;,
  4;319,320,327,348;,
  4;320,321,328,327;,
  4;321,322,329,328;,
  4;322,323,330,329;,
  4;323,349,331,330;,
  4;324,318,325,350;,
  4;351,351,333,332;,
  4;348,327,334,333;,
  4;327,328,335,334;,
  4;328,329,336,335;,
  4;329,330,337,352;,
  4;330,331,338,337;,
  4;350,325,332,353;,
  3;332,333,339;,
  3;333,334,339;,
  3;334,335,339;,
  3;335,336,339;,
  3;336,354,339;,
  3;354,353,339;,
  3;353,332,339;,
  3;355,357,356;,
  3;355,358,357;,
  3;355,359,358;,
  3;355,360,359;,
  3;355,361,360;,
  3;355,362,361;,
  3;355,399,362;,
  4;356,357,364,363;,
  4;357,358,365,364;,
  4;358,359,366,365;,
  4;359,360,367,366;,
  4;360,361,368,367;,
  4;361,362,369,368;,
  4;362,399,400,369;,
  4;363,364,371,370;,
  4;364,365,372,371;,
  4;365,366,373,372;,
  4;366,367,374,373;,
  4;401,368,375,401;,
  4;368,369,376,375;,
  4;369,400,402,376;,
  4;370,371,378,377;,
  4;371,372,379,378;,
  4;372,403,380,379;,
  4;403,404,381,380;,
  4;374,375,382,405;,
  4;406,376,383,406;,
  4;376,370,377,383;,
  4;377,378,385,384;,
  4;378,379,386,407;,
  4;379,380,387,386;,
  4;380,381,388,387;,
  4;381,382,389,388;,
  4;382,408,390,389;,
  4;383,377,384,409;,
  4;410,410,392,391;,
  4;407,386,393,392;,
  4;386,387,394,393;,
  4;387,388,395,394;,
  4;388,389,396,411;,
  4;389,390,397,396;,
  4;409,384,391,412;,
  3;391,392,398;,
  3;392,393,398;,
  3;393,394,398;,
  3;394,395,398;,
  3;395,413,398;,
  3;413,412,398;,
  3;412,391,398;,
  3;414,416,415;,
  3;414,417,416;,
  3;414,418,417;,
  3;414,419,418;,
  3;414,420,419;,
  3;414,421,420;,
  3;414,458,421;,
  4;415,416,423,422;,
  4;416,417,424,423;,
  4;417,418,425,424;,
  4;418,419,426,425;,
  4;419,420,427,426;,
  4;420,421,428,427;,
  4;421,458,459,428;,
  4;422,423,430,429;,
  4;423,424,431,430;,
  4;424,425,432,431;,
  4;425,426,433,432;,
  4;460,427,434,460;,
  4;427,428,435,434;,
  4;428,459,461,435;,
  4;429,430,437,436;,
  4;430,431,438,437;,
  4;431,462,439,438;,
  4;462,463,440,439;,
  4;433,434,441,464;,
  4;465,435,442,465;,
  4;435,429,436,442;,
  4;436,437,444,443;,
  4;437,438,445,466;,
  4;438,439,446,445;,
  4;439,440,447,446;,
  4;440,441,448,447;,
  4;441,467,449,448;,
  4;442,436,443,468;,
  4;469,469,451,450;,
  4;466,445,452,451;,
  4;445,446,453,452;,
  4;446,447,454,453;,
  4;447,448,455,470;,
  4;448,449,456,455;,
  4;468,443,450,471;,
  3;450,451,457;,
  3;451,452,457;,
  3;452,453,457;,
  3;453,454,457;,
  3;454,472,457;,
  3;472,471,457;,
  3;471,450,457;,
  3;473,475,474;,
  3;473,476,475;,
  3;473,477,476;,
  3;473,478,477;,
  3;473,479,478;,
  3;473,480,479;,
  3;473,517,480;,
  4;474,475,482,481;,
  4;475,476,483,482;,
  4;476,477,484,483;,
  4;477,478,485,484;,
  4;478,479,486,485;,
  4;479,480,487,486;,
  4;480,517,518,487;,
  4;481,482,489,488;,
  4;482,483,490,489;,
  4;483,484,491,490;,
  4;484,485,492,491;,
  4;519,486,493,519;,
  4;486,487,494,493;,
  4;487,518,520,494;,
  4;488,489,496,495;,
  4;489,490,497,496;,
  4;490,521,498,497;,
  4;521,522,499,498;,
  4;492,493,500,523;,
  4;524,494,501,524;,
  4;494,488,495,501;,
  4;495,496,503,502;,
  4;496,497,504,525;,
  4;497,498,505,504;,
  4;498,499,506,505;,
  4;499,500,507,506;,
  4;500,526,508,507;,
  4;501,495,502,527;,
  4;528,528,510,509;,
  4;525,504,511,510;,
  4;504,505,512,511;,
  4;505,506,513,512;,
  4;506,507,514,529;,
  4;507,508,515,514;,
  4;527,502,509,530;,
  3;509,510,516;,
  3;510,511,516;,
  3;511,512,516;,
  3;512,513,516;,
  3;513,531,516;,
  3;531,530,516;,
  3;530,509,516;,
  3;532,534,533;,
  3;532,535,534;,
  3;532,536,535;,
  3;532,537,536;,
  3;532,538,537;,
  3;532,539,538;,
  3;532,576,539;,
  4;533,534,541,540;,
  4;534,535,542,541;,
  4;535,536,543,542;,
  4;536,537,544,543;,
  4;537,538,545,544;,
  4;538,539,546,545;,
  4;539,576,577,546;,
  4;540,541,548,547;,
  4;541,542,549,548;,
  4;542,543,550,549;,
  4;543,544,551,550;,
  4;578,545,552,578;,
  4;545,546,553,552;,
  4;546,577,579,553;,
  4;547,548,555,554;,
  4;548,549,556,555;,
  4;549,580,557,556;,
  4;580,581,558,557;,
  4;551,552,559,582;,
  4;583,553,560,583;,
  4;553,547,554,560;,
  4;554,555,562,561;,
  4;555,556,563,584;,
  4;556,557,564,563;,
  4;557,558,565,564;,
  4;558,559,566,565;,
  4;559,585,567,566;,
  4;560,554,561,586;,
  4;587,587,569,568;,
  4;584,563,570,569;,
  4;563,564,571,570;,
  4;564,565,572,571;,
  4;565,566,573,588;,
  4;566,567,574,573;,
  4;586,561,568,589;,
  3;568,569,575;,
  3;569,570,575;,
  3;570,571,575;,
  3;571,572,575;,
  3;572,590,575;,
  3;590,589,575;,
  3;589,568,575;,
  3;591,593,592;,
  3;591,594,593;,
  3;591,595,594;,
  3;591,596,595;,
  3;591,597,596;,
  3;591,598,597;,
  3;591,635,598;,
  4;592,593,600,599;,
  4;593,594,601,600;,
  4;594,595,602,601;,
  4;595,596,603,602;,
  4;596,597,604,603;,
  4;597,598,605,604;,
  4;598,635,636,605;,
  4;599,600,607,606;,
  4;600,601,608,607;,
  4;601,602,609,608;,
  4;602,603,610,609;,
  4;637,604,611,637;,
  4;604,605,612,611;,
  4;605,636,638,612;,
  4;606,607,614,613;,
  4;607,608,615,614;,
  4;608,639,616,615;,
  4;639,640,617,616;,
  4;610,611,618,641;,
  4;642,612,619,642;,
  4;612,606,613,619;,
  4;613,614,621,620;,
  4;614,615,622,643;,
  4;615,616,623,622;,
  4;616,617,624,623;,
  4;617,618,625,624;,
  4;618,644,626,625;,
  4;619,613,620,645;,
  4;646,646,628,627;,
  4;643,622,629,628;,
  4;622,623,630,629;,
  4;623,624,631,630;,
  4;624,625,632,647;,
  4;625,626,633,632;,
  4;645,620,627,648;,
  3;627,628,634;,
  3;628,629,634;,
  3;629,630,634;,
  3;630,631,634;,
  3;631,649,634;,
  3;649,648,634;,
  3;648,627,634;,
  3;650,652,651;,
  3;650,653,652;,
  3;650,654,653;,
  3;650,655,654;,
  3;650,656,655;,
  3;650,657,656;,
  3;650,694,657;,
  4;651,652,659,658;,
  4;652,653,660,659;,
  4;653,654,661,660;,
  4;654,655,662,661;,
  4;655,656,663,662;,
  4;656,657,664,663;,
  4;657,694,695,664;,
  4;658,659,666,665;,
  4;659,660,667,666;,
  4;660,661,668,667;,
  4;661,662,669,668;,
  4;696,663,670,696;,
  4;663,664,671,670;,
  4;664,695,697,671;,
  4;665,666,673,672;,
  4;666,667,674,673;,
  4;667,698,675,674;,
  4;698,699,676,675;,
  4;669,670,677,700;,
  4;701,671,678,701;,
  4;671,665,672,678;,
  4;672,673,680,679;,
  4;673,674,681,702;,
  4;674,675,682,681;,
  4;675,676,683,682;,
  4;676,677,684,683;,
  4;677,703,685,684;,
  4;678,672,679,704;,
  4;705,705,687,686;,
  4;702,681,688,687;,
  4;681,682,689,688;,
  4;682,683,690,689;,
  4;683,684,691,706;,
  4;684,685,692,691;,
  4;704,679,686,707;,
  3;686,687,693;,
  3;687,688,693;,
  3;688,689,693;,
  3;689,690,693;,
  3;690,708,693;,
  3;708,707,693;,
  3;707,686,693;;
 }
 MeshTextureCoords {
  748;
  0.000000;0.000000;,
  1.000000;0.000000;,
  1.000000;1.000000;,
  0.000000;1.000000;,
  0.071429;0.000000;,
  0.142857;0.142857;,
  0.000000;0.142857;,
  0.214286;0.000000;,
  0.285714;0.142857;,
  0.357143;0.000000;,
  0.428571;0.142857;,
  0.500000;0.000000;,
  0.571429;0.142857;,
  0.642857;0.000000;,
  0.714286;0.142857;,
  0.785714;0.000000;,
  0.857143;0.142857;,
  0.928571;0.000000;,
  1.000000;0.142857;,
  0.142857;0.285714;,
  0.000000;0.285714;,
  0.285714;0.285714;,
  0.428571;0.285714;,
  0.571429;0.285714;,
  0.714286;0.285714;,
  0.857143;0.285714;,
  1.000000;0.285714;,
  0.142857;0.428571;,
  0.000000;0.428571;,
  0.285714;0.428571;,
  0.428571;0.428571;,
  0.571429;0.428571;,
  0.714286;0.428571;,
  0.857143;0.428571;,
  1.000000;0.428571;,
  0.142857;0.571429;,
  0.000000;0.571429;,
  0.285714;0.571429;,
  0.428571;0.571429;,
  0.571429;0.571429;,
  0.714286;0.571429;,
  0.857143;0.571429;,
  1.000000;0.571429;,
  0.142857;0.714286;,
  0.000000;0.714286;,
  0.285714;0.714286;,
  0.428571;0.714286;,
  0.571429;0.714286;,
  0.714286;0.714286;,
  0.857143;0.714286;,
  1.000000;0.714286;,
  0.142857;0.857143;,
  0.000000;0.857143;,
  0.285714;0.857143;,
  0.428571;0.857143;,
  0.571429;0.857143;,
  0.714286;0.857143;,
  0.857143;0.857143;,
  1.000000;0.857143;,
  0.071429;1.000000;,
  0.214286;1.000000;,
  0.357143;1.000000;,
  0.500000;1.000000;,
  0.642857;1.000000;,
  0.785714;1.000000;,
  0.928571;1.000000;,
  0.071429;0.000000;,
  0.142857;0.142857;,
  0.000000;0.142857;,
  0.214286;0.000000;,
  0.285714;0.142857;,
  0.357143;0.000000;,
  0.428571;0.142857;,
  0.500000;0.000000;,
  0.571429;0.142857;,
  0.642857;0.000000;,
  0.714286;0.142857;,
  0.785714;0.000000;,
  0.857143;0.142857;,
  0.928571;0.000000;,
  1.000000;0.142857;,
  0.142857;0.285714;,
  0.000000;0.285714;,
  0.285714;0.285714;,
  0.428571;0.285714;,
  0.571429;0.285714;,
  0.714286;0.285714;,
  0.857143;0.285714;,
  1.000000;0.285714;,
  0.142857;0.428571;,
  0.000000;0.428571;,
  0.285714;0.428571;,
  0.428571;0.428571;,
  0.571429;0.428571;,
  0.714286;0.428571;,
  0.857143;0.428571;,
  1.000000;0.428571;,
  0.142857;0.571429;,
  0.000000;0.571429;,
  0.285714;0.571429;,
  0.428571;0.571429;,
  0.571429;0.571429;,
  0.714286;0.571429;,
  0.857143;0.571429;,
  1.000000;0.571429;,
  0.142857;0.714286;,
  0.000000;0.714286;,
  0.285714;0.714286;,
  0.428571;0.714286;,
  0.571429;0.714286;,
  0.714286;0.714286;,
  0.857143;0.714286;,
  1.000000;0.714286;,
  0.142857;0.857143;,
  0.000000;0.857143;,
  0.285714;0.857143;,
  0.428571;0.857143;,
  0.571429;0.857143;,
  0.714286;0.857143;,
  0.857143;0.857143;,
  1.000000;0.857143;,
  0.071429;1.000000;,
  0.214286;1.000000;,
  0.357143;1.000000;,
  0.500000;1.000000;,
  0.642857;1.000000;,
  0.785714;1.000000;,
  0.928571;1.000000;,
  0.071429;0.000000;,
  0.142857;0.142857;,
  0.000000;0.142857;,
  0.214286;0.000000;,
  0.285714;0.142857;,
  0.357143;0.000000;,
  0.428571;0.142857;,
  0.500000;0.000000;,
  0.571429;0.142857;,
  0.642857;0.000000;,
  0.714286;0.142857;,
  0.785714;0.000000;,
  0.857143;0.142857;,
  0.928571;0.000000;,
  1.000000;0.142857;,
  0.142857;0.285714;,
  0.000000;0.285714;,
  0.285714;0.285714;,
  0.428571;0.285714;,
  0.571429;0.285714;,
  0.714286;0.285714;,
  0.857143;0.285714;,
  1.000000;0.285714;,
  0.142857;0.428571;,
  0.000000;0.428571;,
  0.285714;0.428571;,
  0.428571;0.428571;,
  0.571429;0.428571;,
  0.714286;0.428571;,
  0.857143;0.428571;,
  1.000000;0.428571;,
  0.142857;0.571429;,
  0.000000;0.571429;,
  0.285714;0.571429;,
  0.428571;0.571429;,
  0.571429;0.571429;,
  0.714286;0.571429;,
  0.857143;0.571429;,
  1.000000;0.571429;,
  0.142857;0.714286;,
  0.000000;0.714286;,
  0.285714;0.714286;,
  0.428571;0.714286;,
  0.571429;0.714286;,
  0.714286;0.714286;,
  0.857143;0.714286;,
  1.000000;0.714286;,
  0.142857;0.857143;,
  0.000000;0.857143;,
  0.285714;0.857143;,
  0.428571;0.857143;,
  0.571429;0.857143;,
  0.714286;0.857143;,
  0.857143;0.857143;,
  1.000000;0.857143;,
  0.071429;1.000000;,
  0.214286;1.000000;,
  0.357143;1.000000;,
  0.500000;1.000000;,
  0.642857;1.000000;,
  0.785714;1.000000;,
  0.928571;1.000000;,
  0.071429;0.000000;,
  0.142857;0.142857;,
  0.000000;0.142857;,
  0.214286;0.000000;,
  0.285714;0.142857;,
  0.357143;0.000000;,
  0.428571;0.142857;,
  0.500000;0.000000;,
  0.571429;0.142857;,
  0.642857;0.000000;,
  0.714286;0.142857;,
  0.785714;0.000000;,
  0.857143;0.142857;,
  0.928571;0.000000;,
  1.000000;0.142857;,
  0.142857;0.285714;,
  0.000000;0.285714;,
  0.285714;0.285714;,
  0.428571;0.285714;,
  0.571429;0.285714;,
  0.714286;0.285714;,
  0.857143;0.285714;,
  1.000000;0.285714;,
  0.142857;0.428571;,
  0.000000;0.428571;,
  0.285714;0.428571;,
  0.428571;0.428571;,
  0.571429;0.428571;,
  0.714286;0.428571;,
  0.857143;0.428571;,
  1.000000;0.428571;,
  0.142857;0.571429;,
  0.000000;0.571429;,
  0.285714;0.571429;,
  0.428571;0.571429;,
  0.571429;0.571429;,
  0.714286;0.571429;,
  0.857143;0.571429;,
  1.000000;0.571429;,
  0.142857;0.714286;,
  0.000000;0.714286;,
  0.285714;0.714286;,
  0.428571;0.714286;,
  0.571429;0.714286;,
  0.714286;0.714286;,
  0.857143;0.714286;,
  1.000000;0.714286;,
  0.142857;0.857143;,
  0.000000;0.857143;,
  0.285714;0.857143;,
  0.428571;0.857143;,
  0.571429;0.857143;,
  0.714286;0.857143;,
  0.857143;0.857143;,
  1.000000;0.857143;,
  0.071429;1.000000;,
  0.214286;1.000000;,
  0.357143;1.000000;,
  0.500000;1.000000;,
  0.642857;1.000000;,
  0.785714;1.000000;,
  0.928571;1.000000;,
  0.071429;0.000000;,
  0.142857;0.142857;,
  0.000000;0.142857;,
  0.214286;0.000000;,
  0.285714;0.142857;,
  0.357143;0.000000;,
  0.428571;0.142857;,
  0.500000;0.000000;,
  0.571429;0.142857;,
  0.642857;0.000000;,
  0.714286;0.142857;,
  0.785714;0.000000;,
  0.857143;0.142857;,
  0.928571;0.000000;,
  1.000000;0.142857;,
  0.142857;0.285714;,
  0.000000;0.285714;,
  0.285714;0.285714;,
  0.428571;0.285714;,
  0.571429;0.285714;,
  0.714286;0.285714;,
  0.857143;0.285714;,
  1.000000;0.285714;,
  0.142857;0.428571;,
  0.000000;0.428571;,
  0.285714;0.428571;,
  0.428571;0.428571;,
  0.571429;0.428571;,
  0.714286;0.428571;,
  0.857143;0.428571;,
  1.000000;0.428571;,
  0.142857;0.571429;,
  0.000000;0.571429;,
  0.285714;0.571429;,
  0.428571;0.571429;,
  0.571429;0.571429;,
  0.714286;0.571429;,
  0.857143;0.571429;,
  1.000000;0.571429;,
  0.142857;0.714286;,
  0.000000;0.714286;,
  0.285714;0.714286;,
  0.428571;0.714286;,
  0.571429;0.714286;,
  0.714286;0.714286;,
  0.857143;0.714286;,
  1.000000;0.714286;,
  0.142857;0.857143;,
  0.000000;0.857143;,
  0.285714;0.857143;,
  0.428571;0.857143;,
  0.571429;0.857143;,
  0.714286;0.857143;,
  0.857143;0.857143;,
  1.000000;0.857143;,
  0.071429;1.000000;,
  0.214286;1.000000;,
  0.357143;1.000000;,
  0.500000;1.000000;,
  0.642857;1.000000;,
  0.785714;1.000000;,
  0.928571;1.000000;,
  0.071429;0.000000;,
  0.142857;0.142857;,
  0.000000;0.142857;,
  0.214286;0.000000;,
  0.285714;0.142857;,
  0.357143;0.000000;,
  0.428571;0.142857;,
  0.500000;0.000000;,
  0.571429;0.142857;,
  0.642857;0.000000;,
  0.714286;0.142857;,
  0.785714;0.000000;,
  0.857143;0.142857;,
  0.928571;0.000000;,
  1.000000;0.142857;,
  0.142857;0.285714;,
  0.000000;0.285714;,
  0.285714;0.285714;,
  0.428571;0.285714;,
  0.571429;0.285714;,
  0.714286;0.285714;,
  0.857143;0.285714;,
  1.000000;0.285714;,
  0.142857;0.428571;,
  0.000000;0.428571;,
  0.285714;0.428571;,
  0.428571;0.428571;,
  0.571429;0.428571;,
  0.714286;0.428571;,
  0.857143;0.428571;,
  1.000000;0.428571;,
  0.142857;0.571429;,
  0.000000;0.571429;,
  0.285714;0.571429;,
  0.428571;0.571429;,
  0.571429;0.571429;,
  0.714286;0.571429;,
  0.857143;0.571429;,
  1.000000;0.571429;,
  0.142857;0.714286;,
  0.000000;0.714286;,
  0.285714;0.714286;,
  0.428571;0.714286;,
  0.571429;0.714286;,
  0.714286;0.714286;,
  0.857143;0.714286;,
  1.000000;0.714286;,
  0.142857;0.857143;,
  0.000000;0.857143;,
  0.285714;0.857143;,
  0.428571;0.857143;,
  0.571429;0.857143;,
  0.714286;0.857143;,
  0.857143;0.857143;,
  1.000000;0.857143;,
  0.071429;1.000000;,
  0.214286;1.000000;,
  0.357143;1.000000;,
  0.500000;1.000000;,
  0.642857;1.000000;,
  0.785714;1.000000;,
  0.928571;1.000000;,
  0.071429;0.000000;,
  0.142857;0.142857;,
  0.000000;0.142857;,
  0.214286;0.000000;,
  0.285714;0.142857;,
  0.357143;0.000000;,
  0.428571;0.142857;,
  0.500000;0.000000;,
  0.571429;0.142857;,
  0.642857;0.000000;,
  0.714286;0.142857;,
  0.785714;0.000000;,
  0.857143;0.142857;,
  0.928571;0.000000;,
  1.000000;0.142857;,
  0.142857;0.285714;,
  0.000000;0.285714;,
  0.285714;0.285714;,
  0.428571;0.285714;,
  0.571429;0.285714;,
  0.714286;0.285714;,
  0.857143;0.285714;,
  1.000000;0.285714;,
  0.142857;0.428571;,
  0.000000;0.428571;,
  0.285714;0.428571;,
  0.428571;0.428571;,
  0.571429;0.428571;,
  0.714286;0.428571;,
  0.857143;0.428571;,
  1.000000;0.428571;,
  0.142857;0.571429;,
  0.000000;0.571429;,
  0.285714;0.571429;,
  0.428571;0.571429;,
  0.571429;0.571429;,
  0.714286;0.571429;,
  0.857143;0.571429;,
  1.000000;0.571429;,
  0.142857;0.714286;,
  0.000000;0.714286;,
  0.285714;0.714286;,
  0.428571;0.714286;,
  0.571429;0.714286;,
  0.714286;0.714286;,
  0.857143;0.714286;,
  1.000000;0.714286;,
  0.142857;0.857143;,
  0.000000;0.857143;,
  0.285714;0.857143;,
  0.428571;0.857143;,
  0.571429;0.857143;,
  0.714286;0.857143;,
  0.857143;0.857143;,
  1.000000;0.857143;,
  0.071429;1.000000;,
  0.214286;1.000000;,
  0.357143;1.000000;,
  0.500000;1.000000;,
  0.642857;1.000000;,
  0.785714;1.000000;,
  0.928571;1.000000;,
  0.071429;0.000000;,
  0.142857;0.142857;,
  0.000000;0.142857;,
  0.214286;0.000000;,
  0.285714;0.142857;,
  0.357143;0.000000;,
  0.428571;0.142857;,
  0.500000;0.000000;,
  0.571429;0.142857;,
  0.642857;0.000000;,
  0.714286;0.142857;,
  0.785714;0.000000;,
  0.857143;0.142857;,
  0.928571;0.000000;,
  1.000000;0.142857;,
  0.142857;0.285714;,
  0.000000;0.285714;,
  0.285714;0.285714;,
  0.428571;0.285714;,
  0.571429;0.285714;,
  0.714286;0.285714;,
  0.857143;0.285714;,
  1.000000;0.285714;,
  0.142857;0.428571;,
  0.000000;0.428571;,
  0.285714;0.428571;,
  0.428571;0.428571;,
  0.571429;0.428571;,
  0.714286;0.428571;,
  0.857143;0.428571;,
  1.000000;0.428571;,
  0.142857;0.571429;,
  0.000000;0.571429;,
  0.285714;0.571429;,
  0.428571;0.571429;,
  0.571429;0.571429;,
  0.714286;0.571429;,
  0.857143;0.571429;,
  1.000000;0.571429;,
  0.142857;0.714286;,
  0.000000;0.714286;,
  0.285714;0.714286;,
  0.428571;0.714286;,
  0.571429;0.714286;,
  0.714286;0.714286;,
  0.857143;0.714286;,
  1.000000;0.714286;,
  0.142857;0.857143;,
  0.000000;0.857143;,
  0.285714;0.857143;,
  0.428571;0.857143;,
  0.571429;0.857143;,
  0.714286;0.857143;,
  0.857143;0.857143;,
  1.000000;0.857143;,
  0.071429;1.000000;,
  0.214286;1.000000;,
  0.357143;1.000000;,
  0.500000;1.000000;,
  0.642857;1.000000;,
  0.785714;1.000000;,
  0.928571;1.000000;,
  0.071429;0.000000;,
  0.142857;0.142857;,
  0.000000;0.142857;,
  0.214286;0.000000;,
  0.285714;0.142857;,
  0.357143;0.000000;,
  0.428571;0.142857;,
  0.500000;0.000000;,
  0.571429;0.142857;,
  0.642857;0.000000;,
  0.714286;0.142857;,
  0.785714;0.000000;,
  0.857143;0.142857;,
  0.928571;0.000000;,
  1.000000;0.142857;,
  0.142857;0.285714;,
  0.000000;0.285714;,
  0.285714;0.285714;,
  0.428571;0.285714;,
  0.571429;0.285714;,
  0.714286;0.285714;,
  0.857143;0.285714;,
  1.000000;0.285714;,
  0.142857;0.428571;,
  0.000000;0.428571;,
  0.285714;0.428571;,
  0.428571;0.428571;,
  0.571429;0.428571;,
  0.714286;0.428571;,
  0.857143;0.428571;,
  1.000000;0.428571;,
  0.142857;0.571429;,
  0.000000;0.571429;,
  0.285714;0.571429;,
  0.428571;0.571429;,
  0.571429;0.571429;,
  0.714286;0.571429;,
  0.857143;0.571429;,
  1.000000;0.571429;,
  0.142857;0.714286;,
  0.000000;0.714286;,
  0.285714;0.714286;,
  0.428571;0.714286;,
  0.571429;0.714286;,
  0.714286;0.714286;,
  0.857143;0.714286;,
  1.000000;0.714286;,
  0.142857;0.857143;,
  0.000000;0.857143;,
  0.285714;0.857143;,
  0.428571;0.857143;,
  0.571429;0.857143;,
  0.714286;0.857143;,
  0.857143;0.857143;,
  1.000000;0.857143;,
  0.071429;1.000000;,
  0.214286;1.000000;,
  0.357143;1.000000;,
  0.500000;1.000000;,
  0.642857;1.000000;,
  0.785714;1.000000;,
  0.928571;1.000000;,
  0.071429;0.000000;,
  0.142857;0.142857;,
  0.000000;0.142857;,
  0.214286;0.000000;,
  0.285714;0.142857;,
  0.357143;0.000000;,
  0.428571;0.142857;,
  0.500000;0.000000;,
  0.571429;0.142857;,
  0.642857;0.000000;,
  0.714286;0.142857;,
  0.785714;0.000000;,
  0.857143;0.142857;,
  0.928571;0.000000;,
  1.000000;0.142857;,
  0.142857;0.285714;,
  0.000000;0.285714;,
  0.285714;0.285714;,
  0.428571;0.285714;,
  0.571429;0.285714;,
  0.714286;0.285714;,
  0.857143;0.285714;,
  1.000000;0.285714;,
  0.142857;0.428571;,
  0.000000;0.428571;,
  0.285714;0.428571;,
  0.428571;0.428571;,
  0.571429;0.428571;,
  0.714286;0.428571;,
  0.857143;0.428571;,
  1.000000;0.428571;,
  0.142857;0.571429;,
  0.000000;0.571429;,
  0.285714;0.571429;,
  0.428571;0.571429;,
  0.571429;0.571429;,
  0.714286;0.571429;,
  0.857143;0.571429;,
  1.000000;0.571429;,
  0.142857;0.714286;,
  0.000000;0.714286;,
  0.285714;0.714286;,
  0.428571;0.714286;,
  0.571429;0.714286;,
  0.714286;0.714286;,
  0.857143;0.714286;,
  1.000000;0.714286;,
  0.142857;0.857143;,
  0.000000;0.857143;,
  0.285714;0.857143;,
  0.428571;0.857143;,
  0.571429;0.857143;,
  0.714286;0.857143;,
  0.857143;0.857143;,
  1.000000;0.857143;,
  0.071429;1.000000;,
  0.214286;1.000000;,
  0.357143;1.000000;,
  0.500000;1.000000;,
  0.642857;1.000000;,
  0.785714;1.000000;,
  0.928571;1.000000;,
  0.071429;0.000000;,
  0.142857;0.142857;,
  0.000000;0.142857;,
  0.214286;0.000000;,
  0.285714;0.142857;,
  0.357143;0.000000;,
  0.428571;0.142857;,
  0.500000;0.000000;,
  0.571429;0.142857;,
  0.642857;0.000000;,
  0.714286;0.142857;,
  0.785714;0.000000;,
  0.857143;0.142857;,
  0.928571;0.000000;,
  1.000000;0.142857;,
  0.142857;0.285714;,
  0.000000;0.285714;,
  0.285714;0.285714;,
  0.428571;0.285714;,
  0.571429;0.285714;,
  0.714286;0.285714;,
  0.857143;0.285714;,
  1.000000;0.285714;,
  0.142857;0.428571;,
  0.000000;0.428571;,
  0.285714;0.428571;,
  0.428571;0.428571;,
  0.571429;0.428571;,
  0.714286;0.428571;,
  0.857143;0.428571;,
  1.000000;0.428571;,
  0.142857;0.571429;,
  0.000000;0.571429;,
  0.285714;0.571429;,
  0.428571;0.571429;,
  0.571429;0.571429;,
  0.714286;0.571429;,
  0.857143;0.571429;,
  1.000000;0.571429;,
  0.142857;0.714286;,
  0.000000;0.714286;,
  0.285714;0.714286;,
  0.428571;0.714286;,
  0.571429;0.714286;,
  0.714286;0.714286;,
  0.857143;0.714286;,
  1.000000;0.714286;,
  0.142857;0.857143;,
  0.000000;0.857143;,
  0.285714;0.857143;,
  0.428571;0.857143;,
  0.571429;0.857143;,
  0.714286;0.857143;,
  0.857143;0.857143;,
  1.000000;0.857143;,
  0.071429;1.000000;,
  0.214286;1.000000;,
  0.357143;1.000000;,
  0.500000;1.000000;,
  0.642857;1.000000;,
  0.785714;1.000000;,
  0.928571;1.000000;,
  0.071429;0.000000;,
  0.142857;0.142857;,
  0.000000;0.142857;,
  0.214286;0.000000;,
  0.285714;0.142857;,
  0.357143;0.000000;,
  0.428571;0.142857;,
  0.500000;0.000000;,
  0.571429;0.142857;,
  0.642857;0.000000;,
  0.714286;0.142857;,
  0.785714;0.000000;,
  0.857143;0.142857;,
  0.928571;0.000000;,
  1.000000;0.142857;,
  0.142857;0.285714;,
  0.000000;0.285714;,
  0.285714;0.285714;,
  0.428571;0.285714;,
  0.571429;0.285714;,
  0.714286;0.285714;,
  0.857143;0.285714;,
  1.000000;0.285714;,
  0.142857;0.428571;,
  0.000000;0.428571;,
  0.285714;0.428571;,
  0.428571;0.428571;,
  0.571429;0.428571;,
  0.714286;0.428571;,
  0.857143;0.428571;,
  1.000000;0.428571;,
  0.142857;0.571429;,
  0.000000;0.571429;,
  0.285714;0.571429;,
  0.428571;0.571429;,
  0.571429;0.571429;,
  0.714286;0.571429;,
  0.857143;0.571429;,
  1.000000;0.571429;,
  0.142857;0.714286;,
  0.000000;0.714286;,
  0.285714;0.714286;,
  0.428571;0.714286;,
  0.571429;0.714286;,
  0.714286;0.714286;,
  0.857143;0.714286;,
  1.000000;0.714286;,
  0.142857;0.857143;,
  0.000000;0.857143;,
  0.285714;0.857143;,
  0.428571;0.857143;,
  0.571429;0.857143;,
  0.714286;0.857143;,
  0.857143;0.857143;,
  1.000000;0.857143;,
  0.071429;1.000000;,
  0.214286;1.000000;,
  0.357143;1.000000;,
  0.500000;1.000000;,
  0.642857;1.000000;,
  0.785714;1.000000;,
  0.928571;1.000000;;
 }
}
